{
  "TIMESTAMP": "08/22/2021 05:07:46 GMT",
  "VERSION": 2.3,
  "TRAFFIC_ITEMS": {
    "TRAFFIC_ITEM": [
      {
        "TRAFFIC_ITEM_ID": 2636337002127722801,
        "ORIGINAL_TRAFFIC_ITEM_ID": 3542540216729552732,
        "TRAFFIC_ITEM_STATUS_SHORT_DESC": "ACTIVE",
        "TRAFFIC_ITEM_TYPE_DESC": "CONGESTION",
        "START_TIME": "08/22/2021 04:55:50",
        "END_TIME": "08/22/2021 05:18:19",
        "ENTRY_TIME": "08/22/2021 05:08:19",
        "CRITICALITY": {
          "ID": "2",
          "DESCRIPTION": "minor"
        },
        "VERIFIED": true,
        "ABBREVIATION": {
          "SHORT_DESC": "SLOW",
          "DESCRIPTION": "slow"
        },
        "RDS-TMC_LOCATIONS": {
          "RDS-TMC": [
            {
              "ORIGIN": {
                "EBU_COUNTRY_CODE": "D",
                "TABLE_ID": 1,
                "LOCATION_ID": "10541",
                "LOCATION_DESC": "Theessen",
                "RDS_DIRECTION": "+"
              },
              "DIRECTION": "-",
              "ALERTC": {
                "TRAFFIC_CODE": 138,
                "QUANTIFIERS": 4,
                "DESCRIPTION": "Stockender Verkehr;; vorsichtig an das Stauende heranfahren.",
                "ALERTC_DURATION": "D",
                "ALERTC_DIRECTION": 1,
                "URGENCY": "U",
                "UPDATE_CLASS": 1,
                "PHRASE_CODE": "A2.Z112",
                "EXTENT": "1",
                "DURATION": 0
              },
              "LENGTH": 0.09443,
              "PRIMARY_OFFSET": 0.1127
            }
          ]
        },
        "LOCATION": {
          "DEFINED": {
            "ORIGIN": {
              "ROADWAY": {
                "DESCRIPTION": [
                  {
                    "value": "A2",
                    "TYPE": "NTCSA"
                  },
                  {
                    "value": "A2",
                    "TYPE": "RDSGN"
                  },
                  {
                    "value": "A2",
                    "TYPE": "LOCAL"
                  }
                ],
                "ID": 50080
              },
              "POINT": {
                "DESCRIPTION": [
                  {
                    "value": "W\u00fcstenforst",
                    "TYPE": "NTCSA"
                  },
                  {
                    "value": "W\u00fcstenforst",
                    "TYPE": "RDSGN"
                  },
                  {
                    "value": "W\u00fcstenforst",
                    "TYPE": "LOCAL"
                  },
                  {
                    "value": "A2",
                    "TYPE": "BNAME"
                  }
                ],
                "ID": 10541
              },
              "DIRECTION": {
                "DESCRIPTION": [
                  {
                    "value": "MAGDEBURG",
                    "TYPE": "LOCAL"
                  },
                  {
                    "value": "MAGDEBURG",
                    "TYPE": "NTCSA"
                  },
                  {
                    "value": "MAGDEBURG",
                    "TYPE": "RDSGN"
                  }
                ],
                "ID": 0
              },
              "PROXIMITY": {
                "ID": "AT",
                "DESCRIPTION": "at"
              }
            },
            "TO": {
              "ROADWAY": {
                "DESCRIPTION": [
                  {
                    "value": "A2",
                    "TYPE": "NTCSA"
                  },
                  {
                    "value": "A2",
                    "TYPE": "RDSGN"
                  },
                  {
                    "value": "A2",
                    "TYPE": "LOCAL"
                  }
                ],
                "ID": 50080
              },
              "POINT": {
                "DESCRIPTION": [
                  {
                    "value": "Theessen",
                    "TYPE": "NTCSA"
                  },
                  {
                    "value": "Theessen",
                    "TYPE": "RDSGN"
                  },
                  {
                    "value": "Theessen",
                    "TYPE": "LOCAL"
                  },
                  {
                    "value": "A2",
                    "TYPE": "BNAME"
                  }
                ],
                "ID": 10541
              },
              "DIRECTION": {
                "DESCRIPTION": [
                  {
                    "value": "MAGDEBURG",
                    "TYPE": "LOCAL"
                  },
                  {
                    "value": "MAGDEBURG",
                    "TYPE": "NTCSA"
                  },
                  {
                    "value": "MAGDEBURG",
                    "TYPE": "RDSGN"
                  }
                ],
                "ID": 0
              },
              "PROXIMITY": {
                "ID": "AT",
                "DESCRIPTION": "at"
              }
            }
          },
          "GEOLOC": {
            "ORIGIN": {
              "LATITUDE": 52.23369,
              "LONGITUDE": 12.06424
            },
            "TO": [
              {
                "LATITUDE": 52.23345,
                "LONGITUDE": 12.06231
              }
            ]
          },
          "NAVTECH": {
            "EDGE": {
              "EDGE_ID": [
                "1091587251"
              ]
            },
            "VERSION_ID": "202102"
          },
          "LENGTH": 0.09443
        },
        "TRAFFIC_ITEM_DETAIL": {
          "ROAD_CLOSED": false,
          "INCIDENT": {
            "RESPONSE_VEHICLES": false,
            "CONGESTION_INCIDENT": {
              "CONGESTION_TYPE_DESC": "CONGESTION",
              "CONGESTION_FACTOR": 50
            }
          },
          "ALERTC": [
            {
              "EVENT_CODE": 138
            }
          ]
        },
        "TRAFFIC_ITEM_DESCRIPTION": [
          {
            "value": "Bei Theessen - Stockender Verkehr;; vorsichtig an das Stauende heranfahren.",
            "TYPE": "short_desc"
          },
          {
            "value": "Bei Theessen - Stockender Verkehr;; vorsichtig an das Stauende heranfahren.",
            "TYPE": "desc"
          },
          {
            "value": "Stockender Verkehr;; vorsichtig an das Stauende heranfahren.",
            "TYPE": "no_exit_description"
          }
        ],
        "mid": "a1a6d79a-f1d3-4add-b4c5-979ff15e568b|1629608899604",
        "PRODUCT": "basic"
      },
      {
        "TRAFFIC_ITEM_ID": 4267128036671479255,
        "ORIGINAL_TRAFFIC_ITEM_ID": 3960974517905948529,
        "TRAFFIC_ITEM_STATUS_SHORT_DESC": "ACTIVE",
        "TRAFFIC_ITEM_TYPE_DESC": "CONGESTION",
        "START_TIME": "08/22/2021 04:58:49",
        "END_TIME": "08/22/2021 05:18:04",
        "ENTRY_TIME": "08/22/2021 04:58:49",
        "CRITICALITY": {
          "ID": "2",
          "DESCRIPTION": "minor"
        },
        "VERIFIED": true,
        "ABBREVIATION": {
          "SHORT_DESC": "SLOW",
          "DESCRIPTION": "slow"
        },
        "RDS-TMC_LOCATIONS": {
          "RDS-TMC": [
            {
              "ORIGIN": {
                "EBU_COUNTRY_CODE": "D",
                "TABLE_ID": 1,
                "LOCATION_ID": "31620",
                "LOCATION_DESC": "Allach",
                "RDS_DIRECTION": "+"
              },
              "DIRECTION": "-",
              "ALERTC": {
                "TRAFFIC_CODE": 138,
                "QUANTIFIERS": 4,
                "DESCRIPTION": "Stockender Verkehr;; vorsichtig an das Stauende heranfahren.",
                "ALERTC_DURATION": "D",
                "ALERTC_DIRECTION": 1,
                "URGENCY": "U",
                "UPDATE_CLASS": 1,
                "PHRASE_CODE": "A2.Z112",
                "EXTENT": "1",
                "DURATION": 0
              },
              "LENGTH": 0.13583,
              "PRIMARY_OFFSET": 0.28035
            }
          ]
        },
        "LOCATION": {
          "DEFINED": {
            "ORIGIN": {
              "ROADWAY": {
                "DESCRIPTION": [
                  {
                    "value": "Autobahnring M\u00fcnchen",
                    "TYPE": "NTCSA"
                  },
                  {
                    "value": "Autobahnring M\u00fcnchen",
                    "TYPE": "RDSGN"
                  },
                  {
                    "value": "Autobahnring M\u00fcnchen",
                    "TYPE": "LOCAL"
                  }
                ],
                "ID": 50183
              },
              "POINT": {
                "DESCRIPTION": [
                  {
                    "value": "M\u00fcnchen-Ludwigsfeld",
                    "TYPE": "NTCSA"
                  },
                  {
                    "value": "M\u00fcnchen-Ludwigsfeld",
                    "TYPE": "RDSGN"
                  },
                  {
                    "value": "M\u00fcnchen-Ludwigsfeld",
                    "TYPE": "LOCAL"
                  },
                  {
                    "value": "Autobahnring M\u00fcnchen",
                    "TYPE": "BNAME"
                  }
                ],
                "ID": 31620
              },
              "DIRECTION": {
                "DESCRIPTION": [
                  {
                    "value": "M\u00dcNCHEN-S\u00dcD-WEST",
                    "TYPE": "LOCAL"
                  },
                  {
                    "value": "M\u00dcNCHEN-S\u00dcD-WEST",
                    "TYPE": "NTCSA"
                  },
                  {
                    "value": "M\u00dcNCHEN-S\u00dcD-WEST",
                    "TYPE": "RDSGN"
                  }
                ],
                "ID": 0
              },
              "PROXIMITY": {
                "ID": "AT",
                "DESCRIPTION": "at"
              }
            },
            "TO": {
              "ROADWAY": {
                "DESCRIPTION": [
                  {
                    "value": "Autobahnring M\u00fcnchen",
                    "TYPE": "NTCSA"
                  },
                  {
                    "value": "Autobahnring M\u00fcnchen",
                    "TYPE": "RDSGN"
                  },
                  {
                    "value": "Autobahnring M\u00fcnchen",
                    "TYPE": "LOCAL"
                  }
                ],
                "ID": 50183
              },
              "POINT": {
                "DESCRIPTION": [
                  {
                    "value": "Allach",
                    "TYPE": "NTCSA"
                  },
                  {
                    "value": "Allach",
                    "TYPE": "RDSGN"
                  },
                  {
                    "value": "Allach",
                    "TYPE": "LOCAL"
                  },
                  {
                    "value": "Autobahnring M\u00fcnchen",
                    "TYPE": "BNAME"
                  }
                ],
                "ID": 31620
              },
              "DIRECTION": {
                "DESCRIPTION": [
                  {
                    "value": "M\u00dcNCHEN-S\u00dcD-WEST",
                    "TYPE": "LOCAL"
                  },
                  {
                    "value": "M\u00dcNCHEN-S\u00dcD-WEST",
                    "TYPE": "NTCSA"
                  },
                  {
                    "value": "M\u00dcNCHEN-S\u00dcD-WEST",
                    "TYPE": "RDSGN"
                  }
                ],
                "ID": 0
              },
              "PROXIMITY": {
                "ID": "AT",
                "DESCRIPTION": "at"
              }
            }
          },
          "GEOLOC": {
            "ORIGIN": {
              "LATITUDE": 48.20765,
              "LONGITUDE": 11.46171
            },
            "TO": [
              {
                "LATITUDE": 48.20634,
                "LONGITUDE": 11.45956
              }
            ]
          },
          "NAVTECH": {
            "EDGE": {
              "EDGE_ID": [
                "1225525831"
              ]
            },
            "VERSION_ID": "202102"
          },
          "LENGTH": 0.13583
        },
        "TRAFFIC_ITEM_DETAIL": {
          "ROAD_CLOSED": false,
          "INCIDENT": {
            "RESPONSE_VEHICLES": false,
            "CONGESTION_INCIDENT": {
              "CONGESTION_TYPE_DESC": "CONGESTION",
              "CONGESTION_FACTOR": 50
            }
          },
          "ALERTC": [
            {
              "EVENT_CODE": 138
            }
          ]
        },
        "TRAFFIC_ITEM_DESCRIPTION": [
          {
            "value": "Bei Allach - Stockender Verkehr;; vorsichtig an das Stauende heranfahren.",
            "TYPE": "short_desc"
          },
          {
            "value": "Bei Allach - Stockender Verkehr;; vorsichtig an das Stauende heranfahren.",
            "TYPE": "desc"
          },
          {
            "value": "Stockender Verkehr;; vorsichtig an das Stauende heranfahren.",
            "TYPE": "no_exit_description"
          }
        ],
        "mid": "20c0ea77-c0a7-48d9-9038-97ffcc7f5924|1629608329604",
        "PRODUCT": "basic"
      },
      {
        "TRAFFIC_ITEM_ID": 4640510225083427680,
        "ORIGINAL_TRAFFIC_ITEM_ID": 693401297202442848,
        "TRAFFIC_ITEM_STATUS_SHORT_DESC": "ACTIVE",
        "TRAFFIC_ITEM_TYPE_DESC": "CONGESTION",
        "START_TIME": "08/22/2021 05:00:49",
        "END_TIME": "08/22/2021 05:18:04",
        "ENTRY_TIME": "08/22/2021 05:08:04",
        "CRITICALITY": {
          "ID": "2",
          "DESCRIPTION": "minor"
        },
        "VERIFIED": true,
        "ABBREVIATION": {
          "SHORT_DESC": "SLOW",
          "DESCRIPTION": "slow"
        },
        "RDS-TMC_LOCATIONS": {
          "RDS-TMC": [
            {
              "ORIGIN": {
                "EBU_COUNTRY_CODE": "D",
                "TABLE_ID": 1,
                "LOCATION_ID": "32604",
                "LOCATION_DESC": "Ortsteil Britz",
                "RDS_DIRECTION": "-"
              },
              "DIRECTION": "+",
              "ALERTC": {
                "TRAFFIC_CODE": 138,
                "ALERTC_Q_BINARY": "1",
                "QUANTIFIERS": 4,
                "DESCRIPTION": "Stockender Verkehr; Durchschnittsgeschwindigkeit von bis zu 5 km/h; vorsichtig an das Stauende heranfahren.",
                "ALERTC_DURATION": "D",
                "ALERTC_DIRECTION": 1,
                "URGENCY": "U",
                "UPDATE_CLASS": 1,
                "PHRASE_CODE": "A2.Z112",
                "EXTENT": "1",
                "DURATION": 0
              },
              "LENGTH": 0.06273,
              "PRIMARY_OFFSET": 0.0
            }
          ]
        },
        "LOCATION": {
          "DEFINED": {
            "ORIGIN": {
              "ROADWAY": {
                "DESCRIPTION": [
                  {
                    "value": "Stadtring Berlin",
                    "TYPE": "NTCSA"
                  },
                  {
                    "value": "Stadtring Berlin",
                    "TYPE": "RDSGN"
                  },
                  {
                    "value": "Stadtring Berlin",
                    "TYPE": "LOCAL"
                  }
                ],
                "ID": 50062
              },
              "POINT": {
                "DESCRIPTION": [
                  {
                    "value": "Gradestra\u00dfe",
                    "TYPE": "NTCSA"
                  },
                  {
                    "value": "Gradestra\u00dfe",
                    "TYPE": "RDSGN"
                  },
                  {
                    "value": "Gradestra\u00dfe",
                    "TYPE": "LOCAL"
                  },
                  {
                    "value": "Stadtring Berlin",
                    "TYPE": "BNAME"
                  }
                ],
                "ID": 32604
              },
              "DIRECTION": {
                "DESCRIPTION": [
                  {
                    "value": "NEUK\u00d6LLN",
                    "TYPE": "LOCAL"
                  },
                  {
                    "value": "NEUK\u00d6LLN",
                    "TYPE": "NTCSA"
                  },
                  {
                    "value": "NEUK\u00d6LLN",
                    "TYPE": "RDSGN"
                  }
                ],
                "ID": 0
              },
              "PROXIMITY": {
                "ID": "AT",
                "DESCRIPTION": "at"
              }
            },
            "TO": {
              "ROADWAY": {
                "DESCRIPTION": [
                  {
                    "value": "Stadtring Berlin",
                    "TYPE": "NTCSA"
                  },
                  {
                    "value": "Stadtring Berlin",
                    "TYPE": "RDSGN"
                  },
                  {
                    "value": "Stadtring Berlin",
                    "TYPE": "LOCAL"
                  }
                ],
                "ID": 50062
              },
              "POINT": {
                "DESCRIPTION": [
                  {
                    "value": "Ortsteil Britz",
                    "TYPE": "NTCSA"
                  },
                  {
                    "value": "Ortsteil Britz",
                    "TYPE": "RDSGN"
                  },
                  {
                    "value": "Ortsteil Britz",
                    "TYPE": "LOCAL"
                  },
                  {
                    "value": "Stadtring Berlin",
                    "TYPE": "BNAME"
                  }
                ],
                "ID": 32604
              },
              "DIRECTION": {
                "DESCRIPTION": [
                  {
                    "value": "NEUK\u00d6LLN",
                    "TYPE": "LOCAL"
                  },
                  {
                    "value": "NEUK\u00d6LLN",
                    "TYPE": "NTCSA"
                  },
                  {
                    "value": "NEUK\u00d6LLN",
                    "TYPE": "RDSGN"
                  }
                ],
                "ID": 0
              },
              "PROXIMITY": {
                "ID": "AT",
                "DESCRIPTION": "at"
              }
            }
          },
          "GEOLOC": {
            "ORIGIN": {
              "LATITUDE": 52.46131,
              "LONGITUDE": 13.42632
            },
            "TO": [
              {
                "LATITUDE": 52.46155,
                "LONGITUDE": 13.42772
              }
            ]
          },
          "NAVTECH": {
            "EDGE": {
              "EDGE_ID": [
                "927324019"
              ]
            },
            "VERSION_ID": "202102"
          },
          "LENGTH": 0.06273
        },
        "TRAFFIC_ITEM_DETAIL": {
          "ROAD_CLOSED": false,
          "INCIDENT": {
            "RESPONSE_VEHICLES": false,
            "CONGESTION_INCIDENT": {
              "CONGESTION_TYPE_DESC": "CONGESTION",
              "CONGESTION_FACTOR": 50
            }
          },
          "ALERTC": [
            {
              "EVENT_CODE": 138,
              "ALERTC_Q": 1
            }
          ]
        },
        "TRAFFIC_ITEM_DESCRIPTION": [
          {
            "value": "Bei Ortsteil Britz - Stockender Verkehr; Durchschnittsgeschwindigkeit von bis zu 5 km/h; vorsichtig an das Stauende heranfahren.",
            "TYPE": "short_desc"
          },
          {
            "value": "Bei Ortsteil Britz - Stockender Verkehr; Durchschnittsgeschwindigkeit von bis zu 5 km/h; vorsichtig an das Stauende heranfahren.",
            "TYPE": "desc"
          },
          {
            "value": "Stockender Verkehr; Durchschnittsgeschwindigkeit von bis zu 5 km/h; vorsichtig an das Stauende heranfahren.",
            "TYPE": "no_exit_description"
          }
        ],
        "mid": "8a5f3eb1-e143-4533-87c5-fd126e6e61fc|1629608884604",
        "PRODUCT": "basic"
      },
      {
        "TRAFFIC_ITEM_ID": 2230898681066468093,
        "ORIGINAL_TRAFFIC_ITEM_ID": 1909324734845549288,
        "TRAFFIC_ITEM_STATUS_SHORT_DESC": "ACTIVE",
        "TRAFFIC_ITEM_TYPE_DESC": "CONGESTION",
        "START_TIME": "08/22/2021 05:08:16",
        "END_TIME": "08/22/2021 05:19:16",
        "ENTRY_TIME": "08/22/2021 05:09:19",
        "CRITICALITY": {
          "ID": "2",
          "DESCRIPTION": "minor"
        },
        "VERIFIED": true,
        "ABBREVIATION": {
          "SHORT_DESC": "SLOW",
          "DESCRIPTION": "slow"
        },
        "RDS-TMC_LOCATIONS": {
          "RDS-TMC": [
            {
              "ORIGIN": {
                "EBU_COUNTRY_CODE": "A",
                "TABLE_ID": 1,
                "LOCATION_ID": "31280",
                "LOCATION_DESC": "St. Michael im Lungau",
                "RDS_DIRECTION": "-"
              },
              "DIRECTION": "+",
              "ALERTC": {
                "TRAFFIC_CODE": 138,
                "QUANTIFIERS": 4,
                "DESCRIPTION": "Stockender Verkehr;; vorsichtig an das Stauende heranfahren.",
                "ALERTC_DURATION": "D",
                "ALERTC_DIRECTION": 1,
                "URGENCY": "U",
                "UPDATE_CLASS": 1,
                "PHRASE_CODE": "A2.Z112",
                "EXTENT": "1",
                "DURATION": 0
              },
              "LENGTH": 0.02587,
              "PRIMARY_OFFSET": 0.16339
            }
          ]
        },
        "LOCATION": {
          "DEFINED": {
            "ORIGIN": {
              "ROADWAY": {
                "DESCRIPTION": [
                  {
                    "value": "Tauern Autobahn",
                    "TYPE": "NTCSA"
                  },
                  {
                    "value": "Tauern Autobahn",
                    "TYPE": "RDSGN"
                  },
                  {
                    "value": "Tauern Autobahn",
                    "TYPE": "LOCAL"
                  }
                ],
                "ID": 30566
              },
              "POINT": {
                "DESCRIPTION": [
                  {
                    "value": "Parkplatz Lansch\u00fctz",
                    "TYPE": "NTCSA"
                  },
                  {
                    "value": "Parkplatz Lansch\u00fctz",
                    "TYPE": "RDSGN"
                  },
                  {
                    "value": "Parkplatz Lansch\u00fctz",
                    "TYPE": "LOCAL"
                  },
                  {
                    "value": "Tauern Autobahn",
                    "TYPE": "BNAME"
                  }
                ],
                "ID": 31280
              },
              "DIRECTION": {
                "DESCRIPTION": [
                  {
                    "value": "VILLACH",
                    "TYPE": "LOCAL"
                  },
                  {
                    "value": "VILLACH",
                    "TYPE": "NTCSA"
                  },
                  {
                    "value": "VILLACH",
                    "TYPE": "RDSGN"
                  }
                ],
                "ID": 0
              },
              "PROXIMITY": {
                "ID": "AT",
                "DESCRIPTION": "at"
              }
            },
            "TO": {
              "ROADWAY": {
                "DESCRIPTION": [
                  {
                    "value": "Tauern Autobahn",
                    "TYPE": "NTCSA"
                  },
                  {
                    "value": "Tauern Autobahn",
                    "TYPE": "RDSGN"
                  },
                  {
                    "value": "Tauern Autobahn",
                    "TYPE": "LOCAL"
                  }
                ],
                "ID": 30566
              },
              "POINT": {
                "DESCRIPTION": [
                  {
                    "value": "St. Michael im Lungau",
                    "TYPE": "NTCSA"
                  },
                  {
                    "value": "St. Michael im Lungau",
                    "TYPE": "RDSGN"
                  },
                  {
                    "value": "St. Michael im Lungau",
                    "TYPE": "LOCAL"
                  },
                  {
                    "value": "Tauern Autobahn",
                    "TYPE": "BNAME"
                  }
                ],
                "ID": 31280
              },
              "DIRECTION": {
                "DESCRIPTION": [
                  {
                    "value": "VILLACH",
                    "TYPE": "LOCAL"
                  },
                  {
                    "value": "VILLACH",
                    "TYPE": "NTCSA"
                  },
                  {
                    "value": "VILLACH",
                    "TYPE": "RDSGN"
                  }
                ],
                "ID": 0
              },
              "PROXIMITY": {
                "ID": "AT",
                "DESCRIPTION": "at"
              }
            }
          },
          "GEOLOC": {
            "ORIGIN": {
              "LATITUDE": 47.09472,
              "LONGITUDE": 13.60881
            },
            "TO": [
              {
                "LATITUDE": 47.09438,
                "LONGITUDE": 13.60904
              }
            ]
          },
          "NAVTECH": {
            "EDGE": {
              "EDGE_ID": [
                "1210473695"
              ]
            },
            "VERSION_ID": "202102"
          },
          "LENGTH": 0.02587
        },
        "TRAFFIC_ITEM_DETAIL": {
          "ROAD_CLOSED": false,
          "INCIDENT": {
            "RESPONSE_VEHICLES": false,
            "CONGESTION_INCIDENT": {
              "CONGESTION_TYPE_DESC": "CONGESTION",
              "CONGESTION_FACTOR": 50
            }
          },
          "ALERTC": [
            {
              "EVENT_CODE": 138
            }
          ]
        },
        "TRAFFIC_ITEM_DESCRIPTION": [
          {
            "value": "Bei St. Michael im Lungau - Stockender Verkehr;; vorsichtig an das Stauende heranfahren.",
            "TYPE": "short_desc"
          },
          {
            "value": "Bei St. Michael im Lungau - Stockender Verkehr;; vorsichtig an das Stauende heranfahren.",
            "TYPE": "desc"
          },
          {
            "value": "Stockender Verkehr;; vorsichtig an das Stauende heranfahren.",
            "TYPE": "no_exit_description"
          }
        ],
        "mid": "e30c0031-0cb7-4119-8161-9b91363734b4|1629608959604",
        "PRODUCT": "basic"
      },
      {
        "TRAFFIC_ITEM_ID": 1811463225553662433,
        "ORIGINAL_TRAFFIC_ITEM_ID": 1811463225553662433,
        "TRAFFIC_ITEM_STATUS_SHORT_DESC": "ACTIVE",
        "TRAFFIC_ITEM_TYPE_DESC": "CONGESTION",
        "START_TIME": "08/22/2021 05:00:57",
        "END_TIME": "08/22/2021 05:15:57",
        "ENTRY_TIME": "08/22/2021 05:00:57",
        "CRITICALITY": {
          "ID": "2",
          "DESCRIPTION": "minor"
        },
        "VERIFIED": true,
        "ABBREVIATION": {
          "SHORT_DESC": "SLOW",
          "DESCRIPTION": "slow"
        },
        "RDS-TMC_LOCATIONS": {
          "RDS-TMC": [
            {
              "ORIGIN": {
                "EBU_COUNTRY_CODE": "D",
                "TABLE_ID": 1,
                "LOCATION_ID": "12909",
                "LOCATION_DESC": "Murnau/Kochel",
                "RDS_DIRECTION": "+"
              },
              "DIRECTION": "-",
              "ALERTC": {
                "TRAFFIC_CODE": 136,
                "QUANTIFIERS": 4,
                "DESCRIPTION": "Verkehrsst\u00f6rung.",
                "ALERTC_DURATION": "D",
                "ALERTC_DIRECTION": 1,
                "UPDATE_CLASS": 1,
                "PHRASE_CODE": "A9",
                "EXTENT": "1",
                "DURATION": 0,
                "SUPP_TRAFFIC_CODE": [
                  {
                    "CODE": 141
                  }
                ]
              },
              "LENGTH": 0.3458,
              "PRIMARY_OFFSET": 0.17117
            }
          ]
        },
        "LOCATION": {
          "DEFINED": {
            "ORIGIN": {
              "ROADWAY": {
                "DESCRIPTION": [
                  {
                    "value": "A95",
                    "TYPE": "NTCSA"
                  },
                  {
                    "value": "A95",
                    "TYPE": "RDSGN"
                  },
                  {
                    "value": "A95",
                    "TYPE": "LOCAL"
                  }
                ],
                "ID": 7230
              },
              "POINT": {
                "DESCRIPTION": [
                  {
                    "value": "Sindelsdorf",
                    "TYPE": "NTCSA"
                  },
                  {
                    "value": "Sindelsdorf",
                    "TYPE": "RDSGN"
                  },
                  {
                    "value": "Sindelsdorf",
                    "TYPE": "LOCAL"
                  },
                  {
                    "value": "A95",
                    "TYPE": "BNAME"
                  }
                ],
                "ID": 12909
              },
              "DIRECTION": {
                "DESCRIPTION": [
                  {
                    "value": "GARMISCH-PARTENKIRCHEN",
                    "TYPE": "LOCAL"
                  },
                  {
                    "value": "GARMISCH-PARTENKIRCHEN",
                    "TYPE": "NTCSA"
                  },
                  {
                    "value": "GARMISCH-PARTENKIRCHEN",
                    "TYPE": "RDSGN"
                  }
                ],
                "ID": 0
              },
              "PROXIMITY": {
                "ID": "AT",
                "DESCRIPTION": "at"
              }
            },
            "TO": {
              "ROADWAY": {
                "DESCRIPTION": [
                  {
                    "value": "A95",
                    "TYPE": "NTCSA"
                  },
                  {
                    "value": "A95",
                    "TYPE": "RDSGN"
                  },
                  {
                    "value": "A95",
                    "TYPE": "LOCAL"
                  }
                ],
                "ID": 7230
              },
              "POINT": {
                "DESCRIPTION": [
                  {
                    "value": "Murnau/Kochel",
                    "TYPE": "NTCSA"
                  },
                  {
                    "value": "Murnau/Kochel",
                    "TYPE": "RDSGN"
                  },
                  {
                    "value": "Murnau/Kochel",
                    "TYPE": "LOCAL"
                  },
                  {
                    "value": "A95",
                    "TYPE": "BNAME"
                  }
                ],
                "ID": 12909
              },
              "DIRECTION": {
                "DESCRIPTION": [
                  {
                    "value": "GARMISCH-PARTENKIRCHEN",
                    "TYPE": "LOCAL"
                  },
                  {
                    "value": "GARMISCH-PARTENKIRCHEN",
                    "TYPE": "NTCSA"
                  },
                  {
                    "value": "GARMISCH-PARTENKIRCHEN",
                    "TYPE": "RDSGN"
                  }
                ],
                "ID": 0
              },
              "PROXIMITY": {
                "ID": "AT",
                "DESCRIPTION": "at"
              }
            }
          },
          "GEOLOC": {
            "ORIGIN": {
              "LATITUDE": 47.68012,
              "LONGITUDE": 11.29088
            },
            "TO": [
              {
                "LATITUDE": 47.67626,
                "LONGITUDE": 11.28628
              }
            ]
          },
          "NAVTECH": {
            "EDGE": {
              "EDGE_ID": [
                "1225247720",
                "920975973"
              ]
            },
            "VERSION_ID": "202102"
          },
          "LENGTH": 0.3458
        },
        "TRAFFIC_ITEM_DETAIL": {
          "ROAD_CLOSED": false,
          "INCIDENT": {
            "RESPONSE_VEHICLES": false,
            "CONGESTION_INCIDENT": {
              "CONGESTION_TYPE_DESC": "CONGESTION",
              "CONGESTION_FACTOR": 50
            }
          },
          "ALERTC": [
            {
              "EVENT_CODE": 136,
              "SUPP_TRAFFIC_CODE": [
                141
              ]
            }
          ]
        },
        "TRAFFIC_ITEM_DESCRIPTION": [
          {
            "value": "Bei Murnau/Kochel - Verkehrsst\u00f6rung. auf der rechten Seite.",
            "TYPE": "short_desc"
          },
          {
            "value": "Bei Murnau/Kochel - Verkehrsst\u00f6rung. auf der rechten Seite.",
            "TYPE": "desc"
          },
          {
            "value": "Verkehrsst\u00f6rung. auf der rechten Seite.",
            "TYPE": "no_exit_description"
          }
        ],
        "mid": "583308791629608457440|1629608457440",
        "PRODUCT": "basic"
      },
      {
        "TRAFFIC_ITEM_ID": 2773556924136659919,
        "ORIGINAL_TRAFFIC_ITEM_ID": 646867001597301895,
        "TRAFFIC_ITEM_STATUS_SHORT_DESC": "ACTIVE",
        "TRAFFIC_ITEM_TYPE_DESC": "CONGESTION",
        "START_TIME": "08/22/2021 05:04:49",
        "END_TIME": "08/22/2021 05:18:04",
        "ENTRY_TIME": "08/22/2021 05:08:04",
        "CRITICALITY": {
          "ID": "2",
          "DESCRIPTION": "minor"
        },
        "VERIFIED": true,
        "ABBREVIATION": {
          "SHORT_DESC": "SLOW",
          "DESCRIPTION": "slow"
        },
        "RDS-TMC_LOCATIONS": {
          "RDS-TMC": [
            {
              "ORIGIN": {
                "EBU_COUNTRY_CODE": "D",
                "TABLE_ID": 1,
                "LOCATION_ID": "32605",
                "LOCATION_DESC": "Britzer Damm",
                "RDS_DIRECTION": "+"
              },
              "DIRECTION": "-",
              "ALERTC": {
                "TRAFFIC_CODE": 138,
                "QUANTIFIERS": 4,
                "DESCRIPTION": "Stockender Verkehr;; vorsichtig an das Stauende heranfahren.",
                "ALERTC_DURATION": "D",
                "ALERTC_DIRECTION": 1,
                "URGENCY": "U",
                "UPDATE_CLASS": 1,
                "PHRASE_CODE": "A2.Z112",
                "EXTENT": "1",
                "DURATION": 0
              },
              "LENGTH": 0.10388,
              "PRIMARY_OFFSET": 0.0
            }
          ]
        },
        "LOCATION": {
          "DEFINED": {
            "ORIGIN": {
              "ROADWAY": {
                "DESCRIPTION": [
                  {
                    "value": "Stadtring Berlin",
                    "TYPE": "NTCSA"
                  },
                  {
                    "value": "Stadtring Berlin",
                    "TYPE": "RDSGN"
                  },
                  {
                    "value": "Stadtring Berlin",
                    "TYPE": "LOCAL"
                  }
                ],
                "ID": 50062
              },
              "POINT": {
                "DESCRIPTION": [
                  {
                    "value": "Buschkrugallee",
                    "TYPE": "NTCSA"
                  },
                  {
                    "value": "Buschkrugallee",
                    "TYPE": "RDSGN"
                  },
                  {
                    "value": "Buschkrugallee",
                    "TYPE": "LOCAL"
                  },
                  {
                    "value": "Stadtring Berlin",
                    "TYPE": "BNAME"
                  }
                ],
                "ID": 32605
              },
              "DIRECTION": {
                "DESCRIPTION": [
                  {
                    "value": "WILMERSDORF",
                    "TYPE": "LOCAL"
                  },
                  {
                    "value": "WILMERSDORF",
                    "TYPE": "NTCSA"
                  },
                  {
                    "value": "WILMERSDORF",
                    "TYPE": "RDSGN"
                  }
                ],
                "ID": 0
              },
              "PROXIMITY": {
                "ID": "AT",
                "DESCRIPTION": "at"
              }
            },
            "TO": {
              "ROADWAY": {
                "DESCRIPTION": [
                  {
                    "value": "Stadtring Berlin",
                    "TYPE": "NTCSA"
                  },
                  {
                    "value": "Stadtring Berlin",
                    "TYPE": "RDSGN"
                  },
                  {
                    "value": "Stadtring Berlin",
                    "TYPE": "LOCAL"
                  }
                ],
                "ID": 50062
              },
              "POINT": {
                "DESCRIPTION": [
                  {
                    "value": "Britzer Damm",
                    "TYPE": "NTCSA"
                  },
                  {
                    "value": "Britzer Damm",
                    "TYPE": "RDSGN"
                  },
                  {
                    "value": "Britzer Damm",
                    "TYPE": "LOCAL"
                  },
                  {
                    "value": "Stadtring Berlin",
                    "TYPE": "BNAME"
                  }
                ],
                "ID": 32605
              },
              "DIRECTION": {
                "DESCRIPTION": [
                  {
                    "value": "WILMERSDORF",
                    "TYPE": "LOCAL"
                  },
                  {
                    "value": "WILMERSDORF",
                    "TYPE": "NTCSA"
                  },
                  {
                    "value": "WILMERSDORF",
                    "TYPE": "RDSGN"
                  }
                ],
                "ID": 0
              },
              "PROXIMITY": {
                "ID": "AT",
                "DESCRIPTION": "at"
              }
            }
          },
          "GEOLOC": {
            "ORIGIN": {
              "LATITUDE": 52.46206,
              "LONGITUDE": 13.43254
            },
            "TO": [
              {
                "LATITUDE": 52.46196,
                "LONGITUDE": 13.43009
              }
            ]
          },
          "NAVTECH": {
            "EDGE": {
              "EDGE_ID": [
                "927324024"
              ]
            },
            "VERSION_ID": "202102"
          },
          "LENGTH": 0.10388
        },
        "TRAFFIC_ITEM_DETAIL": {
          "ROAD_CLOSED": false,
          "INCIDENT": {
            "RESPONSE_VEHICLES": false,
            "CONGESTION_INCIDENT": {
              "CONGESTION_TYPE_DESC": "CONGESTION",
              "CONGESTION_FACTOR": 50
            }
          },
          "ALERTC": [
            {
              "EVENT_CODE": 138
            }
          ]
        },
        "TRAFFIC_ITEM_DESCRIPTION": [
          {
            "value": "Bei Britzer Damm - Stockender Verkehr;; vorsichtig an das Stauende heranfahren.",
            "TYPE": "short_desc"
          },
          {
            "value": "Bei Britzer Damm - Stockender Verkehr;; vorsichtig an das Stauende heranfahren.",
            "TYPE": "desc"
          },
          {
            "value": "Stockender Verkehr;; vorsichtig an das Stauende heranfahren.",
            "TYPE": "no_exit_description"
          }
        ],
        "mid": "9ecf1805-fc48-4aa5-ad42-265c61c8fd7a|1629608884604",
        "PRODUCT": "basic"
      },
      {
        "TRAFFIC_ITEM_ID": 274860672204481822,
        "ORIGINAL_TRAFFIC_ITEM_ID": 1309160499187833863,
        "TRAFFIC_ITEM_STATUS_SHORT_DESC": "ACTIVE",
        "TRAFFIC_ITEM_TYPE_DESC": "CONGESTION",
        "START_TIME": "08/22/2021 05:09:01",
        "END_TIME": "08/22/2021 05:19:16",
        "ENTRY_TIME": "08/22/2021 05:09:19",
        "CRITICALITY": {
          "ID": "2",
          "DESCRIPTION": "minor"
        },
        "VERIFIED": true,
        "ABBREVIATION": {
          "SHORT_DESC": "SLOW",
          "DESCRIPTION": "slow"
        },
        "RDS-TMC_LOCATIONS": {
          "RDS-TMC": [
            {
              "ORIGIN": {
                "EBU_COUNTRY_CODE": "A",
                "TABLE_ID": 1,
                "LOCATION_ID": "31280",
                "LOCATION_DESC": "St. Michael im Lungau",
                "RDS_DIRECTION": "+"
              },
              "DIRECTION": "-",
              "ALERTC": {
                "TRAFFIC_CODE": 138,
                "QUANTIFIERS": 4,
                "DESCRIPTION": "Stockender Verkehr;; vorsichtig an das Stauende heranfahren.",
                "ALERTC_DURATION": "D",
                "ALERTC_DIRECTION": 1,
                "URGENCY": "U",
                "UPDATE_CLASS": 1,
                "PHRASE_CODE": "A2.Z112",
                "EXTENT": "1",
                "DURATION": 0
              },
              "LENGTH": 0.01587,
              "PRIMARY_OFFSET": 0.37325
            }
          ]
        },
        "LOCATION": {
          "DEFINED": {
            "ORIGIN": {
              "ROADWAY": {
                "DESCRIPTION": [
                  {
                    "value": "Tauern Autobahn",
                    "TYPE": "NTCSA"
                  },
                  {
                    "value": "Tauern Autobahn",
                    "TYPE": "RDSGN"
                  },
                  {
                    "value": "Tauern Autobahn",
                    "TYPE": "LOCAL"
                  }
                ],
                "ID": 30566
              },
              "POINT": {
                "DESCRIPTION": [
                  {
                    "value": "Mautstelle St. Michael im Lungau",
                    "TYPE": "NTCSA"
                  },
                  {
                    "value": "Mautstelle St. Michael im Lungau",
                    "TYPE": "RDSGN"
                  },
                  {
                    "value": "Mautstelle St. Michael im Lungau",
                    "TYPE": "LOCAL"
                  },
                  {
                    "value": "Tauern Autobahn",
                    "TYPE": "BNAME"
                  }
                ],
                "ID": 31280
              },
              "DIRECTION": {
                "DESCRIPTION": [
                  {
                    "value": "SALZBURG",
                    "TYPE": "LOCAL"
                  },
                  {
                    "value": "SALZBURG",
                    "TYPE": "NTCSA"
                  },
                  {
                    "value": "SALZBURG",
                    "TYPE": "RDSGN"
                  }
                ],
                "ID": 0
              },
              "PROXIMITY": {
                "ID": "AT",
                "DESCRIPTION": "at"
              }
            },
            "TO": {
              "ROADWAY": {
                "DESCRIPTION": [
                  {
                    "value": "Tauern Autobahn",
                    "TYPE": "NTCSA"
                  },
                  {
                    "value": "Tauern Autobahn",
                    "TYPE": "RDSGN"
                  },
                  {
                    "value": "Tauern Autobahn",
                    "TYPE": "LOCAL"
                  }
                ],
                "ID": 30566
              },
              "POINT": {
                "DESCRIPTION": [
                  {
                    "value": "St. Michael im Lungau",
                    "TYPE": "NTCSA"
                  },
                  {
                    "value": "St. Michael im Lungau",
                    "TYPE": "RDSGN"
                  },
                  {
                    "value": "St. Michael im Lungau",
                    "TYPE": "LOCAL"
                  },
                  {
                    "value": "Tauern Autobahn",
                    "TYPE": "BNAME"
                  }
                ],
                "ID": 31280
              },
              "DIRECTION": {
                "DESCRIPTION": [
                  {
                    "value": "SALZBURG",
                    "TYPE": "LOCAL"
                  },
                  {
                    "value": "SALZBURG",
                    "TYPE": "NTCSA"
                  },
                  {
                    "value": "SALZBURG",
                    "TYPE": "RDSGN"
                  }
                ],
                "ID": 0
              },
              "PROXIMITY": {
                "ID": "AT",
                "DESCRIPTION": "at"
              }
            }
          },
          "GEOLOC": {
            "ORIGIN": {
              "LATITUDE": 47.093,
              "LONGITUDE": 13.6099
            },
            "TO": [
              {
                "LATITUDE": 47.09323,
                "LONGITUDE": 13.6099
              }
            ]
          },
          "NAVTECH": {
            "EDGE": {
              "EDGE_ID": [
                "1210466111"
              ]
            },
            "VERSION_ID": "202102"
          },
          "LENGTH": 0.01587
        },
        "TRAFFIC_ITEM_DETAIL": {
          "ROAD_CLOSED": false,
          "INCIDENT": {
            "RESPONSE_VEHICLES": false,
            "CONGESTION_INCIDENT": {
              "CONGESTION_TYPE_DESC": "CONGESTION",
              "CONGESTION_FACTOR": 50
            }
          },
          "ALERTC": [
            {
              "EVENT_CODE": 138
            }
          ]
        },
        "TRAFFIC_ITEM_DESCRIPTION": [
          {
            "value": "Bei St. Michael im Lungau - Stockender Verkehr;; vorsichtig an das Stauende heranfahren.",
            "TYPE": "short_desc"
          },
          {
            "value": "Bei St. Michael im Lungau - Stockender Verkehr;; vorsichtig an das Stauende heranfahren.",
            "TYPE": "desc"
          },
          {
            "value": "Stockender Verkehr;; vorsichtig an das Stauende heranfahren.",
            "TYPE": "no_exit_description"
          }
        ],
        "mid": "42193686-f5d2-4055-b2ab-e996478a28a5|1629608959604",
        "PRODUCT": "basic"
      }
    ]
  },
  "diagnostic": {
    "info": "",
    "sfile": "Incident-E1409-1629608865925.xml.gz|pr1",
    "pdd": "trafficml-incident-24-v13"
  },
  "TIMESTAMP2": "2021-08-22T05:07:46.000+0000",
  "EXTENDED_COUNTRY_CODE": "E1"
}