{
  "TIMESTAMP": "08/22/2021 05:17:46 GMT",
  "VERSION": 2.3,
  "TRAFFIC_ITEMS": {
    "TRAFFIC_ITEM": [
      {
        "TRAFFIC_ITEM_ID": 4640510225088863866,
        "ORIGINAL_TRAFFIC_ITEM_ID": 693401297202442848,
        "TRAFFIC_ITEM_STATUS_SHORT_DESC": "ACTIVE",
        "TRAFFIC_ITEM_TYPE_DESC": "CONGESTION",
        "START_TIME": "08/22/2021 05:00:49",
        "END_TIME": "08/22/2021 05:28:19",
        "ENTRY_TIME": "08/22/2021 05:18:19",
        "CRITICALITY": {
          "ID": "2",
          "DESCRIPTION": "minor"
        },
        "VERIFIED": true,
        "ABBREVIATION": {
          "SHORT_DESC": "SLOW",
          "DESCRIPTION": "slow"
        },
        "RDS-TMC_LOCATIONS": {
          "RDS-TMC": [
            {
              "ORIGIN": {
                "EBU_COUNTRY_CODE": "D",
                "TABLE_ID": 1,
                "LOCATION_ID": "32605",
                "LOCATION_DESC": "Britzer Damm",
                "RDS_DIRECTION": "-"
              },
              "DIRECTION": "+",
              "ALERTC": {
                "TRAFFIC_CODE": 138,
                "QUANTIFIERS": 4,
                "DESCRIPTION": "Stockender Verkehr;; vorsichtig an das Stauende heranfahren.",
                "ALERTC_DURATION": "D",
                "ALERTC_DIRECTION": 1,
                "URGENCY": "U",
                "UPDATE_CLASS": 1,
                "PHRASE_CODE": "A2.Z112",
                "EXTENT": "1",
                "DURATION": 0
              },
              "LENGTH": 0.02885,
              "PRIMARY_OFFSET": 0.25363
            }
          ]
        },
        "LOCATION": {
          "DEFINED": {
            "ORIGIN": {
              "ROADWAY": {
                "DESCRIPTION": [
                  {
                    "value": "Stadtring Berlin",
                    "TYPE": "NTCSA"
                  },
                  {
                    "value": "Stadtring Berlin",
                    "TYPE": "RDSGN"
                  },
                  {
                    "value": "Stadtring Berlin",
                    "TYPE": "LOCAL"
                  }
                ],
                "ID": 50062
              },
              "POINT": {
                "DESCRIPTION": [
                  {
                    "value": "Ortsteil Britz",
                    "TYPE": "NTCSA"
                  },
                  {
                    "value": "Ortsteil Britz",
                    "TYPE": "RDSGN"
                  },
                  {
                    "value": "Ortsteil Britz",
                    "TYPE": "LOCAL"
                  },
                  {
                    "value": "Stadtring Berlin",
                    "TYPE": "BNAME"
                  }
                ],
                "ID": 32605
              },
              "DIRECTION": {
                "DESCRIPTION": [
                  {
                    "value": "NEUK\u00d6LLN",
                    "TYPE": "LOCAL"
                  },
                  {
                    "value": "NEUK\u00d6LLN",
                    "TYPE": "NTCSA"
                  },
                  {
                    "value": "NEUK\u00d6LLN",
                    "TYPE": "RDSGN"
                  }
                ],
                "ID": 0
              },
              "PROXIMITY": {
                "ID": "AT",
                "DESCRIPTION": "at"
              }
            },
            "TO": {
              "ROADWAY": {
                "DESCRIPTION": [
                  {
                    "value": "Stadtring Berlin",
                    "TYPE": "NTCSA"
                  },
                  {
                    "value": "Stadtring Berlin",
                    "TYPE": "RDSGN"
                  },
                  {
                    "value": "Stadtring Berlin",
                    "TYPE": "LOCAL"
                  }
                ],
                "ID": 50062
              },
              "POINT": {
                "DESCRIPTION": [
                  {
                    "value": "Britzer Damm",
                    "TYPE": "NTCSA"
                  },
                  {
                    "value": "Britzer Damm",
                    "TYPE": "RDSGN"
                  },
                  {
                    "value": "Britzer Damm",
                    "TYPE": "LOCAL"
                  },
                  {
                    "value": "Stadtring Berlin",
                    "TYPE": "BNAME"
                  }
                ],
                "ID": 32605
              },
              "DIRECTION": {
                "DESCRIPTION": [
                  {
                    "value": "NEUK\u00d6LLN",
                    "TYPE": "LOCAL"
                  },
                  {
                    "value": "NEUK\u00d6LLN",
                    "TYPE": "NTCSA"
                  },
                  {
                    "value": "NEUK\u00d6LLN",
                    "TYPE": "RDSGN"
                  }
                ],
                "ID": 0
              },
              "PROXIMITY": {
                "ID": "AT",
                "DESCRIPTION": "at"
              }
            }
          },
          "GEOLOC": {
            "ORIGIN": {
              "LATITUDE": 52.46159,
              "LONGITUDE": 13.428
            },
            "TO": [
              {
                "LATITUDE": 52.46169,
                "LONGITUDE": 13.42866
              }
            ]
          },
          "NAVTECH": {
            "EDGE": {
              "EDGE_ID": [
                "783452081"
              ]
            },
            "VERSION_ID": "202102"
          },
          "LENGTH": 0.02885
        },
        "TRAFFIC_ITEM_DETAIL": {
          "ROAD_CLOSED": false,
          "INCIDENT": {
            "RESPONSE_VEHICLES": false,
            "CONGESTION_INCIDENT": {
              "CONGESTION_TYPE_DESC": "CONGESTION",
              "CONGESTION_FACTOR": 50
            }
          },
          "ALERTC": [
            {
              "EVENT_CODE": 138
            }
          ]
        },
        "TRAFFIC_ITEM_DESCRIPTION": [
          {
            "value": "Bei Britzer Damm - Stockender Verkehr;; vorsichtig an das Stauende heranfahren.",
            "TYPE": "short_desc"
          },
          {
            "value": "Bei Britzer Damm - Stockender Verkehr;; vorsichtig an das Stauende heranfahren.",
            "TYPE": "desc"
          },
          {
            "value": "Stockender Verkehr;; vorsichtig an das Stauende heranfahren.",
            "TYPE": "no_exit_description"
          }
        ],
        "mid": "8a5f3eb1-e143-4533-87c5-fd126e6e61fc|1629609499604",
        "PRODUCT": "basic"
      },
      {
        "TRAFFIC_ITEM_ID": 350277287233782597,
        "ORIGINAL_TRAFFIC_ITEM_ID": 614999864896270918,
        "TRAFFIC_ITEM_STATUS_SHORT_DESC": "ACTIVE",
        "TRAFFIC_ITEM_TYPE_DESC": "CONGESTION",
        "START_TIME": "08/22/2021 05:12:49",
        "END_TIME": "08/22/2021 05:28:19",
        "ENTRY_TIME": "08/22/2021 05:12:49",
        "CRITICALITY": {
          "ID": "2",
          "DESCRIPTION": "minor"
        },
        "VERIFIED": true,
        "ABBREVIATION": {
          "SHORT_DESC": "SLOW",
          "DESCRIPTION": "slow"
        },
        "RDS-TMC_LOCATIONS": {
          "RDS-TMC": [
            {
              "ORIGIN": {
                "EBU_COUNTRY_CODE": "D",
                "TABLE_ID": 1,
                "LOCATION_ID": "32605",
                "LOCATION_DESC": "Britzer Damm",
                "RDS_DIRECTION": "+"
              },
              "DIRECTION": "-",
              "ALERTC": {
                "TRAFFIC_CODE": 138,
                "QUANTIFIERS": 4,
                "DESCRIPTION": "Stockender Verkehr;; vorsichtig an das Stauende heranfahren.",
                "ALERTC_DURATION": "D",
                "ALERTC_DIRECTION": 1,
                "URGENCY": "U",
                "UPDATE_CLASS": 1,
                "PHRASE_CODE": "A2.Z112",
                "EXTENT": "1",
                "DURATION": 0
              },
              "LENGTH": 0.10388,
              "PRIMARY_OFFSET": 0.0
            }
          ]
        },
        "LOCATION": {
          "DEFINED": {
            "ORIGIN": {
              "ROADWAY": {
                "DESCRIPTION": [
                  {
                    "value": "Stadtring Berlin",
                    "TYPE": "NTCSA"
                  },
                  {
                    "value": "Stadtring Berlin",
                    "TYPE": "RDSGN"
                  },
                  {
                    "value": "Stadtring Berlin",
                    "TYPE": "LOCAL"
                  }
                ],
                "ID": 50062
              },
              "POINT": {
                "DESCRIPTION": [
                  {
                    "value": "Buschkrugallee",
                    "TYPE": "NTCSA"
                  },
                  {
                    "value": "Buschkrugallee",
                    "TYPE": "RDSGN"
                  },
                  {
                    "value": "Buschkrugallee",
                    "TYPE": "LOCAL"
                  },
                  {
                    "value": "Stadtring Berlin",
                    "TYPE": "BNAME"
                  }
                ],
                "ID": 32605
              },
              "DIRECTION": {
                "DESCRIPTION": [
                  {
                    "value": "WILMERSDORF",
                    "TYPE": "LOCAL"
                  },
                  {
                    "value": "WILMERSDORF",
                    "TYPE": "NTCSA"
                  },
                  {
                    "value": "WILMERSDORF",
                    "TYPE": "RDSGN"
                  }
                ],
                "ID": 0
              },
              "PROXIMITY": {
                "ID": "AT",
                "DESCRIPTION": "at"
              }
            },
            "TO": {
              "ROADWAY": {
                "DESCRIPTION": [
                  {
                    "value": "Stadtring Berlin",
                    "TYPE": "NTCSA"
                  },
                  {
                    "value": "Stadtring Berlin",
                    "TYPE": "RDSGN"
                  },
                  {
                    "value": "Stadtring Berlin",
                    "TYPE": "LOCAL"
                  }
                ],
                "ID": 50062
              },
              "POINT": {
                "DESCRIPTION": [
                  {
                    "value": "Britzer Damm",
                    "TYPE": "NTCSA"
                  },
                  {
                    "value": "Britzer Damm",
                    "TYPE": "RDSGN"
                  },
                  {
                    "value": "Britzer Damm",
                    "TYPE": "LOCAL"
                  },
                  {
                    "value": "Stadtring Berlin",
                    "TYPE": "BNAME"
                  }
                ],
                "ID": 32605
              },
              "DIRECTION": {
                "DESCRIPTION": [
                  {
                    "value": "WILMERSDORF",
                    "TYPE": "LOCAL"
                  },
                  {
                    "value": "WILMERSDORF",
                    "TYPE": "NTCSA"
                  },
                  {
                    "value": "WILMERSDORF",
                    "TYPE": "RDSGN"
                  }
                ],
                "ID": 0
              },
              "PROXIMITY": {
                "ID": "AT",
                "DESCRIPTION": "at"
              }
            }
          },
          "GEOLOC": {
            "ORIGIN": {
              "LATITUDE": 52.46206,
              "LONGITUDE": 13.43254
            },
            "TO": [
              {
                "LATITUDE": 52.46196,
                "LONGITUDE": 13.43009
              }
            ]
          },
          "NAVTECH": {
            "EDGE": {
              "EDGE_ID": [
                "927324024"
              ]
            },
            "VERSION_ID": "202102"
          },
          "LENGTH": 0.10388
        },
        "TRAFFIC_ITEM_DETAIL": {
          "ROAD_CLOSED": false,
          "INCIDENT": {
            "RESPONSE_VEHICLES": false,
            "CONGESTION_INCIDENT": {
              "CONGESTION_TYPE_DESC": "CONGESTION",
              "CONGESTION_FACTOR": 50
            }
          },
          "ALERTC": [
            {
              "EVENT_CODE": 138
            }
          ]
        },
        "TRAFFIC_ITEM_DESCRIPTION": [
          {
            "value": "Bei Britzer Damm - Stockender Verkehr;; vorsichtig an das Stauende heranfahren.",
            "TYPE": "short_desc"
          },
          {
            "value": "Bei Britzer Damm - Stockender Verkehr;; vorsichtig an das Stauende heranfahren.",
            "TYPE": "desc"
          },
          {
            "value": "Stockender Verkehr;; vorsichtig an das Stauende heranfahren.",
            "TYPE": "no_exit_description"
          }
        ],
        "mid": "cf6cbb7f-3ee5-4b44-a4f3-b5fef32edbd8|1629609169604",
        "PRODUCT": "basic"
      },
      {
        "TRAFFIC_ITEM_ID": 179011636344050987,
        "ORIGINAL_TRAFFIC_ITEM_ID": 2030602569003974426,
        "TRAFFIC_ITEM_STATUS_SHORT_DESC": "ACTIVE",
        "TRAFFIC_ITEM_TYPE_DESC": "CONGESTION",
        "START_TIME": "08/22/2021 05:14:49",
        "END_TIME": "08/22/2021 05:28:19",
        "ENTRY_TIME": "08/22/2021 05:18:19",
        "CRITICALITY": {
          "ID": "2",
          "DESCRIPTION": "minor"
        },
        "VERIFIED": true,
        "ABBREVIATION": {
          "SHORT_DESC": "SLOW",
          "DESCRIPTION": "slow"
        },
        "RDS-TMC_LOCATIONS": {
          "RDS-TMC": [
            {
              "ORIGIN": {
                "EBU_COUNTRY_CODE": "D",
                "TABLE_ID": 1,
                "LOCATION_ID": "11561",
                "LOCATION_DESC": "Weil am Rhein",
                "RDS_DIRECTION": "+"
              },
              "DIRECTION": "-",
              "ALERTC": {
                "TRAFFIC_CODE": 138,
                "QUANTIFIERS": 4,
                "DESCRIPTION": "Stockender Verkehr;; vorsichtig an das Stauende heranfahren.",
                "ALERTC_DURATION": "D",
                "ALERTC_DIRECTION": 1,
                "URGENCY": "U",
                "UPDATE_CLASS": 1,
                "PHRASE_CODE": "A2.Z112",
                "EXTENT": "1",
                "DURATION": 0
              },
              "LENGTH": 0.03451,
              "PRIMARY_OFFSET": 0.21953
            }
          ]
        },
        "LOCATION": {
          "DEFINED": {
            "ORIGIN": {
              "ROADWAY": {
                "DESCRIPTION": [
                  {
                    "value": "A5",
                    "TYPE": "NTCSA"
                  },
                  {
                    "value": "A5",
                    "TYPE": "RDSGN"
                  },
                  {
                    "value": "A5",
                    "TYPE": "LOCAL"
                  }
                ],
                "ID": 50126
              },
              "POINT": {
                "DESCRIPTION": [
                  {
                    "value": "Weil am Rhein/H\u00fcningen",
                    "TYPE": "NTCSA"
                  },
                  {
                    "value": "Weil am Rhein/H\u00fcningen",
                    "TYPE": "RDSGN"
                  },
                  {
                    "value": "Weil am Rhein/H\u00fcningen",
                    "TYPE": "LOCAL"
                  },
                  {
                    "value": "A5",
                    "TYPE": "BNAME"
                  }
                ],
                "ID": 11561
              },
              "DIRECTION": {
                "DESCRIPTION": [
                  {
                    "value": "BASEL",
                    "TYPE": "LOCAL"
                  },
                  {
                    "value": "BASEL",
                    "TYPE": "NTCSA"
                  },
                  {
                    "value": "BASEL",
                    "TYPE": "RDSGN"
                  }
                ],
                "ID": 0
              },
              "PROXIMITY": {
                "ID": "AT",
                "DESCRIPTION": "at"
              }
            },
            "TO": {
              "ROADWAY": {
                "DESCRIPTION": [
                  {
                    "value": "A5",
                    "TYPE": "NTCSA"
                  },
                  {
                    "value": "A5",
                    "TYPE": "RDSGN"
                  },
                  {
                    "value": "A5",
                    "TYPE": "LOCAL"
                  }
                ],
                "ID": 50126
              },
              "POINT": {
                "DESCRIPTION": [
                  {
                    "value": "Weil am Rhein",
                    "TYPE": "NTCSA"
                  },
                  {
                    "value": "Weil am Rhein",
                    "TYPE": "RDSGN"
                  },
                  {
                    "value": "Weil am Rhein",
                    "TYPE": "LOCAL"
                  },
                  {
                    "value": "A5",
                    "TYPE": "BNAME"
                  }
                ],
                "ID": 11561
              },
              "DIRECTION": {
                "DESCRIPTION": [
                  {
                    "value": "BASEL",
                    "TYPE": "LOCAL"
                  },
                  {
                    "value": "BASEL",
                    "TYPE": "NTCSA"
                  },
                  {
                    "value": "BASEL",
                    "TYPE": "RDSGN"
                  }
                ],
                "ID": 0
              },
              "PROXIMITY": {
                "ID": "AT",
                "DESCRIPTION": "at"
              }
            }
          },
          "GEOLOC": {
            "ORIGIN": {
              "LATITUDE": 47.59832,
              "LONGITUDE": 7.60293
            },
            "TO": [
              {
                "LATITUDE": 47.59783,
                "LONGITUDE": 7.60308
              }
            ]
          },
          "NAVTECH": {
            "EDGE": {
              "EDGE_ID": [
                "78578427"
              ]
            },
            "VERSION_ID": "202102"
          },
          "LENGTH": 0.03451
        },
        "TRAFFIC_ITEM_DETAIL": {
          "ROAD_CLOSED": false,
          "INCIDENT": {
            "RESPONSE_VEHICLES": false,
            "CONGESTION_INCIDENT": {
              "CONGESTION_TYPE_DESC": "CONGESTION",
              "CONGESTION_FACTOR": 50
            }
          },
          "ALERTC": [
            {
              "EVENT_CODE": 138
            }
          ]
        },
        "TRAFFIC_ITEM_DESCRIPTION": [
          {
            "value": "Bei Weil am Rhein - Stockender Verkehr;; vorsichtig an das Stauende heranfahren.",
            "TYPE": "short_desc"
          },
          {
            "value": "Bei Weil am Rhein - Stockender Verkehr;; vorsichtig an das Stauende heranfahren.",
            "TYPE": "desc"
          },
          {
            "value": "Stockender Verkehr;; vorsichtig an das Stauende heranfahren.",
            "TYPE": "no_exit_description"
          }
        ],
        "mid": "47059c9c-19c1-49ae-a99d-d0848d2cf60d|1629609499604",
        "PRODUCT": "basic"
      },
      {
        "TRAFFIC_ITEM_ID": 4581279212989193657,
        "ORIGINAL_TRAFFIC_ITEM_ID": 3081999945592911358,
        "TRAFFIC_ITEM_STATUS_SHORT_DESC": "ACTIVE",
        "TRAFFIC_ITEM_TYPE_DESC": "CONGESTION",
        "START_TIME": "08/22/2021 05:16:33",
        "END_TIME": "08/22/2021 05:27:33",
        "ENTRY_TIME": "08/22/2021 05:17:34",
        "CRITICALITY": {
          "ID": "2",
          "DESCRIPTION": "minor"
        },
        "VERIFIED": true,
        "ABBREVIATION": {
          "SHORT_DESC": "SLOW",
          "DESCRIPTION": "slow"
        },
        "RDS-TMC_LOCATIONS": {
          "RDS-TMC": [
            {
              "ORIGIN": {
                "EBU_COUNTRY_CODE": "4",
                "TABLE_ID": 9,
                "LOCATION_ID": "10269",
                "LOCATION_DESC": "Neuenhof",
                "RDS_DIRECTION": "+"
              },
              "DIRECTION": "-",
              "ALERTC": {
                "TRAFFIC_CODE": 138,
                "QUANTIFIERS": 4,
                "DESCRIPTION": "Stockender Verkehr;; vorsichtig an das Stauende heranfahren.",
                "ALERTC_DURATION": "D",
                "ALERTC_DIRECTION": 1,
                "URGENCY": "U",
                "UPDATE_CLASS": 1,
                "PHRASE_CODE": "A2.Z112",
                "EXTENT": "1",
                "DURATION": 0
              },
              "LENGTH": 0.02838,
              "PRIMARY_OFFSET": 0.51505
            }
          ]
        },
        "LOCATION": {
          "DEFINED": {
            "ORIGIN": {
              "ROADWAY": {
                "DESCRIPTION": [
                  {
                    "value": "A1",
                    "TYPE": "NTCSA"
                  },
                  {
                    "value": "A1",
                    "TYPE": "RDSGN"
                  },
                  {
                    "value": "A1",
                    "TYPE": "LOCAL"
                  }
                ],
                "ID": 1039
              },
              "POINT": {
                "DESCRIPTION": [
                  {
                    "value": "Wettingen-Ost",
                    "TYPE": "NTCSA"
                  },
                  {
                    "value": "Wettingen-Ost",
                    "TYPE": "RDSGN"
                  },
                  {
                    "value": "Wettingen-Ost",
                    "TYPE": "LOCAL"
                  },
                  {
                    "value": "A1",
                    "TYPE": "BNAME"
                  }
                ],
                "ID": 10269
              },
              "DIRECTION": {
                "DESCRIPTION": [
                  {
                    "value": "BERN",
                    "TYPE": "LOCAL"
                  },
                  {
                    "value": "BERN",
                    "TYPE": "NTCSA"
                  },
                  {
                    "value": "BERN",
                    "TYPE": "RDSGN"
                  }
                ],
                "ID": 0
              },
              "PROXIMITY": {
                "ID": "AT",
                "DESCRIPTION": "at"
              }
            },
            "TO": {
              "ROADWAY": {
                "DESCRIPTION": [
                  {
                    "value": "A1",
                    "TYPE": "NTCSA"
                  },
                  {
                    "value": "A1",
                    "TYPE": "RDSGN"
                  },
                  {
                    "value": "A1",
                    "TYPE": "LOCAL"
                  }
                ],
                "ID": 1039
              },
              "POINT": {
                "DESCRIPTION": [
                  {
                    "value": "Neuenhof",
                    "TYPE": "NTCSA"
                  },
                  {
                    "value": "Neuenhof",
                    "TYPE": "RDSGN"
                  },
                  {
                    "value": "Neuenhof",
                    "TYPE": "LOCAL"
                  },
                  {
                    "value": "A1",
                    "TYPE": "BNAME"
                  }
                ],
                "ID": 10269
              },
              "DIRECTION": {
                "DESCRIPTION": [
                  {
                    "value": "BERN",
                    "TYPE": "LOCAL"
                  },
                  {
                    "value": "BERN",
                    "TYPE": "NTCSA"
                  },
                  {
                    "value": "BERN",
                    "TYPE": "RDSGN"
                  }
                ],
                "ID": 0
              },
              "PROXIMITY": {
                "ID": "AT",
                "DESCRIPTION": "at"
              }
            }
          },
          "GEOLOC": {
            "ORIGIN": {
              "LATITUDE": 47.45463,
              "LONGITUDE": 8.32551
            },
            "TO": [
              {
                "LATITUDE": 47.45462,
                "LONGITUDE": 8.32494
              }
            ]
          },
          "NAVTECH": {
            "EDGE": {
              "EDGE_ID": [
                "919993804",
                "733196346"
              ]
            },
            "VERSION_ID": "202102"
          },
          "LENGTH": 0.02838
        },
        "TRAFFIC_ITEM_DETAIL": {
          "ROAD_CLOSED": false,
          "INCIDENT": {
            "RESPONSE_VEHICLES": false,
            "CONGESTION_INCIDENT": {
              "CONGESTION_TYPE_DESC": "CONGESTION",
              "CONGESTION_FACTOR": 50
            }
          },
          "ALERTC": [
            {
              "EVENT_CODE": 138
            }
          ]
        },
        "TRAFFIC_ITEM_DESCRIPTION": [
          {
            "value": "Bei Neuenhof - Stockender Verkehr;; vorsichtig an das Stauende heranfahren.",
            "TYPE": "short_desc"
          },
          {
            "value": "Bei Neuenhof - Stockender Verkehr;; vorsichtig an das Stauende heranfahren.",
            "TYPE": "desc"
          },
          {
            "value": "Stockender Verkehr;; vorsichtig an das Stauende heranfahren.",
            "TYPE": "no_exit_description"
          }
        ],
        "mid": "61d07e5d-a965-41af-878e-3a6446708e3d|1629609454604",
        "PRODUCT": "basic"
      },
      {
        "TRAFFIC_ITEM_ID": 2636337002131548471,
        "ORIGINAL_TRAFFIC_ITEM_ID": 3542540216729552732,
        "TRAFFIC_ITEM_STATUS_SHORT_DESC": "ACTIVE",
        "TRAFFIC_ITEM_TYPE_DESC": "CONGESTION",
        "START_TIME": "08/22/2021 04:55:50",
        "END_TIME": "08/22/2021 05:28:19",
        "ENTRY_TIME": "08/22/2021 05:18:19",
        "CRITICALITY": {
          "ID": "2",
          "DESCRIPTION": "minor"
        },
        "VERIFIED": true,
        "ABBREVIATION": {
          "SHORT_DESC": "SLOW",
          "DESCRIPTION": "slow"
        },
        "RDS-TMC_LOCATIONS": {
          "RDS-TMC": [
            {
              "ORIGIN": {
                "EBU_COUNTRY_CODE": "D",
                "TABLE_ID": 1,
                "LOCATION_ID": "10541",
                "LOCATION_DESC": "Theessen",
                "RDS_DIRECTION": "+"
              },
              "DIRECTION": "-",
              "ALERTC": {
                "TRAFFIC_CODE": 138,
                "QUANTIFIERS": 4,
                "DESCRIPTION": "Stockender Verkehr;; vorsichtig an das Stauende heranfahren.",
                "ALERTC_DURATION": "D",
                "ALERTC_DIRECTION": 1,
                "URGENCY": "U",
                "UPDATE_CLASS": 1,
                "PHRASE_CODE": "A2.Z112",
                "EXTENT": "1",
                "DURATION": 0
              },
              "LENGTH": 0.09443,
              "PRIMARY_OFFSET": 0.1127
            }
          ]
        },
        "LOCATION": {
          "DEFINED": {
            "ORIGIN": {
              "ROADWAY": {
                "DESCRIPTION": [
                  {
                    "value": "A2",
                    "TYPE": "NTCSA"
                  },
                  {
                    "value": "A2",
                    "TYPE": "RDSGN"
                  },
                  {
                    "value": "A2",
                    "TYPE": "LOCAL"
                  }
                ],
                "ID": 50080
              },
              "POINT": {
                "DESCRIPTION": [
                  {
                    "value": "W\u00fcstenforst",
                    "TYPE": "NTCSA"
                  },
                  {
                    "value": "W\u00fcstenforst",
                    "TYPE": "RDSGN"
                  },
                  {
                    "value": "W\u00fcstenforst",
                    "TYPE": "LOCAL"
                  },
                  {
                    "value": "A2",
                    "TYPE": "BNAME"
                  }
                ],
                "ID": 10541
              },
              "DIRECTION": {
                "DESCRIPTION": [
                  {
                    "value": "MAGDEBURG",
                    "TYPE": "LOCAL"
                  },
                  {
                    "value": "MAGDEBURG",
                    "TYPE": "NTCSA"
                  },
                  {
                    "value": "MAGDEBURG",
                    "TYPE": "RDSGN"
                  }
                ],
                "ID": 0
              },
              "PROXIMITY": {
                "ID": "AT",
                "DESCRIPTION": "at"
              }
            },
            "TO": {
              "ROADWAY": {
                "DESCRIPTION": [
                  {
                    "value": "A2",
                    "TYPE": "NTCSA"
                  },
                  {
                    "value": "A2",
                    "TYPE": "RDSGN"
                  },
                  {
                    "value": "A2",
                    "TYPE": "LOCAL"
                  }
                ],
                "ID": 50080
              },
              "POINT": {
                "DESCRIPTION": [
                  {
                    "value": "Theessen",
                    "TYPE": "NTCSA"
                  },
                  {
                    "value": "Theessen",
                    "TYPE": "RDSGN"
                  },
                  {
                    "value": "Theessen",
                    "TYPE": "LOCAL"
                  },
                  {
                    "value": "A2",
                    "TYPE": "BNAME"
                  }
                ],
                "ID": 10541
              },
              "DIRECTION": {
                "DESCRIPTION": [
                  {
                    "value": "MAGDEBURG",
                    "TYPE": "LOCAL"
                  },
                  {
                    "value": "MAGDEBURG",
                    "TYPE": "NTCSA"
                  },
                  {
                    "value": "MAGDEBURG",
                    "TYPE": "RDSGN"
                  }
                ],
                "ID": 0
              },
              "PROXIMITY": {
                "ID": "AT",
                "DESCRIPTION": "at"
              }
            }
          },
          "GEOLOC": {
            "ORIGIN": {
              "LATITUDE": 52.23369,
              "LONGITUDE": 12.06424
            },
            "TO": [
              {
                "LATITUDE": 52.23345,
                "LONGITUDE": 12.06231
              }
            ]
          },
          "NAVTECH": {
            "EDGE": {
              "EDGE_ID": [
                "1091587251"
              ]
            },
            "VERSION_ID": "202102"
          },
          "LENGTH": 0.09443
        },
        "TRAFFIC_ITEM_DETAIL": {
          "ROAD_CLOSED": false,
          "INCIDENT": {
            "RESPONSE_VEHICLES": false,
            "CONGESTION_INCIDENT": {
              "CONGESTION_TYPE_DESC": "CONGESTION",
              "CONGESTION_FACTOR": 50
            }
          },
          "ALERTC": [
            {
              "EVENT_CODE": 138
            }
          ]
        },
        "TRAFFIC_ITEM_DESCRIPTION": [
          {
            "value": "Bei Theessen - Stockender Verkehr;; vorsichtig an das Stauende heranfahren.",
            "TYPE": "short_desc"
          },
          {
            "value": "Bei Theessen - Stockender Verkehr;; vorsichtig an das Stauende heranfahren.",
            "TYPE": "desc"
          },
          {
            "value": "Stockender Verkehr;; vorsichtig an das Stauende heranfahren.",
            "TYPE": "no_exit_description"
          }
        ],
        "mid": "a1a6d79a-f1d3-4add-b4c5-979ff15e568b|1629609499604",
        "PRODUCT": "basic"
      },
      {
        "TRAFFIC_ITEM_ID": 1686124417764111669,
        "ORIGINAL_TRAFFIC_ITEM_ID": 4048488256654344427,
        "TRAFFIC_ITEM_STATUS_SHORT_DESC": "ACTIVE",
        "TRAFFIC_ITEM_TYPE_DESC": "CONGESTION",
        "START_TIME": "08/22/2021 05:14:31",
        "END_TIME": "08/22/2021 05:28:16",
        "ENTRY_TIME": "08/22/2021 05:18:19",
        "CRITICALITY": {
          "ID": "2",
          "DESCRIPTION": "minor"
        },
        "VERIFIED": true,
        "ABBREVIATION": {
          "SHORT_DESC": "SLOW",
          "DESCRIPTION": "slow"
        },
        "RDS-TMC_LOCATIONS": {
          "RDS-TMC": [
            {
              "ORIGIN": {
                "EBU_COUNTRY_CODE": "D",
                "TABLE_ID": 1,
                "LOCATION_ID": "12842",
                "LOCATION_DESC": "Kiefersfelden",
                "RDS_DIRECTION": "+"
              },
              "DIRECTION": "-",
              "ALERTC": {
                "TRAFFIC_CODE": 138,
                "ALERTC_Q_BINARY": "1",
                "QUANTIFIERS": 4,
                "DESCRIPTION": "Stockender Verkehr; Durchschnittsgeschwindigkeit von bis zu 5 km/h; vorsichtig an das Stauende heranfahren.",
                "ALERTC_DURATION": "D",
                "ALERTC_DIRECTION": 1,
                "URGENCY": "U",
                "UPDATE_CLASS": 1,
                "PHRASE_CODE": "A2.Z112",
                "EXTENT": "1",
                "DURATION": 0
              },
              "LENGTH": 0.11065,
              "PRIMARY_OFFSET": 0.23414
            }
          ]
        },
        "LOCATION": {
          "DEFINED": {
            "ORIGIN": {
              "ROADWAY": {
                "DESCRIPTION": [
                  {
                    "value": "A93",
                    "TYPE": "NTCSA"
                  },
                  {
                    "value": "A93",
                    "TYPE": "RDSGN"
                  },
                  {
                    "value": "A93",
                    "TYPE": "LOCAL"
                  }
                ],
                "ID": 50175
              },
              "POINT": {
                "DESCRIPTION": [
                  {
                    "value": "Inntal",
                    "TYPE": "NTCSA"
                  },
                  {
                    "value": "Inntal",
                    "TYPE": "RDSGN"
                  },
                  {
                    "value": "Inntal",
                    "TYPE": "LOCAL"
                  },
                  {
                    "value": "A93",
                    "TYPE": "BNAME"
                  }
                ],
                "ID": 12842
              },
              "DIRECTION": {
                "DESCRIPTION": [
                  {
                    "value": "KIEFERSFELDEN",
                    "TYPE": "LOCAL"
                  },
                  {
                    "value": "KIEFERSFELDEN",
                    "TYPE": "NTCSA"
                  },
                  {
                    "value": "KIEFERSFELDEN",
                    "TYPE": "RDSGN"
                  }
                ],
                "ID": 0
              },
              "PROXIMITY": {
                "ID": "AT",
                "DESCRIPTION": "at"
              }
            },
            "TO": {
              "ROADWAY": {
                "DESCRIPTION": [
                  {
                    "value": "A93",
                    "TYPE": "NTCSA"
                  },
                  {
                    "value": "A93",
                    "TYPE": "RDSGN"
                  },
                  {
                    "value": "A93",
                    "TYPE": "LOCAL"
                  }
                ],
                "ID": 50175
              },
              "POINT": {
                "DESCRIPTION": [
                  {
                    "value": "Kiefersfelden",
                    "TYPE": "NTCSA"
                  },
                  {
                    "value": "Kiefersfelden",
                    "TYPE": "RDSGN"
                  },
                  {
                    "value": "Kiefersfelden",
                    "TYPE": "LOCAL"
                  },
                  {
                    "value": "A93",
                    "TYPE": "BNAME"
                  }
                ],
                "ID": 12842
              },
              "DIRECTION": {
                "DESCRIPTION": [
                  {
                    "value": "KIEFERSFELDEN",
                    "TYPE": "LOCAL"
                  },
                  {
                    "value": "KIEFERSFELDEN",
                    "TYPE": "NTCSA"
                  },
                  {
                    "value": "KIEFERSFELDEN",
                    "TYPE": "RDSGN"
                  }
                ],
                "ID": 0
              },
              "PROXIMITY": {
                "ID": "AT",
                "DESCRIPTION": "at"
              }
            }
          },
          "GEOLOC": {
            "ORIGIN": {
              "LATITUDE": 47.60864,
              "LONGITUDE": 12.19864
            },
            "TO": [
              {
                "LATITUDE": 47.60739,
                "LONGITUDE": 12.19716
              }
            ]
          },
          "NAVTECH": {
            "EDGE": {
              "EDGE_ID": [
                "1258715431"
              ]
            },
            "VERSION_ID": "202102"
          },
          "LENGTH": 0.11065
        },
        "TRAFFIC_ITEM_DETAIL": {
          "ROAD_CLOSED": false,
          "INCIDENT": {
            "RESPONSE_VEHICLES": false,
            "CONGESTION_INCIDENT": {
              "CONGESTION_TYPE_DESC": "CONGESTION",
              "CONGESTION_FACTOR": 50
            }
          },
          "ALERTC": [
            {
              "EVENT_CODE": 138,
              "ALERTC_Q": 1
            }
          ]
        },
        "TRAFFIC_ITEM_DESCRIPTION": [
          {
            "value": "Bei Kiefersfelden - Stockender Verkehr; Durchschnittsgeschwindigkeit von bis zu 5 km/h; vorsichtig an das Stauende heranfahren.",
            "TYPE": "short_desc"
          },
          {
            "value": "Bei Kiefersfelden - Stockender Verkehr; Durchschnittsgeschwindigkeit von bis zu 5 km/h; vorsichtig an das Stauende heranfahren.",
            "TYPE": "desc"
          },
          {
            "value": "Stockender Verkehr; Durchschnittsgeschwindigkeit von bis zu 5 km/h; vorsichtig an das Stauende heranfahren.",
            "TYPE": "no_exit_description"
          }
        ],
        "mid": "081e31ac-1ae8-4094-bc4d-36246fd568da|1629609499604",
        "PRODUCT": "basic"
      },
      {
        "TRAFFIC_ITEM_ID": 274860672196586953,
        "ORIGINAL_TRAFFIC_ITEM_ID": 1309160499187833863,
        "TRAFFIC_ITEM_STATUS_SHORT_DESC": "ACTIVE",
        "TRAFFIC_ITEM_TYPE_DESC": "CONGESTION",
        "START_TIME": "08/22/2021 05:09:01",
        "END_TIME": "08/22/2021 05:29:16",
        "ENTRY_TIME": "08/22/2021 05:19:19",
        "CRITICALITY": {
          "ID": "2",
          "DESCRIPTION": "minor"
        },
        "VERIFIED": true,
        "ABBREVIATION": {
          "SHORT_DESC": "SLOW",
          "DESCRIPTION": "slow"
        },
        "RDS-TMC_LOCATIONS": {
          "RDS-TMC": [
            {
              "ORIGIN": {
                "EBU_COUNTRY_CODE": "A",
                "TABLE_ID": 1,
                "LOCATION_ID": "31280",
                "LOCATION_DESC": "St. Michael im Lungau",
                "RDS_DIRECTION": "+"
              },
              "DIRECTION": "-",
              "ALERTC": {
                "TRAFFIC_CODE": 138,
                "QUANTIFIERS": 4,
                "DESCRIPTION": "Stockender Verkehr;; vorsichtig an das Stauende heranfahren.",
                "ALERTC_DURATION": "D",
                "ALERTC_DIRECTION": 1,
                "URGENCY": "U",
                "UPDATE_CLASS": 1,
                "PHRASE_CODE": "A2.Z112",
                "EXTENT": "1",
                "DURATION": 0
              },
              "LENGTH": 0.01587,
              "PRIMARY_OFFSET": 0.37325
            }
          ]
        },
        "LOCATION": {
          "DEFINED": {
            "ORIGIN": {
              "ROADWAY": {
                "DESCRIPTION": [
                  {
                    "value": "Tauern Autobahn",
                    "TYPE": "NTCSA"
                  },
                  {
                    "value": "Tauern Autobahn",
                    "TYPE": "RDSGN"
                  },
                  {
                    "value": "Tauern Autobahn",
                    "TYPE": "LOCAL"
                  }
                ],
                "ID": 30566
              },
              "POINT": {
                "DESCRIPTION": [
                  {
                    "value": "Mautstelle St. Michael im Lungau",
                    "TYPE": "NTCSA"
                  },
                  {
                    "value": "Mautstelle St. Michael im Lungau",
                    "TYPE": "RDSGN"
                  },
                  {
                    "value": "Mautstelle St. Michael im Lungau",
                    "TYPE": "LOCAL"
                  },
                  {
                    "value": "Tauern Autobahn",
                    "TYPE": "BNAME"
                  }
                ],
                "ID": 31280
              },
              "DIRECTION": {
                "DESCRIPTION": [
                  {
                    "value": "SALZBURG",
                    "TYPE": "LOCAL"
                  },
                  {
                    "value": "SALZBURG",
                    "TYPE": "NTCSA"
                  },
                  {
                    "value": "SALZBURG",
                    "TYPE": "RDSGN"
                  }
                ],
                "ID": 0
              },
              "PROXIMITY": {
                "ID": "AT",
                "DESCRIPTION": "at"
              }
            },
            "TO": {
              "ROADWAY": {
                "DESCRIPTION": [
                  {
                    "value": "Tauern Autobahn",
                    "TYPE": "NTCSA"
                  },
                  {
                    "value": "Tauern Autobahn",
                    "TYPE": "RDSGN"
                  },
                  {
                    "value": "Tauern Autobahn",
                    "TYPE": "LOCAL"
                  }
                ],
                "ID": 30566
              },
              "POINT": {
                "DESCRIPTION": [
                  {
                    "value": "St. Michael im Lungau",
                    "TYPE": "NTCSA"
                  },
                  {
                    "value": "St. Michael im Lungau",
                    "TYPE": "RDSGN"
                  },
                  {
                    "value": "St. Michael im Lungau",
                    "TYPE": "LOCAL"
                  },
                  {
                    "value": "Tauern Autobahn",
                    "TYPE": "BNAME"
                  }
                ],
                "ID": 31280
              },
              "DIRECTION": {
                "DESCRIPTION": [
                  {
                    "value": "SALZBURG",
                    "TYPE": "LOCAL"
                  },
                  {
                    "value": "SALZBURG",
                    "TYPE": "NTCSA"
                  },
                  {
                    "value": "SALZBURG",
                    "TYPE": "RDSGN"
                  }
                ],
                "ID": 0
              },
              "PROXIMITY": {
                "ID": "AT",
                "DESCRIPTION": "at"
              }
            }
          },
          "GEOLOC": {
            "ORIGIN": {
              "LATITUDE": 47.093,
              "LONGITUDE": 13.6099
            },
            "TO": [
              {
                "LATITUDE": 47.09323,
                "LONGITUDE": 13.6099
              }
            ]
          },
          "NAVTECH": {
            "EDGE": {
              "EDGE_ID": [
                "1210466111"
              ]
            },
            "VERSION_ID": "202102"
          },
          "LENGTH": 0.01587
        },
        "TRAFFIC_ITEM_DETAIL": {
          "ROAD_CLOSED": false,
          "INCIDENT": {
            "RESPONSE_VEHICLES": false,
            "CONGESTION_INCIDENT": {
              "CONGESTION_TYPE_DESC": "CONGESTION",
              "CONGESTION_FACTOR": 50
            }
          },
          "ALERTC": [
            {
              "EVENT_CODE": 138
            }
          ]
        },
        "TRAFFIC_ITEM_DESCRIPTION": [
          {
            "value": "Bei St. Michael im Lungau - Stockender Verkehr;; vorsichtig an das Stauende heranfahren.",
            "TYPE": "short_desc"
          },
          {
            "value": "Bei St. Michael im Lungau - Stockender Verkehr;; vorsichtig an das Stauende heranfahren.",
            "TYPE": "desc"
          },
          {
            "value": "Stockender Verkehr;; vorsichtig an das Stauende heranfahren.",
            "TYPE": "no_exit_description"
          }
        ],
        "mid": "42193686-f5d2-4055-b2ab-e996478a28a5|1629609559604",
        "PRODUCT": "basic"
      },
      {
        "TRAFFIC_ITEM_ID": 2230898681068665499,
        "ORIGINAL_TRAFFIC_ITEM_ID": 1909324734845549288,
        "TRAFFIC_ITEM_STATUS_SHORT_DESC": "ACTIVE",
        "TRAFFIC_ITEM_TYPE_DESC": "CONGESTION",
        "START_TIME": "08/22/2021 05:08:16",
        "END_TIME": "08/22/2021 05:29:16",
        "ENTRY_TIME": "08/22/2021 05:19:19",
        "CRITICALITY": {
          "ID": "2",
          "DESCRIPTION": "minor"
        },
        "VERIFIED": true,
        "ABBREVIATION": {
          "SHORT_DESC": "SLOW",
          "DESCRIPTION": "slow"
        },
        "RDS-TMC_LOCATIONS": {
          "RDS-TMC": [
            {
              "ORIGIN": {
                "EBU_COUNTRY_CODE": "A",
                "TABLE_ID": 1,
                "LOCATION_ID": "31280",
                "LOCATION_DESC": "St. Michael im Lungau",
                "RDS_DIRECTION": "-"
              },
              "DIRECTION": "+",
              "ALERTC": {
                "TRAFFIC_CODE": 138,
                "QUANTIFIERS": 4,
                "DESCRIPTION": "Stockender Verkehr;; vorsichtig an das Stauende heranfahren.",
                "ALERTC_DURATION": "D",
                "ALERTC_DIRECTION": 1,
                "URGENCY": "U",
                "UPDATE_CLASS": 1,
                "PHRASE_CODE": "A2.Z112",
                "EXTENT": "1",
                "DURATION": 0
              },
              "LENGTH": 0.0254,
              "PRIMARY_OFFSET": 0.18927
            }
          ]
        },
        "LOCATION": {
          "DEFINED": {
            "ORIGIN": {
              "ROADWAY": {
                "DESCRIPTION": [
                  {
                    "value": "Tauern Autobahn",
                    "TYPE": "NTCSA"
                  },
                  {
                    "value": "Tauern Autobahn",
                    "TYPE": "RDSGN"
                  },
                  {
                    "value": "Tauern Autobahn",
                    "TYPE": "LOCAL"
                  }
                ],
                "ID": 30566
              },
              "POINT": {
                "DESCRIPTION": [
                  {
                    "value": "Parkplatz Lansch\u00fctz",
                    "TYPE": "NTCSA"
                  },
                  {
                    "value": "Parkplatz Lansch\u00fctz",
                    "TYPE": "RDSGN"
                  },
                  {
                    "value": "Parkplatz Lansch\u00fctz",
                    "TYPE": "LOCAL"
                  },
                  {
                    "value": "Tauern Autobahn",
                    "TYPE": "BNAME"
                  }
                ],
                "ID": 31280
              },
              "DIRECTION": {
                "DESCRIPTION": [
                  {
                    "value": "VILLACH",
                    "TYPE": "LOCAL"
                  },
                  {
                    "value": "VILLACH",
                    "TYPE": "NTCSA"
                  },
                  {
                    "value": "VILLACH",
                    "TYPE": "RDSGN"
                  }
                ],
                "ID": 0
              },
              "PROXIMITY": {
                "ID": "AT",
                "DESCRIPTION": "at"
              }
            },
            "TO": {
              "ROADWAY": {
                "DESCRIPTION": [
                  {
                    "value": "Tauern Autobahn",
                    "TYPE": "NTCSA"
                  },
                  {
                    "value": "Tauern Autobahn",
                    "TYPE": "RDSGN"
                  },
                  {
                    "value": "Tauern Autobahn",
                    "TYPE": "LOCAL"
                  }
                ],
                "ID": 30566
              },
              "POINT": {
                "DESCRIPTION": [
                  {
                    "value": "St. Michael im Lungau",
                    "TYPE": "NTCSA"
                  },
                  {
                    "value": "St. Michael im Lungau",
                    "TYPE": "RDSGN"
                  },
                  {
                    "value": "St. Michael im Lungau",
                    "TYPE": "LOCAL"
                  },
                  {
                    "value": "Tauern Autobahn",
                    "TYPE": "BNAME"
                  }
                ],
                "ID": 31280
              },
              "DIRECTION": {
                "DESCRIPTION": [
                  {
                    "value": "VILLACH",
                    "TYPE": "LOCAL"
                  },
                  {
                    "value": "VILLACH",
                    "TYPE": "NTCSA"
                  },
                  {
                    "value": "VILLACH",
                    "TYPE": "RDSGN"
                  }
                ],
                "ID": 0
              },
              "PROXIMITY": {
                "ID": "AT",
                "DESCRIPTION": "at"
              }
            }
          },
          "GEOLOC": {
            "ORIGIN": {
              "LATITUDE": 47.09502,
              "LONGITUDE": 13.60859
            },
            "TO": [
              {
                "LATITUDE": 47.09472,
                "LONGITUDE": 13.60881
              }
            ]
          },
          "NAVTECH": {
            "EDGE": {
              "EDGE_ID": [
                "1210473320"
              ]
            },
            "VERSION_ID": "202102"
          },
          "LENGTH": 0.0254
        },
        "TRAFFIC_ITEM_DETAIL": {
          "ROAD_CLOSED": false,
          "INCIDENT": {
            "RESPONSE_VEHICLES": false,
            "CONGESTION_INCIDENT": {
              "CONGESTION_TYPE_DESC": "CONGESTION",
              "CONGESTION_FACTOR": 50
            }
          },
          "ALERTC": [
            {
              "EVENT_CODE": 138
            }
          ]
        },
        "TRAFFIC_ITEM_DESCRIPTION": [
          {
            "value": "Bei St. Michael im Lungau - Stockender Verkehr;; vorsichtig an das Stauende heranfahren.",
            "TYPE": "short_desc"
          },
          {
            "value": "Bei St. Michael im Lungau - Stockender Verkehr;; vorsichtig an das Stauende heranfahren.",
            "TYPE": "desc"
          },
          {
            "value": "Stockender Verkehr;; vorsichtig an das Stauende heranfahren.",
            "TYPE": "no_exit_description"
          }
        ],
        "mid": "e30c0031-0cb7-4119-8161-9b91363734b4|1629609559604",
        "PRODUCT": "basic"
      },
      {
        "TRAFFIC_ITEM_ID": 1090418836189155760,
        "ORIGINAL_TRAFFIC_ITEM_ID": 1277457265356994983,
        "TRAFFIC_ITEM_STATUS_SHORT_DESC": "ACTIVE",
        "TRAFFIC_ITEM_TYPE_DESC": "CONGESTION",
        "START_TIME": "08/22/2021 05:16:19",
        "END_TIME": "08/22/2021 05:28:19",
        "ENTRY_TIME": "08/22/2021 05:18:19",
        "CRITICALITY": {
          "ID": "2",
          "DESCRIPTION": "minor"
        },
        "VERIFIED": true,
        "ABBREVIATION": {
          "SHORT_DESC": "SLOW",
          "DESCRIPTION": "slow"
        },
        "RDS-TMC_LOCATIONS": {
          "RDS-TMC": [
            {
              "ORIGIN": {
                "EBU_COUNTRY_CODE": "D",
                "TABLE_ID": 1,
                "LOCATION_ID": "60423",
                "LOCATION_DESC": "Rottal-Ost",
                "RDS_DIRECTION": "-"
              },
              "DIRECTION": "+",
              "ALERTC": {
                "TRAFFIC_CODE": 138,
                "QUANTIFIERS": 4,
                "DESCRIPTION": "Stockender Verkehr;; vorsichtig an das Stauende heranfahren.",
                "ALERTC_DURATION": "D",
                "ALERTC_DIRECTION": 1,
                "URGENCY": "U",
                "UPDATE_CLASS": 1,
                "PHRASE_CODE": "A2.Z112",
                "EXTENT": "1",
                "DURATION": 0
              },
              "LENGTH": 0.09173,
              "PRIMARY_OFFSET": 0.36796
            }
          ]
        },
        "LOCATION": {
          "DEFINED": {
            "ORIGIN": {
              "ROADWAY": {
                "DESCRIPTION": [
                  {
                    "value": "A3",
                    "TYPE": "NTCSA"
                  },
                  {
                    "value": "A3",
                    "TYPE": "RDSGN"
                  },
                  {
                    "value": "A3",
                    "TYPE": "LOCAL"
                  }
                ],
                "ID": 50101
              },
              "POINT": {
                "DESCRIPTION": [
                  {
                    "value": "Rottal-West",
                    "TYPE": "NTCSA"
                  },
                  {
                    "value": "Rottal-West",
                    "TYPE": "RDSGN"
                  },
                  {
                    "value": "Rottal-West",
                    "TYPE": "LOCAL"
                  },
                  {
                    "value": "A3",
                    "TYPE": "BNAME"
                  }
                ],
                "ID": 60423
              },
              "DIRECTION": {
                "DESCRIPTION": [
                  {
                    "value": "PASSAU",
                    "TYPE": "LOCAL"
                  },
                  {
                    "value": "PASSAU",
                    "TYPE": "NTCSA"
                  },
                  {
                    "value": "PASSAU",
                    "TYPE": "RDSGN"
                  }
                ],
                "ID": 0
              },
              "PROXIMITY": {
                "ID": "AT",
                "DESCRIPTION": "at"
              }
            },
            "TO": {
              "ROADWAY": {
                "DESCRIPTION": [
                  {
                    "value": "A3",
                    "TYPE": "NTCSA"
                  },
                  {
                    "value": "A3",
                    "TYPE": "RDSGN"
                  },
                  {
                    "value": "A3",
                    "TYPE": "LOCAL"
                  }
                ],
                "ID": 50101
              },
              "POINT": {
                "DESCRIPTION": [
                  {
                    "value": "Rottal-Ost",
                    "TYPE": "NTCSA"
                  },
                  {
                    "value": "Rottal-Ost",
                    "TYPE": "RDSGN"
                  },
                  {
                    "value": "Rottal-Ost",
                    "TYPE": "LOCAL"
                  },
                  {
                    "value": "A3",
                    "TYPE": "BNAME"
                  }
                ],
                "ID": 60423
              },
              "DIRECTION": {
                "DESCRIPTION": [
                  {
                    "value": "PASSAU",
                    "TYPE": "LOCAL"
                  },
                  {
                    "value": "PASSAU",
                    "TYPE": "NTCSA"
                  },
                  {
                    "value": "PASSAU",
                    "TYPE": "RDSGN"
                  }
                ],
                "ID": 0
              },
              "PROXIMITY": {
                "ID": "AT",
                "DESCRIPTION": "at"
              }
            }
          },
          "GEOLOC": {
            "ORIGIN": {
              "LATITUDE": 48.45646,
              "LONGITUDE": 13.37584
            },
            "TO": [
              {
                "LATITUDE": 48.45801,
                "LONGITUDE": 13.37559
              }
            ]
          },
          "NAVTECH": {
            "EDGE": {
              "EDGE_ID": [
                "920433088"
              ]
            },
            "VERSION_ID": "202102"
          },
          "LENGTH": 0.09173
        },
        "TRAFFIC_ITEM_DETAIL": {
          "ROAD_CLOSED": false,
          "INCIDENT": {
            "RESPONSE_VEHICLES": false,
            "CONGESTION_INCIDENT": {
              "CONGESTION_TYPE_DESC": "CONGESTION",
              "CONGESTION_FACTOR": 50
            }
          },
          "ALERTC": [
            {
              "EVENT_CODE": 138
            }
          ]
        },
        "TRAFFIC_ITEM_DESCRIPTION": [
          {
            "value": "Bei Rottal-Ost - Stockender Verkehr;; vorsichtig an das Stauende heranfahren.",
            "TYPE": "short_desc"
          },
          {
            "value": "Bei Rottal-Ost - Stockender Verkehr;; vorsichtig an das Stauende heranfahren.",
            "TYPE": "desc"
          },
          {
            "value": "Stockender Verkehr;; vorsichtig an das Stauende heranfahren.",
            "TYPE": "no_exit_description"
          }
        ],
        "mid": "e9f4724e-0d6f-4e19-8b9e-c7e44284bbf9|1629609499604",
        "PRODUCT": "basic"
      },
      {
        "TRAFFIC_ITEM_ID": 4267128036671479296,
        "ORIGINAL_TRAFFIC_ITEM_ID": 3960974517905948529,
        "TRAFFIC_ITEM_STATUS_SHORT_DESC": "ACTIVE",
        "TRAFFIC_ITEM_TYPE_DESC": "CONGESTION",
        "START_TIME": "08/22/2021 04:58:49",
        "END_TIME": "08/22/2021 05:28:19",
        "ENTRY_TIME": "08/22/2021 04:58:49",
        "CRITICALITY": {
          "ID": "2",
          "DESCRIPTION": "minor"
        },
        "VERIFIED": true,
        "ABBREVIATION": {
          "SHORT_DESC": "SLOW",
          "DESCRIPTION": "slow"
        },
        "RDS-TMC_LOCATIONS": {
          "RDS-TMC": [
            {
              "ORIGIN": {
                "EBU_COUNTRY_CODE": "D",
                "TABLE_ID": 1,
                "LOCATION_ID": "31620",
                "LOCATION_DESC": "Allach",
                "RDS_DIRECTION": "+"
              },
              "DIRECTION": "-",
              "ALERTC": {
                "TRAFFIC_CODE": 138,
                "QUANTIFIERS": 4,
                "DESCRIPTION": "Stockender Verkehr;; vorsichtig an das Stauende heranfahren.",
                "ALERTC_DURATION": "D",
                "ALERTC_DIRECTION": 1,
                "URGENCY": "U",
                "UPDATE_CLASS": 1,
                "PHRASE_CODE": "A2.Z112",
                "EXTENT": "1",
                "DURATION": 0
              },
              "LENGTH": 0.13583,
              "PRIMARY_OFFSET": 0.28035
            }
          ]
        },
        "LOCATION": {
          "DEFINED": {
            "ORIGIN": {
              "ROADWAY": {
                "DESCRIPTION": [
                  {
                    "value": "Autobahnring M\u00fcnchen",
                    "TYPE": "NTCSA"
                  },
                  {
                    "value": "Autobahnring M\u00fcnchen",
                    "TYPE": "RDSGN"
                  },
                  {
                    "value": "Autobahnring M\u00fcnchen",
                    "TYPE": "LOCAL"
                  }
                ],
                "ID": 50183
              },
              "POINT": {
                "DESCRIPTION": [
                  {
                    "value": "M\u00fcnchen-Ludwigsfeld",
                    "TYPE": "NTCSA"
                  },
                  {
                    "value": "M\u00fcnchen-Ludwigsfeld",
                    "TYPE": "RDSGN"
                  },
                  {
                    "value": "M\u00fcnchen-Ludwigsfeld",
                    "TYPE": "LOCAL"
                  },
                  {
                    "value": "Autobahnring M\u00fcnchen",
                    "TYPE": "BNAME"
                  }
                ],
                "ID": 31620
              },
              "DIRECTION": {
                "DESCRIPTION": [
                  {
                    "value": "M\u00dcNCHEN-S\u00dcD-WEST",
                    "TYPE": "LOCAL"
                  },
                  {
                    "value": "M\u00dcNCHEN-S\u00dcD-WEST",
                    "TYPE": "NTCSA"
                  },
                  {
                    "value": "M\u00dcNCHEN-S\u00dcD-WEST",
                    "TYPE": "RDSGN"
                  }
                ],
                "ID": 0
              },
              "PROXIMITY": {
                "ID": "AT",
                "DESCRIPTION": "at"
              }
            },
            "TO": {
              "ROADWAY": {
                "DESCRIPTION": [
                  {
                    "value": "Autobahnring M\u00fcnchen",
                    "TYPE": "NTCSA"
                  },
                  {
                    "value": "Autobahnring M\u00fcnchen",
                    "TYPE": "RDSGN"
                  },
                  {
                    "value": "Autobahnring M\u00fcnchen",
                    "TYPE": "LOCAL"
                  }
                ],
                "ID": 50183
              },
              "POINT": {
                "DESCRIPTION": [
                  {
                    "value": "Allach",
                    "TYPE": "NTCSA"
                  },
                  {
                    "value": "Allach",
                    "TYPE": "RDSGN"
                  },
                  {
                    "value": "Allach",
                    "TYPE": "LOCAL"
                  },
                  {
                    "value": "Autobahnring M\u00fcnchen",
                    "TYPE": "BNAME"
                  }
                ],
                "ID": 31620
              },
              "DIRECTION": {
                "DESCRIPTION": [
                  {
                    "value": "M\u00dcNCHEN-S\u00dcD-WEST",
                    "TYPE": "LOCAL"
                  },
                  {
                    "value": "M\u00dcNCHEN-S\u00dcD-WEST",
                    "TYPE": "NTCSA"
                  },
                  {
                    "value": "M\u00dcNCHEN-S\u00dcD-WEST",
                    "TYPE": "RDSGN"
                  }
                ],
                "ID": 0
              },
              "PROXIMITY": {
                "ID": "AT",
                "DESCRIPTION": "at"
              }
            }
          },
          "GEOLOC": {
            "ORIGIN": {
              "LATITUDE": 48.20765,
              "LONGITUDE": 11.46171
            },
            "TO": [
              {
                "LATITUDE": 48.20634,
                "LONGITUDE": 11.45956
              }
            ]
          },
          "NAVTECH": {
            "EDGE": {
              "EDGE_ID": [
                "1225525831"
              ]
            },
            "VERSION_ID": "202102"
          },
          "LENGTH": 0.13583
        },
        "TRAFFIC_ITEM_DETAIL": {
          "ROAD_CLOSED": false,
          "INCIDENT": {
            "RESPONSE_VEHICLES": false,
            "CONGESTION_INCIDENT": {
              "CONGESTION_TYPE_DESC": "CONGESTION",
              "CONGESTION_FACTOR": 50
            }
          },
          "ALERTC": [
            {
              "EVENT_CODE": 138
            }
          ]
        },
        "TRAFFIC_ITEM_DESCRIPTION": [
          {
            "value": "Bei Allach - Stockender Verkehr;; vorsichtig an das Stauende heranfahren.",
            "TYPE": "short_desc"
          },
          {
            "value": "Bei Allach - Stockender Verkehr;; vorsichtig an das Stauende heranfahren.",
            "TYPE": "desc"
          },
          {
            "value": "Stockender Verkehr;; vorsichtig an das Stauende heranfahren.",
            "TYPE": "no_exit_description"
          }
        ],
        "mid": "20c0ea77-c0a7-48d9-9038-97ffcc7f5924|1629608329604",
        "PRODUCT": "basic"
      }
    ]
  },
  "diagnostic": {
    "info": "",
    "sfile": "Incident-E1409-1629609465926.xml.gz|pr1",
    "pdd": "trafficml-incident-24-v13"
  },
  "TIMESTAMP2": "2021-08-22T05:17:46.000+0000",
  "EXTENDED_COUNTRY_CODE": "E1"
}