{
  "TIMESTAMP": "08/25/2021 02:57:44 GMT",
  "VERSION": 2.3,
  "TRAFFIC_ITEMS": {
    "TRAFFIC_ITEM": [
      {
        "TRAFFIC_ITEM_ID": 4495990282120631719,
        "ORIGINAL_TRAFFIC_ITEM_ID": 265180419669401338,
        "TRAFFIC_ITEM_STATUS_SHORT_DESC": "ACTIVE",
        "TRAFFIC_ITEM_TYPE_DESC": "CONGESTION",
        "START_TIME": "08/25/2021 02:56:49",
        "END_TIME": "08/25/2021 03:07:34",
        "ENTRY_TIME": "08/25/2021 02:56:52",
        "CRITICALITY": {
          "ID": "2",
          "DESCRIPTION": "minor"
        },
        "VERIFIED": true,
        "ABBREVIATION": {
          "SHORT_DESC": "SLOW",
          "DESCRIPTION": "slow"
        },
        "RDS-TMC_LOCATIONS": {
          "RDS-TMC": [
            {
              "ORIGIN": {
                "EBU_COUNTRY_CODE": "D",
                "TABLE_ID": 1,
                "LOCATION_ID": "32605",
                "LOCATION_DESC": "Britzer Damm",
                "RDS_DIRECTION": "-"
              },
              "DIRECTION": "+",
              "ALERTC": {
                "TRAFFIC_CODE": 138,
                "QUANTIFIERS": 4,
                "DESCRIPTION": "Stockender Verkehr;; vorsichtig an das Stauende heranfahren.",
                "ALERTC_DURATION": "D",
                "ALERTC_DIRECTION": 1,
                "URGENCY": "U",
                "UPDATE_CLASS": 1,
                "PHRASE_CODE": "A2.Z112",
                "EXTENT": "1",
                "DURATION": 0
              },
              "LENGTH": 0.00576,
              "PRIMARY_OFFSET": 0.21661
            }
          ]
        },
        "LOCATION": {
          "DEFINED": {
            "ORIGIN": {
              "ROADWAY": {
                "DESCRIPTION": [
                  {
                    "value": "Stadtring Berlin",
                    "TYPE": "NTCSA"
                  },
                  {
                    "value": "Stadtring Berlin",
                    "TYPE": "RDSGN"
                  },
                  {
                    "value": "Stadtring Berlin",
                    "TYPE": "LOCAL"
                  }
                ],
                "ID": 50062
              },
              "POINT": {
                "DESCRIPTION": [
                  {
                    "value": "Ortsteil Britz",
                    "TYPE": "NTCSA"
                  },
                  {
                    "value": "Ortsteil Britz",
                    "TYPE": "RDSGN"
                  },
                  {
                    "value": "Ortsteil Britz",
                    "TYPE": "LOCAL"
                  },
                  {
                    "value": "Stadtring Berlin",
                    "TYPE": "BNAME"
                  }
                ],
                "ID": 32605
              },
              "DIRECTION": {
                "DESCRIPTION": [
                  {
                    "value": "NEUK\u00d6LLN",
                    "TYPE": "LOCAL"
                  },
                  {
                    "value": "NEUK\u00d6LLN",
                    "TYPE": "NTCSA"
                  },
                  {
                    "value": "NEUK\u00d6LLN",
                    "TYPE": "RDSGN"
                  }
                ],
                "ID": 0
              },
              "PROXIMITY": {
                "ID": "AT",
                "DESCRIPTION": "at"
              }
            },
            "TO": {
              "ROADWAY": {
                "DESCRIPTION": [
                  {
                    "value": "Stadtring Berlin",
                    "TYPE": "NTCSA"
                  },
                  {
                    "value": "Stadtring Berlin",
                    "TYPE": "RDSGN"
                  },
                  {
                    "value": "Stadtring Berlin",
                    "TYPE": "LOCAL"
                  }
                ],
                "ID": 50062
              },
              "POINT": {
                "DESCRIPTION": [
                  {
                    "value": "Britzer Damm",
                    "TYPE": "NTCSA"
                  },
                  {
                    "value": "Britzer Damm",
                    "TYPE": "RDSGN"
                  },
                  {
                    "value": "Britzer Damm",
                    "TYPE": "LOCAL"
                  },
                  {
                    "value": "Stadtring Berlin",
                    "TYPE": "BNAME"
                  }
                ],
                "ID": 32605
              },
              "DIRECTION": {
                "DESCRIPTION": [
                  {
                    "value": "NEUK\u00d6LLN",
                    "TYPE": "LOCAL"
                  },
                  {
                    "value": "NEUK\u00d6LLN",
                    "TYPE": "NTCSA"
                  },
                  {
                    "value": "NEUK\u00d6LLN",
                    "TYPE": "RDSGN"
                  }
                ],
                "ID": 0
              },
              "PROXIMITY": {
                "ID": "AT",
                "DESCRIPTION": "at"
              }
            }
          },
          "GEOLOC": {
            "ORIGIN": {
              "LATITUDE": 52.46178,
              "LONGITUDE": 13.42939
            },
            "TO": [
              {
                "LATITUDE": 52.4618,
                "LONGITUDE": 13.42952
              }
            ]
          },
          "NAVTECH": {
            "EDGE": {
              "EDGE_ID": [
                "1209405871"
              ]
            },
            "VERSION_ID": "202102"
          },
          "LENGTH": 0.00576
        },
        "TRAFFIC_ITEM_DETAIL": {
          "ROAD_CLOSED": false,
          "INCIDENT": {
            "RESPONSE_VEHICLES": false,
            "CONGESTION_INCIDENT": {
              "CONGESTION_TYPE_DESC": "CONGESTION",
              "CONGESTION_FACTOR": 50
            }
          },
          "ALERTC": [
            {
              "EVENT_CODE": 138
            }
          ]
        },
        "TRAFFIC_ITEM_DESCRIPTION": [
          {
            "value": "Bei Britzer Damm - Stockender Verkehr;; vorsichtig an das Stauende heranfahren.",
            "TYPE": "short_desc"
          },
          {
            "value": "Bei Britzer Damm - Stockender Verkehr;; vorsichtig an das Stauende heranfahren.",
            "TYPE": "desc"
          },
          {
            "value": "Stockender Verkehr;; vorsichtig an das Stauende heranfahren.",
            "TYPE": "no_exit_description"
          }
        ],
        "mid": "8dbc6eab-1631-40ad-a4e7-60b1e15a2ff0|1629860212379",
        "PRODUCT": "basic"
      },
      {
        "TRAFFIC_ITEM_ID": 1130537134087046915,
        "ORIGINAL_TRAFFIC_ITEM_ID": 1130537134087046915,
        "TRAFFIC_ITEM_STATUS_SHORT_DESC": "ACTIVE",
        "TRAFFIC_ITEM_TYPE_DESC": "CONGESTION",
        "START_TIME": "08/25/2021 02:57:34",
        "END_TIME": "08/25/2021 03:07:34",
        "ENTRY_TIME": "08/25/2021 02:57:37",
        "CRITICALITY": {
          "ID": "2",
          "DESCRIPTION": "minor"
        },
        "VERIFIED": true,
        "ABBREVIATION": {
          "SHORT_DESC": "SLOW",
          "DESCRIPTION": "slow"
        },
        "RDS-TMC_LOCATIONS": {
          "RDS-TMC": [
            {
              "ORIGIN": {
                "EBU_COUNTRY_CODE": "D",
                "TABLE_ID": 1,
                "LOCATION_ID": "32605",
                "LOCATION_DESC": "Britzer Damm",
                "RDS_DIRECTION": "+"
              },
              "DIRECTION": "-",
              "ALERTC": {
                "TRAFFIC_CODE": 138,
                "QUANTIFIERS": 4,
                "DESCRIPTION": "Stockender Verkehr;; vorsichtig an das Stauende heranfahren.",
                "ALERTC_DURATION": "D",
                "ALERTC_DIRECTION": 1,
                "URGENCY": "U",
                "UPDATE_CLASS": 1,
                "PHRASE_CODE": "A2.Z112",
                "EXTENT": "1",
                "DURATION": 0
              },
              "LENGTH": 0.10388,
              "PRIMARY_OFFSET": 0.0
            }
          ]
        },
        "LOCATION": {
          "DEFINED": {
            "ORIGIN": {
              "ROADWAY": {
                "DESCRIPTION": [
                  {
                    "value": "Stadtring Berlin",
                    "TYPE": "NTCSA"
                  },
                  {
                    "value": "Stadtring Berlin",
                    "TYPE": "RDSGN"
                  },
                  {
                    "value": "Stadtring Berlin",
                    "TYPE": "LOCAL"
                  }
                ],
                "ID": 50062
              },
              "POINT": {
                "DESCRIPTION": [
                  {
                    "value": "Buschkrugallee",
                    "TYPE": "NTCSA"
                  },
                  {
                    "value": "Buschkrugallee",
                    "TYPE": "RDSGN"
                  },
                  {
                    "value": "Buschkrugallee",
                    "TYPE": "LOCAL"
                  },
                  {
                    "value": "Stadtring Berlin",
                    "TYPE": "BNAME"
                  }
                ],
                "ID": 32605
              },
              "DIRECTION": {
                "DESCRIPTION": [
                  {
                    "value": "WILMERSDORF",
                    "TYPE": "LOCAL"
                  },
                  {
                    "value": "WILMERSDORF",
                    "TYPE": "NTCSA"
                  },
                  {
                    "value": "WILMERSDORF",
                    "TYPE": "RDSGN"
                  }
                ],
                "ID": 0
              },
              "PROXIMITY": {
                "ID": "AT",
                "DESCRIPTION": "at"
              }
            },
            "TO": {
              "ROADWAY": {
                "DESCRIPTION": [
                  {
                    "value": "Stadtring Berlin",
                    "TYPE": "NTCSA"
                  },
                  {
                    "value": "Stadtring Berlin",
                    "TYPE": "RDSGN"
                  },
                  {
                    "value": "Stadtring Berlin",
                    "TYPE": "LOCAL"
                  }
                ],
                "ID": 50062
              },
              "POINT": {
                "DESCRIPTION": [
                  {
                    "value": "Britzer Damm",
                    "TYPE": "NTCSA"
                  },
                  {
                    "value": "Britzer Damm",
                    "TYPE": "RDSGN"
                  },
                  {
                    "value": "Britzer Damm",
                    "TYPE": "LOCAL"
                  },
                  {
                    "value": "Stadtring Berlin",
                    "TYPE": "BNAME"
                  }
                ],
                "ID": 32605
              },
              "DIRECTION": {
                "DESCRIPTION": [
                  {
                    "value": "WILMERSDORF",
                    "TYPE": "LOCAL"
                  },
                  {
                    "value": "WILMERSDORF",
                    "TYPE": "NTCSA"
                  },
                  {
                    "value": "WILMERSDORF",
                    "TYPE": "RDSGN"
                  }
                ],
                "ID": 0
              },
              "PROXIMITY": {
                "ID": "AT",
                "DESCRIPTION": "at"
              }
            }
          },
          "GEOLOC": {
            "ORIGIN": {
              "LATITUDE": 52.46206,
              "LONGITUDE": 13.43254
            },
            "TO": [
              {
                "LATITUDE": 52.46196,
                "LONGITUDE": 13.43009
              }
            ]
          },
          "NAVTECH": {
            "EDGE": {
              "EDGE_ID": [
                "927324024"
              ]
            },
            "VERSION_ID": "202102"
          },
          "LENGTH": 0.10388
        },
        "TRAFFIC_ITEM_DETAIL": {
          "ROAD_CLOSED": false,
          "INCIDENT": {
            "RESPONSE_VEHICLES": false,
            "CONGESTION_INCIDENT": {
              "CONGESTION_TYPE_DESC": "CONGESTION",
              "CONGESTION_FACTOR": 50
            }
          },
          "ALERTC": [
            {
              "EVENT_CODE": 138
            }
          ]
        },
        "TRAFFIC_ITEM_DESCRIPTION": [
          {
            "value": "Bei Britzer Damm - Stockender Verkehr;; vorsichtig an das Stauende heranfahren.",
            "TYPE": "short_desc"
          },
          {
            "value": "Bei Britzer Damm - Stockender Verkehr;; vorsichtig an das Stauende heranfahren.",
            "TYPE": "desc"
          },
          {
            "value": "Stockender Verkehr;; vorsichtig an das Stauende heranfahren.",
            "TYPE": "no_exit_description"
          }
        ],
        "mid": "8e360ecd-4a93-42c2-90c5-a1e4bc1de6e2|1629860257379",
        "PRODUCT": "basic"
      },
      {
        "TRAFFIC_ITEM_ID": 4073431928230492204,
        "ORIGINAL_TRAFFIC_ITEM_ID": 644066622648903888,
        "TRAFFIC_ITEM_STATUS_SHORT_DESC": "ACTIVE",
        "TRAFFIC_ITEM_TYPE_DESC": "CONGESTION",
        "START_TIME": "08/25/2021 02:48:04",
        "END_TIME": "08/25/2021 03:07:34",
        "ENTRY_TIME": "08/25/2021 02:57:37",
        "CRITICALITY": {
          "ID": "2",
          "DESCRIPTION": "minor"
        },
        "VERIFIED": true,
        "ABBREVIATION": {
          "SHORT_DESC": "SLOW",
          "DESCRIPTION": "slow"
        },
        "RDS-TMC_LOCATIONS": {
          "RDS-TMC": [
            {
              "ORIGIN": {
                "EBU_COUNTRY_CODE": "D",
                "TABLE_ID": 1,
                "LOCATION_ID": "10464",
                "LOCATION_DESC": "Dortmund-Nordost",
                "RDS_DIRECTION": "+"
              },
              "DIRECTION": "-",
              "ALERTC": {
                "TRAFFIC_CODE": 138,
                "ALERTC_Q_BINARY": "1",
                "QUANTIFIERS": 4,
                "DESCRIPTION": "Stockender Verkehr; Durchschnittsgeschwindigkeit von bis zu 5 km/h; vorsichtig an das Stauende heranfahren.",
                "ALERTC_DURATION": "D",
                "ALERTC_DIRECTION": 1,
                "URGENCY": "U",
                "UPDATE_CLASS": 1,
                "PHRASE_CODE": "A2.Z112",
                "EXTENT": "1",
                "DURATION": 0
              },
              "LENGTH": 0.34284,
              "PRIMARY_OFFSET": 0.0
            }
          ]
        },
        "LOCATION": {
          "DEFINED": {
            "ORIGIN": {
              "ROADWAY": {
                "DESCRIPTION": [
                  {
                    "value": "A2",
                    "TYPE": "NTCSA"
                  },
                  {
                    "value": "A2",
                    "TYPE": "RDSGN"
                  },
                  {
                    "value": "A2",
                    "TYPE": "LOCAL"
                  }
                ],
                "ID": 50080
              },
              "POINT": {
                "DESCRIPTION": [
                  {
                    "value": "Dortmund-Lanstrop",
                    "TYPE": "NTCSA"
                  },
                  {
                    "value": "Dortmund-Lanstrop",
                    "TYPE": "RDSGN"
                  },
                  {
                    "value": "Dortmund-Lanstrop",
                    "TYPE": "LOCAL"
                  },
                  {
                    "value": "A2",
                    "TYPE": "BNAME"
                  }
                ],
                "ID": 10464
              },
              "DIRECTION": {
                "DESCRIPTION": [
                  {
                    "value": "DORTMUND",
                    "TYPE": "LOCAL"
                  },
                  {
                    "value": "DORTMUND",
                    "TYPE": "NTCSA"
                  },
                  {
                    "value": "DORTMUND",
                    "TYPE": "RDSGN"
                  }
                ],
                "ID": 0
              },
              "PROXIMITY": {
                "ID": "AT",
                "DESCRIPTION": "at"
              }
            },
            "TO": {
              "ROADWAY": {
                "DESCRIPTION": [
                  {
                    "value": "A2",
                    "TYPE": "NTCSA"
                  },
                  {
                    "value": "A2",
                    "TYPE": "RDSGN"
                  },
                  {
                    "value": "A2",
                    "TYPE": "LOCAL"
                  }
                ],
                "ID": 50080
              },
              "POINT": {
                "DESCRIPTION": [
                  {
                    "value": "Dortmund-Nordost",
                    "TYPE": "NTCSA"
                  },
                  {
                    "value": "Dortmund-Nordost",
                    "TYPE": "RDSGN"
                  },
                  {
                    "value": "Dortmund-Nordost",
                    "TYPE": "LOCAL"
                  },
                  {
                    "value": "A2",
                    "TYPE": "BNAME"
                  }
                ],
                "ID": 10464
              },
              "DIRECTION": {
                "DESCRIPTION": [
                  {
                    "value": "DORTMUND",
                    "TYPE": "LOCAL"
                  },
                  {
                    "value": "DORTMUND",
                    "TYPE": "NTCSA"
                  },
                  {
                    "value": "DORTMUND",
                    "TYPE": "RDSGN"
                  }
                ],
                "ID": 0
              },
              "PROXIMITY": {
                "ID": "AT",
                "DESCRIPTION": "at"
              }
            }
          },
          "GEOLOC": {
            "ORIGIN": {
              "LATITUDE": 51.57851,
              "LONGITUDE": 7.49531
            },
            "TO": [
              {
                "LATITUDE": 51.57706,
                "LONGITUDE": 7.48772
              }
            ]
          },
          "NAVTECH": {
            "EDGE": {
              "EDGE_ID": [
                "75422878"
              ]
            },
            "VERSION_ID": "202102"
          },
          "LENGTH": 0.34284
        },
        "TRAFFIC_ITEM_DETAIL": {
          "ROAD_CLOSED": false,
          "INCIDENT": {
            "RESPONSE_VEHICLES": false,
            "CONGESTION_INCIDENT": {
              "CONGESTION_TYPE_DESC": "CONGESTION",
              "CONGESTION_FACTOR": 50
            }
          },
          "ALERTC": [
            {
              "EVENT_CODE": 138,
              "ALERTC_Q": 1
            }
          ]
        },
        "TRAFFIC_ITEM_DESCRIPTION": [
          {
            "value": "Bei Dortmund-Nordost - Stockender Verkehr; Durchschnittsgeschwindigkeit von bis zu 5 km/h; vorsichtig an das Stauende heranfahren.",
            "TYPE": "short_desc"
          },
          {
            "value": "Bei Dortmund-Nordost - Stockender Verkehr; Durchschnittsgeschwindigkeit von bis zu 5 km/h; vorsichtig an das Stauende heranfahren.",
            "TYPE": "desc"
          },
          {
            "value": "Stockender Verkehr; Durchschnittsgeschwindigkeit von bis zu 5 km/h; vorsichtig an das Stauende heranfahren.",
            "TYPE": "no_exit_description"
          }
        ],
        "mid": "54b3af09-c7b4-449f-823c-d9082498321a|1629860257379",
        "PRODUCT": "basic"
      },
      {
        "TRAFFIC_ITEM_ID": 2311367411955296470,
        "ORIGINAL_TRAFFIC_ITEM_ID": 1035967858393883617,
        "TRAFFIC_ITEM_STATUS_SHORT_DESC": "ACTIVE",
        "TRAFFIC_ITEM_TYPE_DESC": "CONGESTION",
        "START_TIME": "08/25/2021 02:53:19",
        "END_TIME": "08/25/2021 03:07:34",
        "ENTRY_TIME": "08/25/2021 02:57:37",
        "CRITICALITY": {
          "ID": "2",
          "DESCRIPTION": "minor"
        },
        "VERIFIED": true,
        "ABBREVIATION": {
          "SHORT_DESC": "SLOW",
          "DESCRIPTION": "slow"
        },
        "RDS-TMC_LOCATIONS": {
          "RDS-TMC": [
            {
              "ORIGIN": {
                "EBU_COUNTRY_CODE": "D",
                "TABLE_ID": 1,
                "LOCATION_ID": "20078",
                "LOCATION_DESC": "Ortskern Tegel",
                "RDS_DIRECTION": "+"
              },
              "DIRECTION": "-",
              "ALERTC": {
                "TRAFFIC_CODE": 138,
                "ALERTC_Q_BINARY": "1",
                "QUANTIFIERS": 4,
                "DESCRIPTION": "Stockender Verkehr; Durchschnittsgeschwindigkeit von bis zu 5 km/h; vorsichtig an das Stauende heranfahren.",
                "ALERTC_DURATION": "D",
                "ALERTC_DIRECTION": 1,
                "URGENCY": "U",
                "UPDATE_CLASS": 1,
                "PHRASE_CODE": "A2.Z112",
                "EXTENT": "1",
                "DURATION": 0
              },
              "LENGTH": 0.1862,
              "PRIMARY_OFFSET": 0.24851
            }
          ]
        },
        "LOCATION": {
          "DEFINED": {
            "ORIGIN": {
              "ROADWAY": {
                "DESCRIPTION": [
                  {
                    "value": "Autobahnzubringer Hamburg",
                    "TYPE": "NTCSA"
                  },
                  {
                    "value": "Autobahnzubringer Hamburg",
                    "TYPE": "RDSGN"
                  },
                  {
                    "value": "Autobahnzubringer Hamburg",
                    "TYPE": "LOCAL"
                  }
                ],
                "ID": 7025
              },
              "POINT": {
                "DESCRIPTION": [
                  {
                    "value": "Waidmannsluster Damm / Hermsdorfer Damm",
                    "TYPE": "NTCSA"
                  },
                  {
                    "value": "Waidmannsluster Damm / Hermsdorfer Damm",
                    "TYPE": "RDSGN"
                  },
                  {
                    "value": "Waidmannsluster Damm / Hermsdorfer Damm",
                    "TYPE": "LOCAL"
                  },
                  {
                    "value": "Autobahnzubringer Hamburg",
                    "TYPE": "BNAME"
                  }
                ],
                "ID": 20078
              },
              "DIRECTION": {
                "DESCRIPTION": [
                  {
                    "value": "CHARLOTTENBURG",
                    "TYPE": "LOCAL"
                  },
                  {
                    "value": "CHARLOTTENBURG",
                    "TYPE": "NTCSA"
                  },
                  {
                    "value": "CHARLOTTENBURG",
                    "TYPE": "RDSGN"
                  }
                ],
                "ID": 0
              },
              "PROXIMITY": {
                "ID": "AT",
                "DESCRIPTION": "at"
              }
            },
            "TO": {
              "ROADWAY": {
                "DESCRIPTION": [
                  {
                    "value": "Autobahnzubringer Hamburg",
                    "TYPE": "NTCSA"
                  },
                  {
                    "value": "Autobahnzubringer Hamburg",
                    "TYPE": "RDSGN"
                  },
                  {
                    "value": "Autobahnzubringer Hamburg",
                    "TYPE": "LOCAL"
                  }
                ],
                "ID": 7025
              },
              "POINT": {
                "DESCRIPTION": [
                  {
                    "value": "Ortskern Tegel",
                    "TYPE": "NTCSA"
                  },
                  {
                    "value": "Ortskern Tegel",
                    "TYPE": "RDSGN"
                  },
                  {
                    "value": "Ortskern Tegel",
                    "TYPE": "LOCAL"
                  },
                  {
                    "value": "Autobahnzubringer Hamburg",
                    "TYPE": "BNAME"
                  }
                ],
                "ID": 20078
              },
              "DIRECTION": {
                "DESCRIPTION": [
                  {
                    "value": "CHARLOTTENBURG",
                    "TYPE": "LOCAL"
                  },
                  {
                    "value": "CHARLOTTENBURG",
                    "TYPE": "NTCSA"
                  },
                  {
                    "value": "CHARLOTTENBURG",
                    "TYPE": "RDSGN"
                  }
                ],
                "ID": 0
              },
              "PROXIMITY": {
                "ID": "AT",
                "DESCRIPTION": "at"
              }
            }
          },
          "GEOLOC": {
            "ORIGIN": {
              "LATITUDE": 52.59214,
              "LONGITUDE": 13.28737
            },
            "TO": [
              {
                "LATITUDE": 52.58966,
                "LONGITUDE": 13.28909
              }
            ]
          },
          "NAVTECH": {
            "EDGE": {
              "EDGE_ID": [
                "783430047"
              ]
            },
            "VERSION_ID": "202102"
          },
          "LENGTH": 0.1862
        },
        "TRAFFIC_ITEM_DETAIL": {
          "ROAD_CLOSED": false,
          "INCIDENT": {
            "RESPONSE_VEHICLES": false,
            "CONGESTION_INCIDENT": {
              "CONGESTION_TYPE_DESC": "CONGESTION",
              "CONGESTION_FACTOR": 50
            }
          },
          "ALERTC": [
            {
              "EVENT_CODE": 138,
              "ALERTC_Q": 1
            }
          ]
        },
        "TRAFFIC_ITEM_DESCRIPTION": [
          {
            "value": "Bei Ortskern Tegel - Stockender Verkehr; Durchschnittsgeschwindigkeit von bis zu 5 km/h; vorsichtig an das Stauende heranfahren.",
            "TYPE": "short_desc"
          },
          {
            "value": "Bei Ortskern Tegel - Stockender Verkehr; Durchschnittsgeschwindigkeit von bis zu 5 km/h; vorsichtig an das Stauende heranfahren.",
            "TYPE": "desc"
          },
          {
            "value": "Stockender Verkehr; Durchschnittsgeschwindigkeit von bis zu 5 km/h; vorsichtig an das Stauende heranfahren.",
            "TYPE": "no_exit_description"
          }
        ],
        "mid": "4f6e1235-2d4c-4aee-8db6-cf0f3e6a0d7b|1629860257379",
        "PRODUCT": "basic"
      },
      {
        "TRAFFIC_ITEM_ID": 4174148717859868426,
        "ORIGINAL_TRAFFIC_ITEM_ID": 71753916124708116,
        "TRAFFIC_ITEM_STATUS_SHORT_DESC": "ACTIVE",
        "TRAFFIC_ITEM_TYPE_DESC": "CONGESTION",
        "START_TIME": "08/25/2021 02:45:04",
        "END_TIME": "08/25/2021 03:07:34",
        "ENTRY_TIME": "08/25/2021 02:57:37",
        "CRITICALITY": {
          "ID": "2",
          "DESCRIPTION": "minor"
        },
        "VERIFIED": true,
        "ABBREVIATION": {
          "SHORT_DESC": "SLOW",
          "DESCRIPTION": "slow"
        },
        "RDS-TMC_LOCATIONS": {
          "RDS-TMC": [
            {
              "ORIGIN": {
                "EBU_COUNTRY_CODE": "D",
                "TABLE_ID": 1,
                "LOCATION_ID": "12378",
                "LOCATION_DESC": "Hamburg-Bahrenfeld",
                "RDS_DIRECTION": "+"
              },
              "DIRECTION": "-",
              "ALERTC": {
                "TRAFFIC_CODE": 138,
                "ALERTC_Q_BINARY": "1",
                "QUANTIFIERS": 4,
                "DESCRIPTION": "Stockender Verkehr; Durchschnittsgeschwindigkeit von bis zu 5 km/h; vorsichtig an das Stauende heranfahren.",
                "ALERTC_DURATION": "D",
                "ALERTC_DIRECTION": 1,
                "URGENCY": "U",
                "UPDATE_CLASS": 1,
                "PHRASE_CODE": "A2.Z112",
                "EXTENT": "1",
                "DURATION": 0
              },
              "LENGTH": 0.19656,
              "PRIMARY_OFFSET": 0.05965
            }
          ]
        },
        "LOCATION": {
          "DEFINED": {
            "ORIGIN": {
              "ROADWAY": {
                "DESCRIPTION": [
                  {
                    "value": "A7",
                    "TYPE": "NTCSA"
                  },
                  {
                    "value": "A7",
                    "TYPE": "RDSGN"
                  },
                  {
                    "value": "A7",
                    "TYPE": "LOCAL"
                  }
                ],
                "ID": 50163
              },
              "POINT": {
                "DESCRIPTION": [
                  {
                    "value": "Hamburg-Volkspark",
                    "TYPE": "NTCSA"
                  },
                  {
                    "value": "Hamburg-Volkspark",
                    "TYPE": "RDSGN"
                  },
                  {
                    "value": "Hamburg-Volkspark",
                    "TYPE": "LOCAL"
                  },
                  {
                    "value": "A7",
                    "TYPE": "BNAME"
                  }
                ],
                "ID": 12378
              },
              "DIRECTION": {
                "DESCRIPTION": [
                  {
                    "value": "HAMBURG",
                    "TYPE": "LOCAL"
                  },
                  {
                    "value": "HAMBURG",
                    "TYPE": "NTCSA"
                  },
                  {
                    "value": "HAMBURG",
                    "TYPE": "RDSGN"
                  }
                ],
                "ID": 0
              },
              "PROXIMITY": {
                "ID": "AT",
                "DESCRIPTION": "at"
              }
            },
            "TO": {
              "ROADWAY": {
                "DESCRIPTION": [
                  {
                    "value": "A7",
                    "TYPE": "NTCSA"
                  },
                  {
                    "value": "A7",
                    "TYPE": "RDSGN"
                  },
                  {
                    "value": "A7",
                    "TYPE": "LOCAL"
                  }
                ],
                "ID": 50163
              },
              "POINT": {
                "DESCRIPTION": [
                  {
                    "value": "Hamburg-Bahrenfeld",
                    "TYPE": "NTCSA"
                  },
                  {
                    "value": "Hamburg-Bahrenfeld",
                    "TYPE": "RDSGN"
                  },
                  {
                    "value": "Hamburg-Bahrenfeld",
                    "TYPE": "LOCAL"
                  },
                  {
                    "value": "A7",
                    "TYPE": "BNAME"
                  }
                ],
                "ID": 12378
              },
              "DIRECTION": {
                "DESCRIPTION": [
                  {
                    "value": "HAMBURG",
                    "TYPE": "LOCAL"
                  },
                  {
                    "value": "HAMBURG",
                    "TYPE": "NTCSA"
                  },
                  {
                    "value": "HAMBURG",
                    "TYPE": "RDSGN"
                  }
                ],
                "ID": 0
              },
              "PROXIMITY": {
                "ID": "AT",
                "DESCRIPTION": "at"
              }
            }
          },
          "GEOLOC": {
            "ORIGIN": {
              "LATITUDE": 53.56591,
              "LONGITUDE": 9.8997
            },
            "TO": [
              {
                "LATITUDE": 53.56313,
                "LONGITUDE": 9.89874
              }
            ]
          },
          "NAVTECH": {
            "EDGE": {
              "EDGE_ID": [
                "770383609"
              ]
            },
            "VERSION_ID": "202102"
          },
          "LENGTH": 0.19656
        },
        "TRAFFIC_ITEM_DETAIL": {
          "ROAD_CLOSED": false,
          "INCIDENT": {
            "RESPONSE_VEHICLES": false,
            "CONGESTION_INCIDENT": {
              "CONGESTION_TYPE_DESC": "CONGESTION",
              "CONGESTION_FACTOR": 50
            }
          },
          "ALERTC": [
            {
              "EVENT_CODE": 138,
              "ALERTC_Q": 1
            }
          ]
        },
        "TRAFFIC_ITEM_DESCRIPTION": [
          {
            "value": "Bei Hamburg-Bahrenfeld - Stockender Verkehr; Durchschnittsgeschwindigkeit von bis zu 5 km/h; vorsichtig an das Stauende heranfahren.",
            "TYPE": "short_desc"
          },
          {
            "value": "Bei Hamburg-Bahrenfeld - Stockender Verkehr; Durchschnittsgeschwindigkeit von bis zu 5 km/h; vorsichtig an das Stauende heranfahren.",
            "TYPE": "desc"
          },
          {
            "value": "Stockender Verkehr; Durchschnittsgeschwindigkeit von bis zu 5 km/h; vorsichtig an das Stauende heranfahren.",
            "TYPE": "no_exit_description"
          }
        ],
        "mid": "e4f240fd-d727-4922-a087-e3e8d519162a|1629860257379",
        "PRODUCT": "basic"
      }
    ]
  },
  "diagnostic": {
    "info": "",
    "sfile": "Incident-E2305-1629860264610.xml.gz|pr1",
    "pdd": "trafficml-incident-24-v13"
  },
  "TIMESTAMP2": "2021-08-25T02:57:44.000+0000",
  "EXTENDED_COUNTRY_CODE": "E2"
}