{
  "TIMESTAMP": "08/24/2021 22:27:44 GMT",
  "VERSION": 2.3,
  "TRAFFIC_ITEMS": {
    "TRAFFIC_ITEM": [
      {
        "TRAFFIC_ITEM_ID": 1497976678834715972,
        "ORIGINAL_TRAFFIC_ITEM_ID": 1335714752706919788,
        "TRAFFIC_ITEM_STATUS_SHORT_DESC": "ACTIVE",
        "TRAFFIC_ITEM_TYPE_DESC": "CONGESTION",
        "START_TIME": "08/24/2021 22:19:19",
        "END_TIME": "08/24/2021 22:37:34",
        "ENTRY_TIME": "08/24/2021 22:25:37",
        "CRITICALITY": {
          "ID": "2",
          "DESCRIPTION": "minor"
        },
        "VERIFIED": true,
        "ABBREVIATION": {
          "SHORT_DESC": "SLOW",
          "DESCRIPTION": "slow"
        },
        "RDS-TMC_LOCATIONS": {
          "RDS-TMC": [
            {
              "ORIGIN": {
                "EBU_COUNTRY_CODE": "D",
                "TABLE_ID": 1,
                "LOCATION_ID": "32605",
                "LOCATION_DESC": "Britzer Damm",
                "RDS_DIRECTION": "-"
              },
              "DIRECTION": "+",
              "ALERTC": {
                "TRAFFIC_CODE": 138,
                "QUANTIFIERS": 4,
                "DESCRIPTION": "Stockender Verkehr;; vorsichtig an das Stauende heranfahren.",
                "ALERTC_DURATION": "D",
                "ALERTC_DIRECTION": 1,
                "URGENCY": "U",
                "UPDATE_CLASS": 1,
                "PHRASE_CODE": "A2.Z112",
                "EXTENT": "1",
                "DURATION": 0
              },
              "LENGTH": 0.00576,
              "PRIMARY_OFFSET": 0.21661
            }
          ]
        },
        "LOCATION": {
          "DEFINED": {
            "ORIGIN": {
              "ROADWAY": {
                "DESCRIPTION": [
                  {
                    "value": "Stadtring Berlin",
                    "TYPE": "NTCSA"
                  },
                  {
                    "value": "Stadtring Berlin",
                    "TYPE": "RDSGN"
                  },
                  {
                    "value": "Stadtring Berlin",
                    "TYPE": "LOCAL"
                  }
                ],
                "ID": 50062
              },
              "POINT": {
                "DESCRIPTION": [
                  {
                    "value": "Ortsteil Britz",
                    "TYPE": "NTCSA"
                  },
                  {
                    "value": "Ortsteil Britz",
                    "TYPE": "RDSGN"
                  },
                  {
                    "value": "Ortsteil Britz",
                    "TYPE": "LOCAL"
                  },
                  {
                    "value": "Stadtring Berlin",
                    "TYPE": "BNAME"
                  }
                ],
                "ID": 32605
              },
              "DIRECTION": {
                "DESCRIPTION": [
                  {
                    "value": "NEUK\u00d6LLN",
                    "TYPE": "LOCAL"
                  },
                  {
                    "value": "NEUK\u00d6LLN",
                    "TYPE": "NTCSA"
                  },
                  {
                    "value": "NEUK\u00d6LLN",
                    "TYPE": "RDSGN"
                  }
                ],
                "ID": 0
              },
              "PROXIMITY": {
                "ID": "AT",
                "DESCRIPTION": "at"
              }
            },
            "TO": {
              "ROADWAY": {
                "DESCRIPTION": [
                  {
                    "value": "Stadtring Berlin",
                    "TYPE": "NTCSA"
                  },
                  {
                    "value": "Stadtring Berlin",
                    "TYPE": "RDSGN"
                  },
                  {
                    "value": "Stadtring Berlin",
                    "TYPE": "LOCAL"
                  }
                ],
                "ID": 50062
              },
              "POINT": {
                "DESCRIPTION": [
                  {
                    "value": "Britzer Damm",
                    "TYPE": "NTCSA"
                  },
                  {
                    "value": "Britzer Damm",
                    "TYPE": "RDSGN"
                  },
                  {
                    "value": "Britzer Damm",
                    "TYPE": "LOCAL"
                  },
                  {
                    "value": "Stadtring Berlin",
                    "TYPE": "BNAME"
                  }
                ],
                "ID": 32605
              },
              "DIRECTION": {
                "DESCRIPTION": [
                  {
                    "value": "NEUK\u00d6LLN",
                    "TYPE": "LOCAL"
                  },
                  {
                    "value": "NEUK\u00d6LLN",
                    "TYPE": "NTCSA"
                  },
                  {
                    "value": "NEUK\u00d6LLN",
                    "TYPE": "RDSGN"
                  }
                ],
                "ID": 0
              },
              "PROXIMITY": {
                "ID": "AT",
                "DESCRIPTION": "at"
              }
            }
          },
          "GEOLOC": {
            "ORIGIN": {
              "LATITUDE": 52.46178,
              "LONGITUDE": 13.42939
            },
            "TO": [
              {
                "LATITUDE": 52.4618,
                "LONGITUDE": 13.42952
              }
            ]
          },
          "NAVTECH": {
            "EDGE": {
              "EDGE_ID": [
                "1209405871"
              ]
            },
            "VERSION_ID": "202102"
          },
          "LENGTH": 0.00576
        },
        "TRAFFIC_ITEM_DETAIL": {
          "ROAD_CLOSED": false,
          "INCIDENT": {
            "RESPONSE_VEHICLES": false,
            "CONGESTION_INCIDENT": {
              "CONGESTION_TYPE_DESC": "CONGESTION",
              "CONGESTION_FACTOR": 50
            }
          },
          "ALERTC": [
            {
              "EVENT_CODE": 138
            }
          ]
        },
        "TRAFFIC_ITEM_DESCRIPTION": [
          {
            "value": "Bei Britzer Damm - Stockender Verkehr;; vorsichtig an das Stauende heranfahren.",
            "TYPE": "short_desc"
          },
          {
            "value": "Bei Britzer Damm - Stockender Verkehr;; vorsichtig an das Stauende heranfahren.",
            "TYPE": "desc"
          },
          {
            "value": "Stockender Verkehr;; vorsichtig an das Stauende heranfahren.",
            "TYPE": "no_exit_description"
          }
        ],
        "mid": "dccc2af4-56cc-4b95-ab1c-a8331e0e734b|1629843937379",
        "PRODUCT": "basic"
      },
      {
        "TRAFFIC_ITEM_ID": 345005664543355925,
        "ORIGINAL_TRAFFIC_ITEM_ID": 3712902834735466784,
        "TRAFFIC_ITEM_STATUS_SHORT_DESC": "ACTIVE",
        "TRAFFIC_ITEM_TYPE_DESC": "CONGESTION",
        "START_TIME": "08/24/2021 22:26:46",
        "END_TIME": "08/24/2021 22:37:47",
        "ENTRY_TIME": "08/24/2021 22:27:52",
        "CRITICALITY": {
          "ID": "2",
          "DESCRIPTION": "minor"
        },
        "VERIFIED": true,
        "ABBREVIATION": {
          "SHORT_DESC": "SLOW",
          "DESCRIPTION": "slow"
        },
        "RDS-TMC_LOCATIONS": {
          "RDS-TMC": [
            {
              "ORIGIN": {
                "EBU_COUNTRY_CODE": "A",
                "TABLE_ID": 1,
                "LOCATION_ID": "31280",
                "LOCATION_DESC": "St. Michael im Lungau",
                "RDS_DIRECTION": "-"
              },
              "DIRECTION": "+",
              "ALERTC": {
                "TRAFFIC_CODE": 138,
                "QUANTIFIERS": 4,
                "DESCRIPTION": "Stockender Verkehr;; vorsichtig an das Stauende heranfahren.",
                "ALERTC_DURATION": "D",
                "ALERTC_DIRECTION": 1,
                "URGENCY": "U",
                "UPDATE_CLASS": 1,
                "PHRASE_CODE": "A2.Z112",
                "EXTENT": "1",
                "DURATION": 0
              },
              "LENGTH": 0.02143,
              "PRIMARY_OFFSET": 0.14197
            }
          ]
        },
        "LOCATION": {
          "DEFINED": {
            "ORIGIN": {
              "ROADWAY": {
                "DESCRIPTION": [
                  {
                    "value": "Tauern Autobahn",
                    "TYPE": "NTCSA"
                  },
                  {
                    "value": "Tauern Autobahn",
                    "TYPE": "RDSGN"
                  },
                  {
                    "value": "Tauern Autobahn",
                    "TYPE": "LOCAL"
                  }
                ],
                "ID": 30566
              },
              "POINT": {
                "DESCRIPTION": [
                  {
                    "value": "Parkplatz Lansch\u00fctz",
                    "TYPE": "NTCSA"
                  },
                  {
                    "value": "Parkplatz Lansch\u00fctz",
                    "TYPE": "RDSGN"
                  },
                  {
                    "value": "Parkplatz Lansch\u00fctz",
                    "TYPE": "LOCAL"
                  },
                  {
                    "value": "Tauern Autobahn",
                    "TYPE": "BNAME"
                  }
                ],
                "ID": 31280
              },
              "DIRECTION": {
                "DESCRIPTION": [
                  {
                    "value": "VILLACH",
                    "TYPE": "LOCAL"
                  },
                  {
                    "value": "VILLACH",
                    "TYPE": "NTCSA"
                  },
                  {
                    "value": "VILLACH",
                    "TYPE": "RDSGN"
                  }
                ],
                "ID": 0
              },
              "PROXIMITY": {
                "ID": "AT",
                "DESCRIPTION": "at"
              }
            },
            "TO": {
              "ROADWAY": {
                "DESCRIPTION": [
                  {
                    "value": "Tauern Autobahn",
                    "TYPE": "NTCSA"
                  },
                  {
                    "value": "Tauern Autobahn",
                    "TYPE": "RDSGN"
                  },
                  {
                    "value": "Tauern Autobahn",
                    "TYPE": "LOCAL"
                  }
                ],
                "ID": 30566
              },
              "POINT": {
                "DESCRIPTION": [
                  {
                    "value": "St. Michael im Lungau",
                    "TYPE": "NTCSA"
                  },
                  {
                    "value": "St. Michael im Lungau",
                    "TYPE": "RDSGN"
                  },
                  {
                    "value": "St. Michael im Lungau",
                    "TYPE": "LOCAL"
                  },
                  {
                    "value": "Tauern Autobahn",
                    "TYPE": "BNAME"
                  }
                ],
                "ID": 31280
              },
              "DIRECTION": {
                "DESCRIPTION": [
                  {
                    "value": "VILLACH",
                    "TYPE": "LOCAL"
                  },
                  {
                    "value": "VILLACH",
                    "TYPE": "NTCSA"
                  },
                  {
                    "value": "VILLACH",
                    "TYPE": "RDSGN"
                  }
                ],
                "ID": 0
              },
              "PROXIMITY": {
                "ID": "AT",
                "DESCRIPTION": "at"
              }
            }
          },
          "GEOLOC": {
            "ORIGIN": {
              "LATITUDE": 47.09451,
              "LONGITUDE": 13.60895
            },
            "TO": [
              {
                "LATITUDE": 47.09408,
                "LONGITUDE": 13.60916
              }
            ]
          },
          "NAVTECH": {
            "EDGE": {
              "EDGE_ID": [
                "1210473697"
              ]
            },
            "VERSION_ID": "202102"
          },
          "LENGTH": 0.02143
        },
        "TRAFFIC_ITEM_DETAIL": {
          "ROAD_CLOSED": false,
          "INCIDENT": {
            "RESPONSE_VEHICLES": false,
            "CONGESTION_INCIDENT": {
              "CONGESTION_TYPE_DESC": "CONGESTION",
              "CONGESTION_FACTOR": 50
            }
          },
          "ALERTC": [
            {
              "EVENT_CODE": 138
            }
          ]
        },
        "TRAFFIC_ITEM_DESCRIPTION": [
          {
            "value": "Bei St. Michael im Lungau - Stockender Verkehr;; vorsichtig an das Stauende heranfahren.",
            "TYPE": "short_desc"
          },
          {
            "value": "Bei St. Michael im Lungau - Stockender Verkehr;; vorsichtig an das Stauende heranfahren.",
            "TYPE": "desc"
          },
          {
            "value": "Stockender Verkehr;; vorsichtig an das Stauende heranfahren.",
            "TYPE": "no_exit_description"
          }
        ],
        "mid": "f5927e5e-fd54-4cd1-8abc-761e39572040|1629844072379",
        "PRODUCT": "basic"
      },
      {
        "TRAFFIC_ITEM_ID": 255411463854562424,
        "ORIGINAL_TRAFFIC_ITEM_ID": 806248599588038082,
        "TRAFFIC_ITEM_STATUS_SHORT_DESC": "ACTIVE",
        "TRAFFIC_ITEM_TYPE_DESC": "CONGESTION",
        "START_TIME": "08/24/2021 22:11:49",
        "END_TIME": "08/24/2021 22:37:34",
        "ENTRY_TIME": "08/24/2021 22:27:37",
        "CRITICALITY": {
          "ID": "2",
          "DESCRIPTION": "minor"
        },
        "VERIFIED": true,
        "ABBREVIATION": {
          "SHORT_DESC": "SLOW",
          "DESCRIPTION": "slow"
        },
        "RDS-TMC_LOCATIONS": {
          "RDS-TMC": [
            {
              "ORIGIN": {
                "EBU_COUNTRY_CODE": "D",
                "TABLE_ID": 1,
                "LOCATION_ID": "10912",
                "LOCATION_DESC": "Leverkusen-Zentrum",
                "RDS_DIRECTION": "-"
              },
              "DIRECTION": "+",
              "ALERTC": {
                "TRAFFIC_CODE": 138,
                "ALERTC_Q_BINARY": "1",
                "QUANTIFIERS": 4,
                "DESCRIPTION": "Stockender Verkehr; Durchschnittsgeschwindigkeit von bis zu 5 km/h; vorsichtig an das Stauende heranfahren.",
                "ALERTC_DURATION": "D",
                "ALERTC_DIRECTION": 1,
                "URGENCY": "U",
                "UPDATE_CLASS": 1,
                "PHRASE_CODE": "A2.Z112",
                "EXTENT": "1",
                "DURATION": 0
              },
              "LENGTH": 0.03428,
              "PRIMARY_OFFSET": 0.4691
            }
          ]
        },
        "LOCATION": {
          "DEFINED": {
            "ORIGIN": {
              "ROADWAY": {
                "DESCRIPTION": [
                  {
                    "value": "K\u00f6lner Ring",
                    "TYPE": "NTCSA"
                  },
                  {
                    "value": "K\u00f6lner Ring",
                    "TYPE": "RDSGN"
                  },
                  {
                    "value": "K\u00f6lner Ring",
                    "TYPE": "LOCAL"
                  }
                ],
                "ID": 50101
              },
              "POINT": {
                "DESCRIPTION": [
                  {
                    "value": "K\u00f6ln-M\u00fclheim",
                    "TYPE": "NTCSA"
                  },
                  {
                    "value": "K\u00f6ln-M\u00fclheim",
                    "TYPE": "RDSGN"
                  },
                  {
                    "value": "K\u00f6ln-M\u00fclheim",
                    "TYPE": "LOCAL"
                  },
                  {
                    "value": "K\u00f6lner Ring",
                    "TYPE": "BNAME"
                  }
                ],
                "ID": 10912
              },
              "DIRECTION": {
                "DESCRIPTION": [
                  {
                    "value": "OBERHAUSEN",
                    "TYPE": "LOCAL"
                  },
                  {
                    "value": "OBERHAUSEN",
                    "TYPE": "NTCSA"
                  },
                  {
                    "value": "OBERHAUSEN",
                    "TYPE": "RDSGN"
                  }
                ],
                "ID": 0
              },
              "PROXIMITY": {
                "ID": "AT",
                "DESCRIPTION": "at"
              }
            },
            "TO": {
              "ROADWAY": {
                "DESCRIPTION": [
                  {
                    "value": "K\u00f6lner Ring",
                    "TYPE": "NTCSA"
                  },
                  {
                    "value": "K\u00f6lner Ring",
                    "TYPE": "RDSGN"
                  },
                  {
                    "value": "K\u00f6lner Ring",
                    "TYPE": "LOCAL"
                  }
                ],
                "ID": 50101
              },
              "POINT": {
                "DESCRIPTION": [
                  {
                    "value": "Leverkusen-Zentrum",
                    "TYPE": "NTCSA"
                  },
                  {
                    "value": "Leverkusen-Zentrum",
                    "TYPE": "RDSGN"
                  },
                  {
                    "value": "Leverkusen-Zentrum",
                    "TYPE": "LOCAL"
                  },
                  {
                    "value": "K\u00f6lner Ring",
                    "TYPE": "BNAME"
                  }
                ],
                "ID": 10912
              },
              "DIRECTION": {
                "DESCRIPTION": [
                  {
                    "value": "OBERHAUSEN",
                    "TYPE": "LOCAL"
                  },
                  {
                    "value": "OBERHAUSEN",
                    "TYPE": "NTCSA"
                  },
                  {
                    "value": "OBERHAUSEN",
                    "TYPE": "RDSGN"
                  }
                ],
                "ID": 0
              },
              "PROXIMITY": {
                "ID": "AT",
                "DESCRIPTION": "at"
              }
            }
          },
          "GEOLOC": {
            "ORIGIN": {
              "LATITUDE": 51.01934,
              "LONGITUDE": 7.01271
            },
            "TO": [
              {
                "LATITUDE": 51.01981,
                "LONGITUDE": 7.0126
              }
            ]
          },
          "NAVTECH": {
            "EDGE": {
              "EDGE_ID": [
                "572278973"
              ]
            },
            "VERSION_ID": "202102"
          },
          "LENGTH": 0.03428
        },
        "TRAFFIC_ITEM_DETAIL": {
          "ROAD_CLOSED": false,
          "INCIDENT": {
            "RESPONSE_VEHICLES": false,
            "CONGESTION_INCIDENT": {
              "CONGESTION_TYPE_DESC": "CONGESTION",
              "CONGESTION_FACTOR": 50
            }
          },
          "ALERTC": [
            {
              "EVENT_CODE": 138,
              "ALERTC_Q": 1
            }
          ]
        },
        "TRAFFIC_ITEM_DESCRIPTION": [
          {
            "value": "Bei Leverkusen-Zentrum - Stockender Verkehr; Durchschnittsgeschwindigkeit von bis zu 5 km/h; vorsichtig an das Stauende heranfahren.",
            "TYPE": "short_desc"
          },
          {
            "value": "Bei Leverkusen-Zentrum - Stockender Verkehr; Durchschnittsgeschwindigkeit von bis zu 5 km/h; vorsichtig an das Stauende heranfahren.",
            "TYPE": "desc"
          },
          {
            "value": "Stockender Verkehr; Durchschnittsgeschwindigkeit von bis zu 5 km/h; vorsichtig an das Stauende heranfahren.",
            "TYPE": "no_exit_description"
          }
        ],
        "mid": "482f51bd-f45b-434a-94a8-9e8b0acb7aa0|1629844057379",
        "PRODUCT": "basic"
      },
      {
        "TRAFFIC_ITEM_ID": 2000301859025593070,
        "ORIGINAL_TRAFFIC_ITEM_ID": 1152874813671943879,
        "TRAFFIC_ITEM_STATUS_SHORT_DESC": "ACTIVE",
        "TRAFFIC_ITEM_TYPE_DESC": "CONGESTION",
        "START_TIME": "08/24/2021 22:23:08",
        "END_TIME": "08/24/2021 22:37:34",
        "ENTRY_TIME": "08/24/2021 22:27:37",
        "CRITICALITY": {
          "ID": "2",
          "DESCRIPTION": "minor"
        },
        "VERIFIED": true,
        "ABBREVIATION": {
          "SHORT_DESC": "SLOW",
          "DESCRIPTION": "slow"
        },
        "RDS-TMC_LOCATIONS": {
          "RDS-TMC": [
            {
              "ORIGIN": {
                "EBU_COUNTRY_CODE": "D",
                "TABLE_ID": 1,
                "LOCATION_ID": "10920",
                "LOCATION_DESC": "Ratingen-Ost",
                "RDS_DIRECTION": "+"
              },
              "DIRECTION": "-",
              "ALERTC": {
                "TRAFFIC_CODE": 138,
                "QUANTIFIERS": 4,
                "DESCRIPTION": "Stockender Verkehr;; vorsichtig an das Stauende heranfahren.",
                "ALERTC_DURATION": "D",
                "ALERTC_DIRECTION": 1,
                "URGENCY": "U",
                "UPDATE_CLASS": 1,
                "PHRASE_CODE": "A2.Z112",
                "EXTENT": "1",
                "DURATION": 0
              },
              "LENGTH": 0.1511,
              "PRIMARY_OFFSET": 1.20443
            }
          ]
        },
        "LOCATION": {
          "DEFINED": {
            "ORIGIN": {
              "ROADWAY": {
                "DESCRIPTION": [
                  {
                    "value": "A3",
                    "TYPE": "NTCSA"
                  },
                  {
                    "value": "A3",
                    "TYPE": "RDSGN"
                  },
                  {
                    "value": "A3",
                    "TYPE": "LOCAL"
                  }
                ],
                "ID": 50101
              },
              "POINT": {
                "DESCRIPTION": [
                  {
                    "value": "H\u00f6sel",
                    "TYPE": "NTCSA"
                  },
                  {
                    "value": "H\u00f6sel",
                    "TYPE": "RDSGN"
                  },
                  {
                    "value": "H\u00f6sel",
                    "TYPE": "LOCAL"
                  },
                  {
                    "value": "A3",
                    "TYPE": "BNAME"
                  }
                ],
                "ID": 10920
              },
              "DIRECTION": {
                "DESCRIPTION": [
                  {
                    "value": "K\u00d6LN",
                    "TYPE": "LOCAL"
                  },
                  {
                    "value": "K\u00d6LN",
                    "TYPE": "NTCSA"
                  },
                  {
                    "value": "K\u00d6LN",
                    "TYPE": "RDSGN"
                  }
                ],
                "ID": 0
              },
              "PROXIMITY": {
                "ID": "AT",
                "DESCRIPTION": "at"
              }
            },
            "TO": {
              "ROADWAY": {
                "DESCRIPTION": [
                  {
                    "value": "A3",
                    "TYPE": "NTCSA"
                  },
                  {
                    "value": "A3",
                    "TYPE": "RDSGN"
                  },
                  {
                    "value": "A3",
                    "TYPE": "LOCAL"
                  }
                ],
                "ID": 50101
              },
              "POINT": {
                "DESCRIPTION": [
                  {
                    "value": "Ratingen-Ost",
                    "TYPE": "NTCSA"
                  },
                  {
                    "value": "Ratingen-Ost",
                    "TYPE": "RDSGN"
                  },
                  {
                    "value": "Ratingen-Ost",
                    "TYPE": "LOCAL"
                  },
                  {
                    "value": "A3",
                    "TYPE": "BNAME"
                  }
                ],
                "ID": 10920
              },
              "DIRECTION": {
                "DESCRIPTION": [
                  {
                    "value": "K\u00d6LN",
                    "TYPE": "LOCAL"
                  },
                  {
                    "value": "K\u00d6LN",
                    "TYPE": "NTCSA"
                  },
                  {
                    "value": "K\u00d6LN",
                    "TYPE": "RDSGN"
                  }
                ],
                "ID": 0
              },
              "PROXIMITY": {
                "ID": "AT",
                "DESCRIPTION": "at"
              }
            }
          },
          "GEOLOC": {
            "ORIGIN": {
              "LATITUDE": 51.31345,
              "LONGITUDE": 6.89892
            },
            "TO": [
              {
                "LATITUDE": 51.31128,
                "LONGITUDE": 6.89882
              }
            ]
          },
          "NAVTECH": {
            "EDGE": {
              "EDGE_ID": [
                "943520984"
              ]
            },
            "VERSION_ID": "202102"
          },
          "LENGTH": 0.1511
        },
        "TRAFFIC_ITEM_DETAIL": {
          "ROAD_CLOSED": false,
          "INCIDENT": {
            "RESPONSE_VEHICLES": false,
            "CONGESTION_INCIDENT": {
              "CONGESTION_TYPE_DESC": "CONGESTION",
              "CONGESTION_FACTOR": 50
            }
          },
          "ALERTC": [
            {
              "EVENT_CODE": 138
            }
          ]
        },
        "TRAFFIC_ITEM_DESCRIPTION": [
          {
            "value": "Bei Ratingen-Ost - Stockender Verkehr;; vorsichtig an das Stauende heranfahren.",
            "TYPE": "short_desc"
          },
          {
            "value": "Bei Ratingen-Ost - Stockender Verkehr;; vorsichtig an das Stauende heranfahren.",
            "TYPE": "desc"
          },
          {
            "value": "Stockender Verkehr;; vorsichtig an das Stauende heranfahren.",
            "TYPE": "no_exit_description"
          }
        ],
        "mid": "508658b9-0b1a-41b6-9256-2909680c0ef9|1629844057379",
        "PRODUCT": "basic"
      },
      {
        "TRAFFIC_ITEM_ID": 384264949195114737,
        "ORIGINAL_TRAFFIC_ITEM_ID": 556105815356383760,
        "TRAFFIC_ITEM_STATUS_SHORT_DESC": "ACTIVE",
        "TRAFFIC_ITEM_TYPE_DESC": "CONGESTION",
        "START_TIME": "08/24/2021 22:19:49",
        "END_TIME": "08/24/2021 22:37:32",
        "ENTRY_TIME": "08/24/2021 22:27:37",
        "CRITICALITY": {
          "ID": "2",
          "DESCRIPTION": "minor"
        },
        "VERIFIED": true,
        "ABBREVIATION": {
          "SHORT_DESC": "SLOW",
          "DESCRIPTION": "slow"
        },
        "RDS-TMC_LOCATIONS": {
          "RDS-TMC": [
            {
              "ORIGIN": {
                "EBU_COUNTRY_CODE": "3",
                "TABLE_ID": 5,
                "LOCATION_ID": "13415",
                "LOCATION_DESC": "PPO Tarnawa",
                "RDS_DIRECTION": "-"
              },
              "DIRECTION": "+",
              "ALERTC": {
                "TRAFFIC_CODE": 138,
                "QUANTIFIERS": 4,
                "DESCRIPTION": "Zag\u0119szczaj\u0105cy si\u0119 ruch. Doje\u017cd\u017ca\u0107 ostro\u017cnie.",
                "ALERTC_DURATION": "D",
                "ALERTC_DIRECTION": 1,
                "URGENCY": "U",
                "UPDATE_CLASS": 1,
                "PHRASE_CODE": "A2.Z112",
                "EXTENT": "1",
                "DURATION": 0
              },
              "LENGTH": 0.01586,
              "PRIMARY_OFFSET": 0.04967
            }
          ]
        },
        "LOCATION": {
          "DEFINED": {
            "ORIGIN": {
              "ROADWAY": {
                "DESCRIPTION": [
                  {
                    "value": "A2",
                    "TYPE": "NTCSA"
                  },
                  {
                    "value": "A2",
                    "TYPE": "RDSGN"
                  },
                  {
                    "value": "A2",
                    "TYPE": "LOCAL"
                  }
                ],
                "ID": 25044
              },
              "POINT": {
                "DESCRIPTION": [
                  {
                    "value": "W\u0119ze\u0142 Rzepin",
                    "TYPE": "NTCSA"
                  },
                  {
                    "value": "W\u0119ze\u0142 Rzepin",
                    "TYPE": "RDSGN"
                  },
                  {
                    "value": "W\u0119ze\u0142 Rzepin",
                    "TYPE": "LOCAL"
                  },
                  {
                    "value": "A2",
                    "TYPE": "BNAME"
                  }
                ],
                "ID": 13415
              },
              "DIRECTION": {
                "DESCRIPTION": [
                  {
                    "value": "POZNA\u0143",
                    "TYPE": "LOCAL"
                  },
                  {
                    "value": "POZNA\u0143",
                    "TYPE": "NTCSA"
                  },
                  {
                    "value": "POZNA\u0143",
                    "TYPE": "RDSGN"
                  }
                ],
                "ID": 0
              },
              "PROXIMITY": {
                "ID": "AT",
                "DESCRIPTION": "at"
              }
            },
            "TO": {
              "ROADWAY": {
                "DESCRIPTION": [
                  {
                    "value": "A2",
                    "TYPE": "NTCSA"
                  },
                  {
                    "value": "A2",
                    "TYPE": "RDSGN"
                  },
                  {
                    "value": "A2",
                    "TYPE": "LOCAL"
                  }
                ],
                "ID": 25044
              },
              "POINT": {
                "DESCRIPTION": [
                  {
                    "value": "PPO Tarnawa",
                    "TYPE": "NTCSA"
                  },
                  {
                    "value": "PPO Tarnawa",
                    "TYPE": "RDSGN"
                  },
                  {
                    "value": "PPO Tarnawa",
                    "TYPE": "LOCAL"
                  },
                  {
                    "value": "A2",
                    "TYPE": "BNAME"
                  }
                ],
                "ID": 13415
              },
              "DIRECTION": {
                "DESCRIPTION": [
                  {
                    "value": "POZNA\u0143",
                    "TYPE": "LOCAL"
                  },
                  {
                    "value": "POZNA\u0143",
                    "TYPE": "NTCSA"
                  },
                  {
                    "value": "POZNA\u0143",
                    "TYPE": "RDSGN"
                  }
                ],
                "ID": 0
              },
              "PROXIMITY": {
                "ID": "AT",
                "DESCRIPTION": "at"
              }
            }
          },
          "GEOLOC": {
            "ORIGIN": {
              "LATITUDE": 52.3347,
              "LONGITUDE": 14.90264
            },
            "TO": [
              {
                "LATITUDE": 52.33467,
                "LONGITUDE": 14.90301
              }
            ]
          },
          "NAVTECH": {
            "EDGE": {
              "EDGE_ID": [
                "1175304662"
              ]
            },
            "VERSION_ID": "202102"
          },
          "LENGTH": 0.01586
        },
        "TRAFFIC_ITEM_DETAIL": {
          "ROAD_CLOSED": false,
          "INCIDENT": {
            "RESPONSE_VEHICLES": false,
            "CONGESTION_INCIDENT": {
              "CONGESTION_TYPE_DESC": "CONGESTION",
              "CONGESTION_FACTOR": 50
            }
          },
          "ALERTC": [
            {
              "EVENT_CODE": 138
            }
          ]
        },
        "TRAFFIC_ITEM_DESCRIPTION": [
          {
            "value": "Przy PPO Tarnawa - Zag\u0119szczaj\u0105cy si\u0119 ruch. Doje\u017cd\u017ca\u0107 ostro\u017cnie.",
            "TYPE": "short_desc"
          },
          {
            "value": "Przy PPO Tarnawa - Zag\u0119szczaj\u0105cy si\u0119 ruch. Doje\u017cd\u017ca\u0107 ostro\u017cnie.",
            "TYPE": "desc"
          },
          {
            "value": "Zag\u0119szczaj\u0105cy si\u0119 ruch. Doje\u017cd\u017ca\u0107 ostro\u017cnie.",
            "TYPE": "no_exit_description"
          }
        ],
        "mid": "1e83e1d8-fa82-4606-a084-a8ee03a45fc7|1629844057379",
        "PRODUCT": "basic"
      }
    ]
  },
  "diagnostic": {
    "info": "",
    "sfile": "Incident-E2305-1629844064600.xml.gz|pr1",
    "pdd": "trafficml-incident-24-v13"
  },
  "TIMESTAMP2": "2021-08-24T22:27:44.000+0000",
  "EXTENDED_COUNTRY_CODE": "E2"
}