{
  "TIMESTAMP": "08/22/2021 04:57:46 GMT",
  "VERSION": 2.3,
  "TRAFFIC_ITEMS": {
    "TRAFFIC_ITEM": [
      {
        "TRAFFIC_ITEM_ID": 2484531366540590310,
        "ORIGINAL_TRAFFIC_ITEM_ID": 3409561151217351602,
        "TRAFFIC_ITEM_STATUS_SHORT_DESC": "ACTIVE",
        "TRAFFIC_ITEM_TYPE_DESC": "CONGESTION",
        "START_TIME": "08/22/2021 04:55:19",
        "END_TIME": "08/22/2021 05:08:19",
        "ENTRY_TIME": "08/22/2021 04:58:19",
        "CRITICALITY": {
          "ID": "2",
          "DESCRIPTION": "minor"
        },
        "VERIFIED": true,
        "ABBREVIATION": {
          "SHORT_DESC": "SLOW",
          "DESCRIPTION": "slow"
        },
        "RDS-TMC_LOCATIONS": {
          "RDS-TMC": [
            {
              "ORIGIN": {
                "EBU_COUNTRY_CODE": "D",
                "TABLE_ID": 1,
                "LOCATION_ID": "10229",
                "LOCATION_DESC": "Schmargendorf",
                "RDS_DIRECTION": "+"
              },
              "DIRECTION": "-",
              "ALERTC": {
                "TRAFFIC_CODE": 138,
                "ALERTC_Q_BINARY": "2",
                "QUANTIFIERS": 4,
                "DESCRIPTION": "Stockender Verkehr; Durchschnittsgeschwindigkeit von bis zu 10 km/h; vorsichtig an das Stauende heranfahren.",
                "ALERTC_DURATION": "D",
                "ALERTC_DIRECTION": 1,
                "URGENCY": "U",
                "UPDATE_CLASS": 1,
                "PHRASE_CODE": "A2.Z112",
                "EXTENT": "1",
                "DURATION": 0
              },
              "LENGTH": 0.01442,
              "PRIMARY_OFFSET": 0.20993
            }
          ]
        },
        "LOCATION": {
          "DEFINED": {
            "ORIGIN": {
              "ROADWAY": {
                "DESCRIPTION": [
                  {
                    "value": "Stadtring Berlin",
                    "TYPE": "NTCSA"
                  },
                  {
                    "value": "Stadtring Berlin",
                    "TYPE": "RDSGN"
                  },
                  {
                    "value": "Stadtring Berlin",
                    "TYPE": "LOCAL"
                  }
                ],
                "ID": 50062
              },
              "POINT": {
                "DESCRIPTION": [
                  {
                    "value": "Detmolder Stra\u00dfe",
                    "TYPE": "NTCSA"
                  },
                  {
                    "value": "Detmolder Stra\u00dfe",
                    "TYPE": "RDSGN"
                  },
                  {
                    "value": "Detmolder Stra\u00dfe",
                    "TYPE": "LOCAL"
                  },
                  {
                    "value": "Stadtring Berlin",
                    "TYPE": "BNAME"
                  }
                ],
                "ID": 10229
              },
              "DIRECTION": {
                "DESCRIPTION": [
                  {
                    "value": "WILMERSDORF",
                    "TYPE": "LOCAL"
                  },
                  {
                    "value": "WILMERSDORF",
                    "TYPE": "NTCSA"
                  },
                  {
                    "value": "WILMERSDORF",
                    "TYPE": "RDSGN"
                  }
                ],
                "ID": 0
              },
              "PROXIMITY": {
                "ID": "AT",
                "DESCRIPTION": "at"
              }
            },
            "TO": {
              "ROADWAY": {
                "DESCRIPTION": [
                  {
                    "value": "Stadtring Berlin",
                    "TYPE": "NTCSA"
                  },
                  {
                    "value": "Stadtring Berlin",
                    "TYPE": "RDSGN"
                  },
                  {
                    "value": "Stadtring Berlin",
                    "TYPE": "LOCAL"
                  }
                ],
                "ID": 50062
              },
              "POINT": {
                "DESCRIPTION": [
                  {
                    "value": "Schmargendorf",
                    "TYPE": "NTCSA"
                  },
                  {
                    "value": "Schmargendorf",
                    "TYPE": "RDSGN"
                  },
                  {
                    "value": "Schmargendorf",
                    "TYPE": "LOCAL"
                  },
                  {
                    "value": "Stadtring Berlin",
                    "TYPE": "BNAME"
                  }
                ],
                "ID": 10229
              },
              "DIRECTION": {
                "DESCRIPTION": [
                  {
                    "value": "WILMERSDORF",
                    "TYPE": "LOCAL"
                  },
                  {
                    "value": "WILMERSDORF",
                    "TYPE": "NTCSA"
                  },
                  {
                    "value": "WILMERSDORF",
                    "TYPE": "RDSGN"
                  }
                ],
                "ID": 0
              },
              "PROXIMITY": {
                "ID": "AT",
                "DESCRIPTION": "at"
              }
            }
          },
          "GEOLOC": {
            "ORIGIN": {
              "LATITUDE": 52.48236,
              "LONGITUDE": 13.30864
            },
            "TO": [
              {
                "LATITUDE": 52.48245,
                "LONGITUDE": 13.30834
              }
            ]
          },
          "NAVTECH": {
            "EDGE": {
              "EDGE_ID": [
                "565028471",
                "1089095980"
              ]
            },
            "VERSION_ID": "202102"
          },
          "LENGTH": 0.01442
        },
        "TRAFFIC_ITEM_DETAIL": {
          "ROAD_CLOSED": false,
          "INCIDENT": {
            "RESPONSE_VEHICLES": false,
            "CONGESTION_INCIDENT": {
              "CONGESTION_TYPE_DESC": "CONGESTION",
              "CONGESTION_FACTOR": 50
            }
          },
          "ALERTC": [
            {
              "EVENT_CODE": 138,
              "ALERTC_Q": 2
            }
          ]
        },
        "TRAFFIC_ITEM_DESCRIPTION": [
          {
            "value": "Bei Schmargendorf - Stockender Verkehr; Durchschnittsgeschwindigkeit von bis zu 10 km/h; vorsichtig an das Stauende heranfahren.",
            "TYPE": "short_desc"
          },
          {
            "value": "Bei Schmargendorf - Stockender Verkehr; Durchschnittsgeschwindigkeit von bis zu 10 km/h; vorsichtig an das Stauende heranfahren.",
            "TYPE": "desc"
          },
          {
            "value": "Stockender Verkehr; Durchschnittsgeschwindigkeit von bis zu 10 km/h; vorsichtig an das Stauende heranfahren.",
            "TYPE": "no_exit_description"
          }
        ],
        "mid": "a3e984ab-5df3-4376-82d6-97bb75b09917|1629608299604",
        "PRODUCT": "basic"
      },
      {
        "TRAFFIC_ITEM_ID": 1927680719992570347,
        "ORIGINAL_TRAFFIC_ITEM_ID": 934092870906132164,
        "TRAFFIC_ITEM_STATUS_SHORT_DESC": "ACTIVE",
        "TRAFFIC_ITEM_TYPE_DESC": "CONGESTION",
        "START_TIME": "08/22/2021 04:50:19",
        "END_TIME": "08/22/2021 05:08:19",
        "ENTRY_TIME": "08/22/2021 04:58:19",
        "CRITICALITY": {
          "ID": "2",
          "DESCRIPTION": "minor"
        },
        "VERIFIED": true,
        "ABBREVIATION": {
          "SHORT_DESC": "SLOW",
          "DESCRIPTION": "slow"
        },
        "RDS-TMC_LOCATIONS": {
          "RDS-TMC": [
            {
              "ORIGIN": {
                "EBU_COUNTRY_CODE": "D",
                "TABLE_ID": 1,
                "LOCATION_ID": "12600",
                "LOCATION_DESC": "Bad Reichenhall",
                "RDS_DIRECTION": "+"
              },
              "DIRECTION": "-",
              "ALERTC": {
                "TRAFFIC_CODE": 138,
                "QUANTIFIERS": 4,
                "DESCRIPTION": "Stockender Verkehr;; vorsichtig an das Stauende heranfahren.",
                "ALERTC_DURATION": "D",
                "ALERTC_DIRECTION": 1,
                "URGENCY": "U",
                "UPDATE_CLASS": 1,
                "PHRASE_CODE": "A2.Z112",
                "EXTENT": "1",
                "DURATION": 0
              },
              "LENGTH": 0.05934,
              "PRIMARY_OFFSET": 1.68957
            }
          ]
        },
        "LOCATION": {
          "DEFINED": {
            "ORIGIN": {
              "ROADWAY": {
                "DESCRIPTION": [
                  {
                    "value": "A8",
                    "TYPE": "NTCSA"
                  },
                  {
                    "value": "A8",
                    "TYPE": "RDSGN"
                  },
                  {
                    "value": "A8",
                    "TYPE": "LOCAL"
                  }
                ],
                "ID": 50167
              },
              "POINT": {
                "DESCRIPTION": [
                  {
                    "value": "Schwarzbach",
                    "TYPE": "NTCSA"
                  },
                  {
                    "value": "Schwarzbach",
                    "TYPE": "RDSGN"
                  },
                  {
                    "value": "Schwarzbach",
                    "TYPE": "LOCAL"
                  },
                  {
                    "value": "A8",
                    "TYPE": "BNAME"
                  }
                ],
                "ID": 12600
              },
              "DIRECTION": {
                "DESCRIPTION": [
                  {
                    "value": "M\u00dcNCHEN",
                    "TYPE": "LOCAL"
                  },
                  {
                    "value": "M\u00dcNCHEN",
                    "TYPE": "NTCSA"
                  },
                  {
                    "value": "M\u00dcNCHEN",
                    "TYPE": "RDSGN"
                  }
                ],
                "ID": 0
              },
              "PROXIMITY": {
                "ID": "AT",
                "DESCRIPTION": "at"
              }
            },
            "TO": {
              "ROADWAY": {
                "DESCRIPTION": [
                  {
                    "value": "A8",
                    "TYPE": "NTCSA"
                  },
                  {
                    "value": "A8",
                    "TYPE": "RDSGN"
                  },
                  {
                    "value": "A8",
                    "TYPE": "LOCAL"
                  }
                ],
                "ID": 50167
              },
              "POINT": {
                "DESCRIPTION": [
                  {
                    "value": "Bad Reichenhall",
                    "TYPE": "NTCSA"
                  },
                  {
                    "value": "Bad Reichenhall",
                    "TYPE": "RDSGN"
                  },
                  {
                    "value": "Bad Reichenhall",
                    "TYPE": "LOCAL"
                  },
                  {
                    "value": "A8",
                    "TYPE": "BNAME"
                  }
                ],
                "ID": 12600
              },
              "DIRECTION": {
                "DESCRIPTION": [
                  {
                    "value": "M\u00dcNCHEN",
                    "TYPE": "LOCAL"
                  },
                  {
                    "value": "M\u00dcNCHEN",
                    "TYPE": "NTCSA"
                  },
                  {
                    "value": "M\u00dcNCHEN",
                    "TYPE": "RDSGN"
                  }
                ],
                "ID": 0
              },
              "PROXIMITY": {
                "ID": "AT",
                "DESCRIPTION": "at"
              }
            }
          },
          "GEOLOC": {
            "ORIGIN": {
              "LATITUDE": 47.76837,
              "LONGITUDE": 12.93821
            },
            "TO": [
              {
                "LATITUDE": 47.76834,
                "LONGITUDE": 12.93703
              }
            ]
          },
          "NAVTECH": {
            "EDGE": {
              "EDGE_ID": [
                "1208400251"
              ]
            },
            "VERSION_ID": "202102"
          },
          "LENGTH": 0.05934
        },
        "TRAFFIC_ITEM_DETAIL": {
          "ROAD_CLOSED": false,
          "INCIDENT": {
            "RESPONSE_VEHICLES": false,
            "CONGESTION_INCIDENT": {
              "CONGESTION_TYPE_DESC": "CONGESTION",
              "CONGESTION_FACTOR": 50
            }
          },
          "ALERTC": [
            {
              "EVENT_CODE": 138
            }
          ]
        },
        "TRAFFIC_ITEM_DESCRIPTION": [
          {
            "value": "Bei Bad Reichenhall - Stockender Verkehr;; vorsichtig an das Stauende heranfahren.",
            "TYPE": "short_desc"
          },
          {
            "value": "Bei Bad Reichenhall - Stockender Verkehr;; vorsichtig an das Stauende heranfahren.",
            "TYPE": "desc"
          },
          {
            "value": "Stockender Verkehr;; vorsichtig an das Stauende heranfahren.",
            "TYPE": "no_exit_description"
          }
        ],
        "mid": "68ba5ada-02b6-4daf-871c-652624753726|1629608299604",
        "PRODUCT": "basic"
      },
      {
        "TRAFFIC_ITEM_ID": 2495496933174162703,
        "ORIGINAL_TRAFFIC_ITEM_ID": 2637086893960784765,
        "TRAFFIC_ITEM_STATUS_SHORT_DESC": "ACTIVE",
        "TRAFFIC_ITEM_TYPE_DESC": "CONGESTION",
        "START_TIME": "08/22/2021 04:47:01",
        "END_TIME": "08/22/2021 05:09:16",
        "ENTRY_TIME": "08/22/2021 04:59:19",
        "CRITICALITY": {
          "ID": "2",
          "DESCRIPTION": "minor"
        },
        "VERIFIED": true,
        "ABBREVIATION": {
          "SHORT_DESC": "SLOW",
          "DESCRIPTION": "slow"
        },
        "RDS-TMC_LOCATIONS": {
          "RDS-TMC": [
            {
              "ORIGIN": {
                "EBU_COUNTRY_CODE": "A",
                "TABLE_ID": 1,
                "LOCATION_ID": "31314",
                "LOCATION_DESC": "Kufstein-Nord",
                "RDS_DIRECTION": "-"
              },
              "DIRECTION": "+",
              "ALERTC": {
                "TRAFFIC_CODE": 138,
                "QUANTIFIERS": 4,
                "DESCRIPTION": "Stockender Verkehr;; vorsichtig an das Stauende heranfahren.",
                "ALERTC_DURATION": "D",
                "ALERTC_DIRECTION": 1,
                "URGENCY": "U",
                "UPDATE_CLASS": 1,
                "PHRASE_CODE": "A2.Z112",
                "EXTENT": "1",
                "DURATION": 0
              },
              "LENGTH": 0.20134,
              "PRIMARY_OFFSET": 0.64678
            }
          ]
        },
        "LOCATION": {
          "DEFINED": {
            "ORIGIN": {
              "ROADWAY": {
                "DESCRIPTION": [
                  {
                    "value": "Inntal Autobahn",
                    "TYPE": "NTCSA"
                  },
                  {
                    "value": "Inntal Autobahn",
                    "TYPE": "RDSGN"
                  },
                  {
                    "value": "Inntal Autobahn",
                    "TYPE": "LOCAL"
                  }
                ],
                "ID": 30571
              },
              "POINT": {
                "DESCRIPTION": [
                  {
                    "value": "Kiefersfelden",
                    "TYPE": "NTCSA"
                  },
                  {
                    "value": "Kiefersfelden",
                    "TYPE": "RDSGN"
                  },
                  {
                    "value": "Kiefersfelden",
                    "TYPE": "LOCAL"
                  },
                  {
                    "value": "Inntal Autobahn",
                    "TYPE": "BNAME"
                  }
                ],
                "ID": 31314
              },
              "DIRECTION": {
                "DESCRIPTION": [
                  {
                    "value": "KUFSTEIN",
                    "TYPE": "LOCAL"
                  },
                  {
                    "value": "KUFSTEIN",
                    "TYPE": "NTCSA"
                  },
                  {
                    "value": "KUFSTEIN",
                    "TYPE": "RDSGN"
                  }
                ],
                "ID": 0
              },
              "PROXIMITY": {
                "ID": "AT",
                "DESCRIPTION": "at"
              }
            },
            "TO": {
              "ROADWAY": {
                "DESCRIPTION": [
                  {
                    "value": "Inntal Autobahn",
                    "TYPE": "NTCSA"
                  },
                  {
                    "value": "Inntal Autobahn",
                    "TYPE": "RDSGN"
                  },
                  {
                    "value": "Inntal Autobahn",
                    "TYPE": "LOCAL"
                  }
                ],
                "ID": 30571
              },
              "POINT": {
                "DESCRIPTION": [
                  {
                    "value": "Kufstein-Nord",
                    "TYPE": "NTCSA"
                  },
                  {
                    "value": "Kufstein-Nord",
                    "TYPE": "RDSGN"
                  },
                  {
                    "value": "Kufstein-Nord",
                    "TYPE": "LOCAL"
                  },
                  {
                    "value": "Inntal Autobahn",
                    "TYPE": "BNAME"
                  }
                ],
                "ID": 31314
              },
              "DIRECTION": {
                "DESCRIPTION": [
                  {
                    "value": "KUFSTEIN",
                    "TYPE": "LOCAL"
                  },
                  {
                    "value": "KUFSTEIN",
                    "TYPE": "NTCSA"
                  },
                  {
                    "value": "KUFSTEIN",
                    "TYPE": "RDSGN"
                  }
                ],
                "ID": 0
              },
              "PROXIMITY": {
                "ID": "AT",
                "DESCRIPTION": "at"
              }
            }
          },
          "GEOLOC": {
            "ORIGIN": {
              "LATITUDE": 47.60415,
              "LONGITUDE": 12.19154
            },
            "TO": [
              {
                "LATITUDE": 47.60278,
                "LONGITUDE": 12.18777
              }
            ]
          },
          "NAVTECH": {
            "EDGE": {
              "EDGE_ID": [
                "1205128223"
              ]
            },
            "VERSION_ID": "202102"
          },
          "LENGTH": 0.20134
        },
        "TRAFFIC_ITEM_DETAIL": {
          "ROAD_CLOSED": false,
          "INCIDENT": {
            "RESPONSE_VEHICLES": false,
            "CONGESTION_INCIDENT": {
              "CONGESTION_TYPE_DESC": "CONGESTION",
              "CONGESTION_FACTOR": 50
            }
          },
          "ALERTC": [
            {
              "EVENT_CODE": 138
            }
          ]
        },
        "TRAFFIC_ITEM_DESCRIPTION": [
          {
            "value": "Bei Kufstein-Nord - Stockender Verkehr;; vorsichtig an das Stauende heranfahren.",
            "TYPE": "short_desc"
          },
          {
            "value": "Bei Kufstein-Nord - Stockender Verkehr;; vorsichtig an das Stauende heranfahren.",
            "TYPE": "desc"
          },
          {
            "value": "Stockender Verkehr;; vorsichtig an das Stauende heranfahren.",
            "TYPE": "no_exit_description"
          }
        ],
        "mid": "5daa7a62-973b-4ba8-883f-cf589fc01bd7|1629608359604",
        "PRODUCT": "basic"
      },
      {
        "TRAFFIC_ITEM_ID": 2534509324345501637,
        "ORIGINAL_TRAFFIC_ITEM_ID": 2732659508139368964,
        "TRAFFIC_ITEM_STATUS_SHORT_DESC": "ACTIVE",
        "TRAFFIC_ITEM_TYPE_DESC": "CONGESTION",
        "START_TIME": "08/22/2021 04:50:49",
        "END_TIME": "08/22/2021 05:08:19",
        "ENTRY_TIME": "08/22/2021 04:58:19",
        "CRITICALITY": {
          "ID": "2",
          "DESCRIPTION": "minor"
        },
        "VERIFIED": true,
        "ABBREVIATION": {
          "SHORT_DESC": "SLOW",
          "DESCRIPTION": "slow"
        },
        "RDS-TMC_LOCATIONS": {
          "RDS-TMC": [
            {
              "ORIGIN": {
                "EBU_COUNTRY_CODE": "D",
                "TABLE_ID": 1,
                "LOCATION_ID": "08105",
                "LOCATION_DESC": "Einhausung Wimpasing",
                "RDS_DIRECTION": "-"
              },
              "DIRECTION": "+",
              "ALERTC": {
                "TRAFFIC_CODE": 138,
                "QUANTIFIERS": 4,
                "DESCRIPTION": "Stockender Verkehr;; vorsichtig an das Stauende heranfahren.",
                "ALERTC_DURATION": "D",
                "ALERTC_DIRECTION": 1,
                "URGENCY": "U",
                "UPDATE_CLASS": 1,
                "PHRASE_CODE": "A2.Z112",
                "EXTENT": "1",
                "DURATION": 0
              },
              "LENGTH": 0.20461,
              "PRIMARY_OFFSET": 0.21139
            }
          ]
        },
        "LOCATION": {
          "DEFINED": {
            "ORIGIN": {
              "ROADWAY": {
                "DESCRIPTION": [
                  {
                    "value": "A94",
                    "TYPE": "NTCSA"
                  },
                  {
                    "value": "A94",
                    "TYPE": "RDSGN"
                  },
                  {
                    "value": "A94",
                    "TYPE": "LOCAL"
                  }
                ],
                "ID": 7229
              },
              "POINT": {
                "DESCRIPTION": [
                  {
                    "value": "Heldenstein",
                    "TYPE": "NTCSA"
                  },
                  {
                    "value": "Heldenstein",
                    "TYPE": "RDSGN"
                  },
                  {
                    "value": "Heldenstein",
                    "TYPE": "LOCAL"
                  },
                  {
                    "value": "A94",
                    "TYPE": "BNAME"
                  }
                ],
                "ID": 8105
              },
              "DIRECTION": {
                "DESCRIPTION": [
                  {
                    "value": "PASSAU",
                    "TYPE": "LOCAL"
                  },
                  {
                    "value": "PASSAU",
                    "TYPE": "NTCSA"
                  },
                  {
                    "value": "PASSAU",
                    "TYPE": "RDSGN"
                  }
                ],
                "ID": 0
              },
              "PROXIMITY": {
                "ID": "AT",
                "DESCRIPTION": "at"
              }
            },
            "TO": {
              "ROADWAY": {
                "DESCRIPTION": [
                  {
                    "value": "A94",
                    "TYPE": "NTCSA"
                  },
                  {
                    "value": "A94",
                    "TYPE": "RDSGN"
                  },
                  {
                    "value": "A94",
                    "TYPE": "LOCAL"
                  }
                ],
                "ID": 7229
              },
              "POINT": {
                "DESCRIPTION": [
                  {
                    "value": "Einhausung Wimpasing",
                    "TYPE": "NTCSA"
                  },
                  {
                    "value": "Einhausung Wimpasing",
                    "TYPE": "RDSGN"
                  },
                  {
                    "value": "Einhausung Wimpasing",
                    "TYPE": "LOCAL"
                  },
                  {
                    "value": "A94",
                    "TYPE": "BNAME"
                  }
                ],
                "ID": 8105
              },
              "DIRECTION": {
                "DESCRIPTION": [
                  {
                    "value": "PASSAU",
                    "TYPE": "LOCAL"
                  },
                  {
                    "value": "PASSAU",
                    "TYPE": "NTCSA"
                  },
                  {
                    "value": "PASSAU",
                    "TYPE": "RDSGN"
                  }
                ],
                "ID": 0
              },
              "PROXIMITY": {
                "ID": "AT",
                "DESCRIPTION": "at"
              }
            }
          },
          "GEOLOC": {
            "ORIGIN": {
              "LATITUDE": 48.25047,
              "LONGITUDE": 12.3932
            },
            "TO": [
              {
                "LATITUDE": 48.24968,
                "LONGITUDE": 12.39878
              }
            ]
          },
          "NAVTECH": {
            "EDGE": {
              "EDGE_ID": [
                "1180081346"
              ]
            },
            "VERSION_ID": "202102"
          },
          "LENGTH": 0.20461
        },
        "TRAFFIC_ITEM_DETAIL": {
          "ROAD_CLOSED": false,
          "INCIDENT": {
            "RESPONSE_VEHICLES": false,
            "CONGESTION_INCIDENT": {
              "CONGESTION_TYPE_DESC": "CONGESTION",
              "CONGESTION_FACTOR": 50
            }
          },
          "ALERTC": [
            {
              "EVENT_CODE": 138
            }
          ]
        },
        "TRAFFIC_ITEM_DESCRIPTION": [
          {
            "value": "Bei Einhausung Wimpasing - Stockender Verkehr;; vorsichtig an das Stauende heranfahren.",
            "TYPE": "short_desc"
          },
          {
            "value": "Bei Einhausung Wimpasing - Stockender Verkehr;; vorsichtig an das Stauende heranfahren.",
            "TYPE": "desc"
          },
          {
            "value": "Stockender Verkehr;; vorsichtig an das Stauende heranfahren.",
            "TYPE": "no_exit_description"
          }
        ],
        "mid": "42cd2d06-3622-44a2-be0a-8e771c92af9f|1629608299604",
        "PRODUCT": "basic"
      },
      {
        "TRAFFIC_ITEM_ID": 1190645907409809090,
        "ORIGINAL_TRAFFIC_ITEM_ID": 1489072422227922118,
        "TRAFFIC_ITEM_STATUS_SHORT_DESC": "ACTIVE",
        "TRAFFIC_ITEM_TYPE_DESC": "CONGESTION",
        "START_TIME": "08/22/2021 04:18:00",
        "END_TIME": "08/22/2021 05:09:16",
        "ENTRY_TIME": "08/22/2021 04:59:19",
        "CRITICALITY": {
          "ID": "2",
          "DESCRIPTION": "minor"
        },
        "VERIFIED": true,
        "ABBREVIATION": {
          "SHORT_DESC": "SLOW",
          "DESCRIPTION": "slow"
        },
        "RDS-TMC_LOCATIONS": {
          "RDS-TMC": [
            {
              "ORIGIN": {
                "EBU_COUNTRY_CODE": "A",
                "TABLE_ID": 1,
                "LOCATION_ID": "35958",
                "LOCATION_DESC": "Mautstelle Sch\u00f6nberg",
                "RDS_DIRECTION": "-"
              },
              "DIRECTION": "+",
              "ALERTC": {
                "TRAFFIC_CODE": 138,
                "QUANTIFIERS": 4,
                "DESCRIPTION": "Stockender Verkehr;; vorsichtig an das Stauende heranfahren.",
                "ALERTC_DURATION": "D",
                "ALERTC_DIRECTION": 1,
                "URGENCY": "U",
                "UPDATE_CLASS": 1,
                "PHRASE_CODE": "A2.Z112",
                "EXTENT": "1",
                "DURATION": 0
              },
              "LENGTH": 0.04956,
              "PRIMARY_OFFSET": 0.18047
            }
          ]
        },
        "LOCATION": {
          "DEFINED": {
            "ORIGIN": {
              "ROADWAY": {
                "DESCRIPTION": [
                  {
                    "value": "Brenner Autobahn",
                    "TYPE": "NTCSA"
                  },
                  {
                    "value": "Brenner Autobahn",
                    "TYPE": "RDSGN"
                  },
                  {
                    "value": "Brenner Autobahn",
                    "TYPE": "LOCAL"
                  }
                ],
                "ID": 30575
              },
              "POINT": {
                "DESCRIPTION": [
                  {
                    "value": "Sch\u00f6nberg-Stubaital",
                    "TYPE": "NTCSA"
                  },
                  {
                    "value": "Sch\u00f6nberg-Stubaital",
                    "TYPE": "RDSGN"
                  },
                  {
                    "value": "Sch\u00f6nberg-Stubaital",
                    "TYPE": "LOCAL"
                  },
                  {
                    "value": "Brenner Autobahn",
                    "TYPE": "BNAME"
                  }
                ],
                "ID": 35958
              },
              "DIRECTION": {
                "DESCRIPTION": [
                  {
                    "value": "BRENNER",
                    "TYPE": "LOCAL"
                  },
                  {
                    "value": "BRENNER",
                    "TYPE": "NTCSA"
                  },
                  {
                    "value": "BRENNER",
                    "TYPE": "RDSGN"
                  }
                ],
                "ID": 0
              },
              "PROXIMITY": {
                "ID": "AT",
                "DESCRIPTION": "at"
              }
            },
            "TO": {
              "ROADWAY": {
                "DESCRIPTION": [
                  {
                    "value": "Brenner Autobahn",
                    "TYPE": "NTCSA"
                  },
                  {
                    "value": "Brenner Autobahn",
                    "TYPE": "RDSGN"
                  },
                  {
                    "value": "Brenner Autobahn",
                    "TYPE": "LOCAL"
                  }
                ],
                "ID": 30575
              },
              "POINT": {
                "DESCRIPTION": [
                  {
                    "value": "Mautstelle Sch\u00f6nberg",
                    "TYPE": "NTCSA"
                  },
                  {
                    "value": "Mautstelle Sch\u00f6nberg",
                    "TYPE": "RDSGN"
                  },
                  {
                    "value": "Mautstelle Sch\u00f6nberg",
                    "TYPE": "LOCAL"
                  },
                  {
                    "value": "Brenner Autobahn",
                    "TYPE": "BNAME"
                  }
                ],
                "ID": 35958
              },
              "DIRECTION": {
                "DESCRIPTION": [
                  {
                    "value": "BRENNER",
                    "TYPE": "LOCAL"
                  },
                  {
                    "value": "BRENNER",
                    "TYPE": "NTCSA"
                  },
                  {
                    "value": "BRENNER",
                    "TYPE": "RDSGN"
                  }
                ],
                "ID": 0
              },
              "PROXIMITY": {
                "ID": "AT",
                "DESCRIPTION": "at"
              }
            }
          },
          "GEOLOC": {
            "ORIGIN": {
              "LATITUDE": 47.18269,
              "LONGITUDE": 11.40106
            },
            "TO": [
              {
                "LATITUDE": 47.18317,
                "LONGITUDE": 11.40183
              }
            ]
          },
          "NAVTECH": {
            "EDGE": {
              "EDGE_ID": [
                "911656816"
              ]
            },
            "VERSION_ID": "202102"
          },
          "LENGTH": 0.04956
        },
        "TRAFFIC_ITEM_DETAIL": {
          "ROAD_CLOSED": false,
          "INCIDENT": {
            "RESPONSE_VEHICLES": false,
            "CONGESTION_INCIDENT": {
              "CONGESTION_TYPE_DESC": "CONGESTION",
              "CONGESTION_FACTOR": 50
            }
          },
          "ALERTC": [
            {
              "EVENT_CODE": 138
            }
          ]
        },
        "TRAFFIC_ITEM_DESCRIPTION": [
          {
            "value": "Bei Mautstelle Sch\u00f6nberg - Stockender Verkehr;; vorsichtig an das Stauende heranfahren.",
            "TYPE": "short_desc"
          },
          {
            "value": "Bei Mautstelle Sch\u00f6nberg - Stockender Verkehr;; vorsichtig an das Stauende heranfahren.",
            "TYPE": "desc"
          },
          {
            "value": "Stockender Verkehr;; vorsichtig an das Stauende heranfahren.",
            "TYPE": "no_exit_description"
          }
        ],
        "mid": "59cf947b-5a32-4a25-8807-1f31f18eb403|1629608359604",
        "PRODUCT": "basic"
      },
      {
        "TRAFFIC_ITEM_ID": 2636337002128450599,
        "ORIGINAL_TRAFFIC_ITEM_ID": 3542540216729552732,
        "TRAFFIC_ITEM_STATUS_SHORT_DESC": "ACTIVE",
        "TRAFFIC_ITEM_TYPE_DESC": "CONGESTION",
        "START_TIME": "08/22/2021 04:55:50",
        "END_TIME": "08/22/2021 05:08:19",
        "ENTRY_TIME": "08/22/2021 04:58:19",
        "CRITICALITY": {
          "ID": "2",
          "DESCRIPTION": "minor"
        },
        "VERIFIED": true,
        "ABBREVIATION": {
          "SHORT_DESC": "SLOW",
          "DESCRIPTION": "slow"
        },
        "RDS-TMC_LOCATIONS": {
          "RDS-TMC": [
            {
              "ORIGIN": {
                "EBU_COUNTRY_CODE": "D",
                "TABLE_ID": 1,
                "LOCATION_ID": "10541",
                "LOCATION_DESC": "Theessen",
                "RDS_DIRECTION": "+"
              },
              "DIRECTION": "-",
              "ALERTC": {
                "TRAFFIC_CODE": 138,
                "QUANTIFIERS": 4,
                "DESCRIPTION": "Stockender Verkehr;; vorsichtig an das Stauende heranfahren.",
                "ALERTC_DURATION": "D",
                "ALERTC_DIRECTION": 1,
                "URGENCY": "U",
                "UPDATE_CLASS": 1,
                "PHRASE_CODE": "A2.Z112",
                "EXTENT": "1",
                "DURATION": 0
              },
              "LENGTH": 0.09443,
              "PRIMARY_OFFSET": 0.1127
            }
          ]
        },
        "LOCATION": {
          "DEFINED": {
            "ORIGIN": {
              "ROADWAY": {
                "DESCRIPTION": [
                  {
                    "value": "A2",
                    "TYPE": "NTCSA"
                  },
                  {
                    "value": "A2",
                    "TYPE": "RDSGN"
                  },
                  {
                    "value": "A2",
                    "TYPE": "LOCAL"
                  }
                ],
                "ID": 50080
              },
              "POINT": {
                "DESCRIPTION": [
                  {
                    "value": "W\u00fcstenforst",
                    "TYPE": "NTCSA"
                  },
                  {
                    "value": "W\u00fcstenforst",
                    "TYPE": "RDSGN"
                  },
                  {
                    "value": "W\u00fcstenforst",
                    "TYPE": "LOCAL"
                  },
                  {
                    "value": "A2",
                    "TYPE": "BNAME"
                  }
                ],
                "ID": 10541
              },
              "DIRECTION": {
                "DESCRIPTION": [
                  {
                    "value": "MAGDEBURG",
                    "TYPE": "LOCAL"
                  },
                  {
                    "value": "MAGDEBURG",
                    "TYPE": "NTCSA"
                  },
                  {
                    "value": "MAGDEBURG",
                    "TYPE": "RDSGN"
                  }
                ],
                "ID": 0
              },
              "PROXIMITY": {
                "ID": "AT",
                "DESCRIPTION": "at"
              }
            },
            "TO": {
              "ROADWAY": {
                "DESCRIPTION": [
                  {
                    "value": "A2",
                    "TYPE": "NTCSA"
                  },
                  {
                    "value": "A2",
                    "TYPE": "RDSGN"
                  },
                  {
                    "value": "A2",
                    "TYPE": "LOCAL"
                  }
                ],
                "ID": 50080
              },
              "POINT": {
                "DESCRIPTION": [
                  {
                    "value": "Theessen",
                    "TYPE": "NTCSA"
                  },
                  {
                    "value": "Theessen",
                    "TYPE": "RDSGN"
                  },
                  {
                    "value": "Theessen",
                    "TYPE": "LOCAL"
                  },
                  {
                    "value": "A2",
                    "TYPE": "BNAME"
                  }
                ],
                "ID": 10541
              },
              "DIRECTION": {
                "DESCRIPTION": [
                  {
                    "value": "MAGDEBURG",
                    "TYPE": "LOCAL"
                  },
                  {
                    "value": "MAGDEBURG",
                    "TYPE": "NTCSA"
                  },
                  {
                    "value": "MAGDEBURG",
                    "TYPE": "RDSGN"
                  }
                ],
                "ID": 0
              },
              "PROXIMITY": {
                "ID": "AT",
                "DESCRIPTION": "at"
              }
            }
          },
          "GEOLOC": {
            "ORIGIN": {
              "LATITUDE": 52.23369,
              "LONGITUDE": 12.06424
            },
            "TO": [
              {
                "LATITUDE": 52.23345,
                "LONGITUDE": 12.06231
              }
            ]
          },
          "NAVTECH": {
            "EDGE": {
              "EDGE_ID": [
                "1091587251"
              ]
            },
            "VERSION_ID": "202102"
          },
          "LENGTH": 0.09443
        },
        "TRAFFIC_ITEM_DETAIL": {
          "ROAD_CLOSED": false,
          "INCIDENT": {
            "RESPONSE_VEHICLES": false,
            "CONGESTION_INCIDENT": {
              "CONGESTION_TYPE_DESC": "CONGESTION",
              "CONGESTION_FACTOR": 50
            }
          },
          "ALERTC": [
            {
              "EVENT_CODE": 138
            }
          ]
        },
        "TRAFFIC_ITEM_DESCRIPTION": [
          {
            "value": "Bei Theessen - Stockender Verkehr;; vorsichtig an das Stauende heranfahren.",
            "TYPE": "short_desc"
          },
          {
            "value": "Bei Theessen - Stockender Verkehr;; vorsichtig an das Stauende heranfahren.",
            "TYPE": "desc"
          },
          {
            "value": "Stockender Verkehr;; vorsichtig an das Stauende heranfahren.",
            "TYPE": "no_exit_description"
          }
        ],
        "mid": "a1a6d79a-f1d3-4add-b4c5-979ff15e568b|1629608299604",
        "PRODUCT": "basic"
      },
      {
        "TRAFFIC_ITEM_ID": 4366569027516148195,
        "ORIGINAL_TRAFFIC_ITEM_ID": 2741414178827505523,
        "TRAFFIC_ITEM_STATUS_SHORT_DESC": "ACTIVE",
        "TRAFFIC_ITEM_TYPE_DESC": "CONGESTION",
        "START_TIME": "08/22/2021 04:54:34",
        "END_TIME": "08/22/2021 05:08:19",
        "ENTRY_TIME": "08/22/2021 04:54:34",
        "CRITICALITY": {
          "ID": "2",
          "DESCRIPTION": "minor"
        },
        "VERIFIED": true,
        "ABBREVIATION": {
          "SHORT_DESC": "SLOW",
          "DESCRIPTION": "slow"
        },
        "RDS-TMC_LOCATIONS": {
          "RDS-TMC": [
            {
              "ORIGIN": {
                "EBU_COUNTRY_CODE": "D",
                "TABLE_ID": 1,
                "LOCATION_ID": "32605",
                "LOCATION_DESC": "Britzer Damm",
                "RDS_DIRECTION": "+"
              },
              "DIRECTION": "-",
              "ALERTC": {
                "TRAFFIC_CODE": 138,
                "QUANTIFIERS": 4,
                "DESCRIPTION": "Stockender Verkehr;; vorsichtig an das Stauende heranfahren.",
                "ALERTC_DURATION": "D",
                "ALERTC_DIRECTION": 1,
                "URGENCY": "U",
                "UPDATE_CLASS": 1,
                "PHRASE_CODE": "A2.Z112",
                "EXTENT": "1",
                "DURATION": 0
              },
              "LENGTH": 0.10388,
              "PRIMARY_OFFSET": 0.0
            }
          ]
        },
        "LOCATION": {
          "DEFINED": {
            "ORIGIN": {
              "ROADWAY": {
                "DESCRIPTION": [
                  {
                    "value": "Stadtring Berlin",
                    "TYPE": "NTCSA"
                  },
                  {
                    "value": "Stadtring Berlin",
                    "TYPE": "RDSGN"
                  },
                  {
                    "value": "Stadtring Berlin",
                    "TYPE": "LOCAL"
                  }
                ],
                "ID": 50062
              },
              "POINT": {
                "DESCRIPTION": [
                  {
                    "value": "Buschkrugallee",
                    "TYPE": "NTCSA"
                  },
                  {
                    "value": "Buschkrugallee",
                    "TYPE": "RDSGN"
                  },
                  {
                    "value": "Buschkrugallee",
                    "TYPE": "LOCAL"
                  },
                  {
                    "value": "Stadtring Berlin",
                    "TYPE": "BNAME"
                  }
                ],
                "ID": 32605
              },
              "DIRECTION": {
                "DESCRIPTION": [
                  {
                    "value": "WILMERSDORF",
                    "TYPE": "LOCAL"
                  },
                  {
                    "value": "WILMERSDORF",
                    "TYPE": "NTCSA"
                  },
                  {
                    "value": "WILMERSDORF",
                    "TYPE": "RDSGN"
                  }
                ],
                "ID": 0
              },
              "PROXIMITY": {
                "ID": "AT",
                "DESCRIPTION": "at"
              }
            },
            "TO": {
              "ROADWAY": {
                "DESCRIPTION": [
                  {
                    "value": "Stadtring Berlin",
                    "TYPE": "NTCSA"
                  },
                  {
                    "value": "Stadtring Berlin",
                    "TYPE": "RDSGN"
                  },
                  {
                    "value": "Stadtring Berlin",
                    "TYPE": "LOCAL"
                  }
                ],
                "ID": 50062
              },
              "POINT": {
                "DESCRIPTION": [
                  {
                    "value": "Britzer Damm",
                    "TYPE": "NTCSA"
                  },
                  {
                    "value": "Britzer Damm",
                    "TYPE": "RDSGN"
                  },
                  {
                    "value": "Britzer Damm",
                    "TYPE": "LOCAL"
                  },
                  {
                    "value": "Stadtring Berlin",
                    "TYPE": "BNAME"
                  }
                ],
                "ID": 32605
              },
              "DIRECTION": {
                "DESCRIPTION": [
                  {
                    "value": "WILMERSDORF",
                    "TYPE": "LOCAL"
                  },
                  {
                    "value": "WILMERSDORF",
                    "TYPE": "NTCSA"
                  },
                  {
                    "value": "WILMERSDORF",
                    "TYPE": "RDSGN"
                  }
                ],
                "ID": 0
              },
              "PROXIMITY": {
                "ID": "AT",
                "DESCRIPTION": "at"
              }
            }
          },
          "GEOLOC": {
            "ORIGIN": {
              "LATITUDE": 52.46206,
              "LONGITUDE": 13.43254
            },
            "TO": [
              {
                "LATITUDE": 52.46196,
                "LONGITUDE": 13.43009
              }
            ]
          },
          "NAVTECH": {
            "EDGE": {
              "EDGE_ID": [
                "927324024"
              ]
            },
            "VERSION_ID": "202102"
          },
          "LENGTH": 0.10388
        },
        "TRAFFIC_ITEM_DETAIL": {
          "ROAD_CLOSED": false,
          "INCIDENT": {
            "RESPONSE_VEHICLES": false,
            "CONGESTION_INCIDENT": {
              "CONGESTION_TYPE_DESC": "CONGESTION",
              "CONGESTION_FACTOR": 50
            }
          },
          "ALERTC": [
            {
              "EVENT_CODE": 138
            }
          ]
        },
        "TRAFFIC_ITEM_DESCRIPTION": [
          {
            "value": "Bei Britzer Damm - Stockender Verkehr;; vorsichtig an das Stauende heranfahren.",
            "TYPE": "short_desc"
          },
          {
            "value": "Bei Britzer Damm - Stockender Verkehr;; vorsichtig an das Stauende heranfahren.",
            "TYPE": "desc"
          },
          {
            "value": "Stockender Verkehr;; vorsichtig an das Stauende heranfahren.",
            "TYPE": "no_exit_description"
          }
        ],
        "mid": "2f87d11a-9767-4e77-90ea-44e327af8ac2|1629608074604",
        "PRODUCT": "basic"
      },
      {
        "TRAFFIC_ITEM_ID": 815820434373999249,
        "ORIGINAL_TRAFFIC_ITEM_ID": 889062977678554744,
        "TRAFFIC_ITEM_STATUS_SHORT_DESC": "ACTIVE",
        "TRAFFIC_ITEM_TYPE_DESC": "CONGESTION",
        "START_TIME": "08/22/2021 04:54:49",
        "END_TIME": "08/22/2021 05:09:16",
        "ENTRY_TIME": "08/22/2021 04:59:19",
        "CRITICALITY": {
          "ID": "2",
          "DESCRIPTION": "minor"
        },
        "VERIFIED": true,
        "ABBREVIATION": {
          "SHORT_DESC": "SLOW",
          "DESCRIPTION": "slow"
        },
        "RDS-TMC_LOCATIONS": {
          "RDS-TMC": [
            {
              "ORIGIN": {
                "EBU_COUNTRY_CODE": "A",
                "TABLE_ID": 1,
                "LOCATION_ID": "31280",
                "LOCATION_DESC": "St. Michael im Lungau",
                "RDS_DIRECTION": "-"
              },
              "DIRECTION": "+",
              "ALERTC": {
                "TRAFFIC_CODE": 138,
                "QUANTIFIERS": 4,
                "DESCRIPTION": "Stockender Verkehr;; vorsichtig an das Stauende heranfahren.",
                "ALERTC_DURATION": "D",
                "ALERTC_DIRECTION": 1,
                "URGENCY": "U",
                "UPDATE_CLASS": 1,
                "PHRASE_CODE": "A2.Z112",
                "EXTENT": "1",
                "DURATION": 0
              },
              "LENGTH": 0.03811,
              "PRIMARY_OFFSET": 0.21471
            }
          ]
        },
        "LOCATION": {
          "DEFINED": {
            "ORIGIN": {
              "ROADWAY": {
                "DESCRIPTION": [
                  {
                    "value": "Tauern Autobahn",
                    "TYPE": "NTCSA"
                  },
                  {
                    "value": "Tauern Autobahn",
                    "TYPE": "RDSGN"
                  },
                  {
                    "value": "Tauern Autobahn",
                    "TYPE": "LOCAL"
                  }
                ],
                "ID": 30566
              },
              "POINT": {
                "DESCRIPTION": [
                  {
                    "value": "Parkplatz Lansch\u00fctz",
                    "TYPE": "NTCSA"
                  },
                  {
                    "value": "Parkplatz Lansch\u00fctz",
                    "TYPE": "RDSGN"
                  },
                  {
                    "value": "Parkplatz Lansch\u00fctz",
                    "TYPE": "LOCAL"
                  },
                  {
                    "value": "Tauern Autobahn",
                    "TYPE": "BNAME"
                  }
                ],
                "ID": 31280
              },
              "DIRECTION": {
                "DESCRIPTION": [
                  {
                    "value": "VILLACH",
                    "TYPE": "LOCAL"
                  },
                  {
                    "value": "VILLACH",
                    "TYPE": "NTCSA"
                  },
                  {
                    "value": "VILLACH",
                    "TYPE": "RDSGN"
                  }
                ],
                "ID": 0
              },
              "PROXIMITY": {
                "ID": "AT",
                "DESCRIPTION": "at"
              }
            },
            "TO": {
              "ROADWAY": {
                "DESCRIPTION": [
                  {
                    "value": "Tauern Autobahn",
                    "TYPE": "NTCSA"
                  },
                  {
                    "value": "Tauern Autobahn",
                    "TYPE": "RDSGN"
                  },
                  {
                    "value": "Tauern Autobahn",
                    "TYPE": "LOCAL"
                  }
                ],
                "ID": 30566
              },
              "POINT": {
                "DESCRIPTION": [
                  {
                    "value": "St. Michael im Lungau",
                    "TYPE": "NTCSA"
                  },
                  {
                    "value": "St. Michael im Lungau",
                    "TYPE": "RDSGN"
                  },
                  {
                    "value": "St. Michael im Lungau",
                    "TYPE": "LOCAL"
                  },
                  {
                    "value": "Tauern Autobahn",
                    "TYPE": "BNAME"
                  }
                ],
                "ID": 31280
              },
              "DIRECTION": {
                "DESCRIPTION": [
                  {
                    "value": "VILLACH",
                    "TYPE": "LOCAL"
                  },
                  {
                    "value": "VILLACH",
                    "TYPE": "NTCSA"
                  },
                  {
                    "value": "VILLACH",
                    "TYPE": "RDSGN"
                  }
                ],
                "ID": 0
              },
              "PROXIMITY": {
                "ID": "AT",
                "DESCRIPTION": "at"
              }
            }
          },
          "GEOLOC": {
            "ORIGIN": {
              "LATITUDE": 47.09552,
              "LONGITUDE": 13.60825
            },
            "TO": [
              {
                "LATITUDE": 47.09505,
                "LONGITUDE": 13.60857
              }
            ]
          },
          "NAVTECH": {
            "EDGE": {
              "EDGE_ID": [
                "1210473321"
              ]
            },
            "VERSION_ID": "202102"
          },
          "LENGTH": 0.03811
        },
        "TRAFFIC_ITEM_DETAIL": {
          "ROAD_CLOSED": false,
          "INCIDENT": {
            "RESPONSE_VEHICLES": false,
            "CONGESTION_INCIDENT": {
              "CONGESTION_TYPE_DESC": "CONGESTION",
              "CONGESTION_FACTOR": 50
            }
          },
          "ALERTC": [
            {
              "EVENT_CODE": 138
            }
          ]
        },
        "TRAFFIC_ITEM_DESCRIPTION": [
          {
            "value": "Bei St. Michael im Lungau - Stockender Verkehr;; vorsichtig an das Stauende heranfahren.",
            "TYPE": "short_desc"
          },
          {
            "value": "Bei St. Michael im Lungau - Stockender Verkehr;; vorsichtig an das Stauende heranfahren.",
            "TYPE": "desc"
          },
          {
            "value": "Stockender Verkehr;; vorsichtig an das Stauende heranfahren.",
            "TYPE": "no_exit_description"
          }
        ],
        "mid": "71e6133e-0523-41ae-8e4f-78859f235133|1629608359604",
        "PRODUCT": "basic"
      },
      {
        "TRAFFIC_ITEM_ID": 172517441797743469,
        "ORIGINAL_TRAFFIC_ITEM_ID": 1526932384047449424,
        "TRAFFIC_ITEM_STATUS_SHORT_DESC": "ACTIVE",
        "TRAFFIC_ITEM_TYPE_DESC": "CONGESTION",
        "START_TIME": "08/22/2021 04:57:51",
        "END_TIME": "08/22/2021 05:08:47",
        "ENTRY_TIME": "08/22/2021 04:58:49",
        "CRITICALITY": {
          "ID": "2",
          "DESCRIPTION": "minor"
        },
        "VERIFIED": true,
        "ABBREVIATION": {
          "SHORT_DESC": "SLOW",
          "DESCRIPTION": "slow"
        },
        "RDS-TMC_LOCATIONS": {
          "RDS-TMC": [
            {
              "ORIGIN": {
                "EBU_COUNTRY_CODE": "3",
                "TABLE_ID": 5,
                "LOCATION_ID": "13415",
                "LOCATION_DESC": "PPO Tarnawa",
                "RDS_DIRECTION": "+"
              },
              "DIRECTION": "-",
              "ALERTC": {
                "TRAFFIC_CODE": 138,
                "QUANTIFIERS": 4,
                "DESCRIPTION": "Zag\u0119szczaj\u0105cy si\u0119 ruch. Doje\u017cd\u017ca\u0107 ostro\u017cnie.",
                "ALERTC_DURATION": "D",
                "ALERTC_DIRECTION": 1,
                "URGENCY": "U",
                "UPDATE_CLASS": 1,
                "PHRASE_CODE": "A2.Z112",
                "EXTENT": "1",
                "DURATION": 0
              },
              "LENGTH": 0.03088,
              "PRIMARY_OFFSET": 0.05955
            }
          ]
        },
        "LOCATION": {
          "DEFINED": {
            "ORIGIN": {
              "ROADWAY": {
                "DESCRIPTION": [
                  {
                    "value": "A2",
                    "TYPE": "NTCSA"
                  },
                  {
                    "value": "A2",
                    "TYPE": "RDSGN"
                  },
                  {
                    "value": "A2",
                    "TYPE": "LOCAL"
                  }
                ],
                "ID": 25044
              },
              "POINT": {
                "DESCRIPTION": [
                  {
                    "value": "W\u0119ze\u0142 Torzym",
                    "TYPE": "NTCSA"
                  },
                  {
                    "value": "W\u0119ze\u0142 Torzym",
                    "TYPE": "RDSGN"
                  },
                  {
                    "value": "W\u0119ze\u0142 Torzym",
                    "TYPE": "LOCAL"
                  },
                  {
                    "value": "A2",
                    "TYPE": "BNAME"
                  }
                ],
                "ID": 13415
              },
              "DIRECTION": {
                "DESCRIPTION": [
                  {
                    "value": "\u015aWIECKO",
                    "TYPE": "LOCAL"
                  },
                  {
                    "value": "\u015aWIECKO",
                    "TYPE": "NTCSA"
                  },
                  {
                    "value": "\u015aWIECKO",
                    "TYPE": "RDSGN"
                  }
                ],
                "ID": 0
              },
              "PROXIMITY": {
                "ID": "AT",
                "DESCRIPTION": "at"
              }
            },
            "TO": {
              "ROADWAY": {
                "DESCRIPTION": [
                  {
                    "value": "A2",
                    "TYPE": "NTCSA"
                  },
                  {
                    "value": "A2",
                    "TYPE": "RDSGN"
                  },
                  {
                    "value": "A2",
                    "TYPE": "LOCAL"
                  }
                ],
                "ID": 25044
              },
              "POINT": {
                "DESCRIPTION": [
                  {
                    "value": "PPO Tarnawa",
                    "TYPE": "NTCSA"
                  },
                  {
                    "value": "PPO Tarnawa",
                    "TYPE": "RDSGN"
                  },
                  {
                    "value": "PPO Tarnawa",
                    "TYPE": "LOCAL"
                  },
                  {
                    "value": "A2",
                    "TYPE": "BNAME"
                  }
                ],
                "ID": 13415
              },
              "DIRECTION": {
                "DESCRIPTION": [
                  {
                    "value": "\u015aWIECKO",
                    "TYPE": "LOCAL"
                  },
                  {
                    "value": "\u015aWIECKO",
                    "TYPE": "NTCSA"
                  },
                  {
                    "value": "\u015aWIECKO",
                    "TYPE": "RDSGN"
                  }
                ],
                "ID": 0
              },
              "PROXIMITY": {
                "ID": "AT",
                "DESCRIPTION": "at"
              }
            }
          },
          "GEOLOC": {
            "ORIGIN": {
              "LATITUDE": 52.33502,
              "LONGITUDE": 14.90418
            },
            "TO": [
              {
                "LATITUDE": 52.33504,
                "LONGITUDE": 14.90402
              }
            ]
          },
          "NAVTECH": {
            "EDGE": {
              "EDGE_ID": [
                "1175304657"
              ]
            },
            "VERSION_ID": "202102"
          },
          "LENGTH": 0.03088
        },
        "TRAFFIC_ITEM_DETAIL": {
          "ROAD_CLOSED": false,
          "INCIDENT": {
            "RESPONSE_VEHICLES": false,
            "CONGESTION_INCIDENT": {
              "CONGESTION_TYPE_DESC": "CONGESTION",
              "CONGESTION_FACTOR": 50
            }
          },
          "ALERTC": [
            {
              "EVENT_CODE": 138
            }
          ]
        },
        "TRAFFIC_ITEM_DESCRIPTION": [
          {
            "value": "Przy PPO Tarnawa - Zag\u0119szczaj\u0105cy si\u0119 ruch. Doje\u017cd\u017ca\u0107 ostro\u017cnie.",
            "TYPE": "short_desc"
          },
          {
            "value": "Przy PPO Tarnawa - Zag\u0119szczaj\u0105cy si\u0119 ruch. Doje\u017cd\u017ca\u0107 ostro\u017cnie.",
            "TYPE": "desc"
          },
          {
            "value": "Zag\u0119szczaj\u0105cy si\u0119 ruch. Doje\u017cd\u017ca\u0107 ostro\u017cnie.",
            "TYPE": "no_exit_description"
          }
        ],
        "mid": "f99b6d44-39f9-4f08-b2c8-4bd837abe119|1629608329604",
        "PRODUCT": "basic"
      },
      {
        "TRAFFIC_ITEM_ID": 2092105651675801023,
        "ORIGINAL_TRAFFIC_ITEM_ID": 2816085665362409518,
        "TRAFFIC_ITEM_STATUS_SHORT_DESC": "ACTIVE",
        "TRAFFIC_ITEM_TYPE_DESC": "CONGESTION",
        "START_TIME": "08/22/2021 04:49:34",
        "END_TIME": "08/22/2021 05:08:19",
        "ENTRY_TIME": "08/22/2021 04:58:19",
        "CRITICALITY": {
          "ID": "2",
          "DESCRIPTION": "minor"
        },
        "VERIFIED": true,
        "ABBREVIATION": {
          "SHORT_DESC": "SLOW",
          "DESCRIPTION": "slow"
        },
        "RDS-TMC_LOCATIONS": {
          "RDS-TMC": [
            {
              "ORIGIN": {
                "EBU_COUNTRY_CODE": "D",
                "TABLE_ID": 1,
                "LOCATION_ID": "10659",
                "LOCATION_DESC": "Putlitz",
                "RDS_DIRECTION": "-"
              },
              "DIRECTION": "+",
              "ALERTC": {
                "TRAFFIC_CODE": 138,
                "ALERTC_Q_BINARY": "1",
                "QUANTIFIERS": 4,
                "DESCRIPTION": "Stockender Verkehr; Durchschnittsgeschwindigkeit von bis zu 5 km/h; vorsichtig an das Stauende heranfahren.",
                "ALERTC_DURATION": "D",
                "ALERTC_DIRECTION": 1,
                "URGENCY": "U",
                "UPDATE_CLASS": 1,
                "PHRASE_CODE": "A2.Z112",
                "EXTENT": "1",
                "DURATION": 0
              },
              "LENGTH": 0.41354,
              "PRIMARY_OFFSET": 1.75855
            }
          ]
        },
        "LOCATION": {
          "DEFINED": {
            "ORIGIN": {
              "ROADWAY": {
                "DESCRIPTION": [
                  {
                    "value": "A24",
                    "TYPE": "NTCSA"
                  },
                  {
                    "value": "A24",
                    "TYPE": "RDSGN"
                  },
                  {
                    "value": "A24",
                    "TYPE": "LOCAL"
                  }
                ],
                "ID": 50087
              },
              "POINT": {
                "DESCRIPTION": [
                  {
                    "value": "Suckow",
                    "TYPE": "NTCSA"
                  },
                  {
                    "value": "Suckow",
                    "TYPE": "RDSGN"
                  },
                  {
                    "value": "Suckow",
                    "TYPE": "LOCAL"
                  },
                  {
                    "value": "A24",
                    "TYPE": "BNAME"
                  }
                ],
                "ID": 10659
              },
              "DIRECTION": {
                "DESCRIPTION": [
                  {
                    "value": "PRITZWALK",
                    "TYPE": "LOCAL"
                  },
                  {
                    "value": "PRITZWALK",
                    "TYPE": "NTCSA"
                  },
                  {
                    "value": "PRITZWALK",
                    "TYPE": "RDSGN"
                  }
                ],
                "ID": 0
              },
              "PROXIMITY": {
                "ID": "AT",
                "DESCRIPTION": "at"
              }
            },
            "TO": {
              "ROADWAY": {
                "DESCRIPTION": [
                  {
                    "value": "A24",
                    "TYPE": "NTCSA"
                  },
                  {
                    "value": "A24",
                    "TYPE": "RDSGN"
                  },
                  {
                    "value": "A24",
                    "TYPE": "LOCAL"
                  }
                ],
                "ID": 50087
              },
              "POINT": {
                "DESCRIPTION": [
                  {
                    "value": "Putlitz",
                    "TYPE": "NTCSA"
                  },
                  {
                    "value": "Putlitz",
                    "TYPE": "RDSGN"
                  },
                  {
                    "value": "Putlitz",
                    "TYPE": "LOCAL"
                  },
                  {
                    "value": "A24",
                    "TYPE": "BNAME"
                  }
                ],
                "ID": 10659
              },
              "DIRECTION": {
                "DESCRIPTION": [
                  {
                    "value": "PRITZWALK",
                    "TYPE": "LOCAL"
                  },
                  {
                    "value": "PRITZWALK",
                    "TYPE": "NTCSA"
                  },
                  {
                    "value": "PRITZWALK",
                    "TYPE": "RDSGN"
                  }
                ],
                "ID": 0
              },
              "PROXIMITY": {
                "ID": "AT",
                "DESCRIPTION": "at"
              }
            }
          },
          "GEOLOC": {
            "ORIGIN": {
              "LATITUDE": 53.29307,
              "LONGITUDE": 12.04355
            },
            "TO": [
              {
                "LATITUDE": 53.29141,
                "LONGITUDE": 12.05282
              }
            ]
          },
          "NAVTECH": {
            "EDGE": {
              "EDGE_ID": [
                "772838329",
                "1225132683"
              ]
            },
            "VERSION_ID": "202102"
          },
          "LENGTH": 0.41354
        },
        "TRAFFIC_ITEM_DETAIL": {
          "ROAD_CLOSED": false,
          "INCIDENT": {
            "RESPONSE_VEHICLES": false,
            "CONGESTION_INCIDENT": {
              "CONGESTION_TYPE_DESC": "CONGESTION",
              "CONGESTION_FACTOR": 50
            }
          },
          "ALERTC": [
            {
              "EVENT_CODE": 138,
              "ALERTC_Q": 1
            }
          ]
        },
        "TRAFFIC_ITEM_DESCRIPTION": [
          {
            "value": "Bei Putlitz - Stockender Verkehr; Durchschnittsgeschwindigkeit von bis zu 5 km/h; vorsichtig an das Stauende heranfahren.",
            "TYPE": "short_desc"
          },
          {
            "value": "Bei Putlitz - Stockender Verkehr; Durchschnittsgeschwindigkeit von bis zu 5 km/h; vorsichtig an das Stauende heranfahren.",
            "TYPE": "desc"
          },
          {
            "value": "Stockender Verkehr; Durchschnittsgeschwindigkeit von bis zu 5 km/h; vorsichtig an das Stauende heranfahren.",
            "TYPE": "no_exit_description"
          }
        ],
        "mid": "093a9507-bd52-4c7f-89a6-18167d3d84d5|1629608299604",
        "PRODUCT": "basic"
      },
      {
        "TRAFFIC_ITEM_ID": 2692322280609501945,
        "ORIGINAL_TRAFFIC_ITEM_ID": 1758220784322260048,
        "TRAFFIC_ITEM_STATUS_SHORT_DESC": "ACTIVE",
        "TRAFFIC_ITEM_TYPE_DESC": "CONGESTION",
        "START_TIME": "08/22/2021 04:54:57",
        "END_TIME": "08/22/2021 05:07:33",
        "ENTRY_TIME": "08/22/2021 04:57:34",
        "CRITICALITY": {
          "ID": "2",
          "DESCRIPTION": "minor"
        },
        "VERIFIED": true,
        "ABBREVIATION": {
          "SHORT_DESC": "SLOW",
          "DESCRIPTION": "slow"
        },
        "RDS-TMC_LOCATIONS": {
          "RDS-TMC": [
            {
              "ORIGIN": {
                "EBU_COUNTRY_CODE": "4",
                "TABLE_ID": 9,
                "LOCATION_ID": "10269",
                "LOCATION_DESC": "Neuenhof",
                "RDS_DIRECTION": "+"
              },
              "DIRECTION": "-",
              "ALERTC": {
                "TRAFFIC_CODE": 138,
                "QUANTIFIERS": 4,
                "DESCRIPTION": "Stockender Verkehr;; vorsichtig an das Stauende heranfahren.",
                "ALERTC_DURATION": "D",
                "ALERTC_DIRECTION": 1,
                "URGENCY": "U",
                "UPDATE_CLASS": 1,
                "PHRASE_CODE": "A2.Z112",
                "EXTENT": "1",
                "DURATION": 0
              },
              "LENGTH": 0.01372,
              "PRIMARY_OFFSET": 0.70697
            }
          ]
        },
        "LOCATION": {
          "DEFINED": {
            "ORIGIN": {
              "ROADWAY": {
                "DESCRIPTION": [
                  {
                    "value": "A1",
                    "TYPE": "NTCSA"
                  },
                  {
                    "value": "A1",
                    "TYPE": "RDSGN"
                  },
                  {
                    "value": "A1",
                    "TYPE": "LOCAL"
                  }
                ],
                "ID": 1039
              },
              "POINT": {
                "DESCRIPTION": [
                  {
                    "value": "Wettingen-Ost",
                    "TYPE": "NTCSA"
                  },
                  {
                    "value": "Wettingen-Ost",
                    "TYPE": "RDSGN"
                  },
                  {
                    "value": "Wettingen-Ost",
                    "TYPE": "LOCAL"
                  },
                  {
                    "value": "A1",
                    "TYPE": "BNAME"
                  }
                ],
                "ID": 10269
              },
              "DIRECTION": {
                "DESCRIPTION": [
                  {
                    "value": "BERN",
                    "TYPE": "LOCAL"
                  },
                  {
                    "value": "BERN",
                    "TYPE": "NTCSA"
                  },
                  {
                    "value": "BERN",
                    "TYPE": "RDSGN"
                  }
                ],
                "ID": 0
              },
              "PROXIMITY": {
                "ID": "AT",
                "DESCRIPTION": "at"
              }
            },
            "TO": {
              "ROADWAY": {
                "DESCRIPTION": [
                  {
                    "value": "A1",
                    "TYPE": "NTCSA"
                  },
                  {
                    "value": "A1",
                    "TYPE": "RDSGN"
                  },
                  {
                    "value": "A1",
                    "TYPE": "LOCAL"
                  }
                ],
                "ID": 1039
              },
              "POINT": {
                "DESCRIPTION": [
                  {
                    "value": "Neuenhof",
                    "TYPE": "NTCSA"
                  },
                  {
                    "value": "Neuenhof",
                    "TYPE": "RDSGN"
                  },
                  {
                    "value": "Neuenhof",
                    "TYPE": "LOCAL"
                  },
                  {
                    "value": "A1",
                    "TYPE": "BNAME"
                  }
                ],
                "ID": 10269
              },
              "DIRECTION": {
                "DESCRIPTION": [
                  {
                    "value": "BERN",
                    "TYPE": "LOCAL"
                  },
                  {
                    "value": "BERN",
                    "TYPE": "NTCSA"
                  },
                  {
                    "value": "BERN",
                    "TYPE": "RDSGN"
                  }
                ],
                "ID": 0
              },
              "PROXIMITY": {
                "ID": "AT",
                "DESCRIPTION": "at"
              }
            }
          },
          "GEOLOC": {
            "ORIGIN": {
              "LATITUDE": 47.45478,
              "LONGITUDE": 8.32929
            },
            "TO": [
              {
                "LATITUDE": 47.45479,
                "LONGITUDE": 8.32904
              }
            ]
          },
          "NAVTECH": {
            "EDGE": {
              "EDGE_ID": [
                "1246015053"
              ]
            },
            "VERSION_ID": "202102"
          },
          "LENGTH": 0.01372
        },
        "TRAFFIC_ITEM_DETAIL": {
          "ROAD_CLOSED": false,
          "INCIDENT": {
            "RESPONSE_VEHICLES": false,
            "CONGESTION_INCIDENT": {
              "CONGESTION_TYPE_DESC": "CONGESTION",
              "CONGESTION_FACTOR": 50
            }
          },
          "ALERTC": [
            {
              "EVENT_CODE": 138
            }
          ]
        },
        "TRAFFIC_ITEM_DESCRIPTION": [
          {
            "value": "Bei Neuenhof - Stockender Verkehr;; vorsichtig an das Stauende heranfahren.",
            "TYPE": "short_desc"
          },
          {
            "value": "Bei Neuenhof - Stockender Verkehr;; vorsichtig an das Stauende heranfahren.",
            "TYPE": "desc"
          },
          {
            "value": "Stockender Verkehr;; vorsichtig an das Stauende heranfahren.",
            "TYPE": "no_exit_description"
          }
        ],
        "mid": "67f6d42a-55f4-4fe9-9dd6-754f0d38af5e|1629608254604",
        "PRODUCT": "basic"
      },
      {
        "TRAFFIC_ITEM_ID": 4508576004879873813,
        "ORIGINAL_TRAFFIC_ITEM_ID": 2858740287042440330,
        "TRAFFIC_ITEM_STATUS_SHORT_DESC": "ACTIVE",
        "TRAFFIC_ITEM_TYPE_DESC": "CONGESTION",
        "START_TIME": "08/22/2021 04:50:21",
        "END_TIME": "08/22/2021 05:08:19",
        "ENTRY_TIME": "08/22/2021 04:58:19",
        "CRITICALITY": {
          "ID": "2",
          "DESCRIPTION": "minor"
        },
        "VERIFIED": true,
        "ABBREVIATION": {
          "SHORT_DESC": "SLOW",
          "DESCRIPTION": "slow"
        },
        "RDS-TMC_LOCATIONS": {
          "RDS-TMC": [
            {
              "ORIGIN": {
                "EBU_COUNTRY_CODE": "D",
                "TABLE_ID": 1,
                "LOCATION_ID": "11561",
                "LOCATION_DESC": "Weil am Rhein",
                "RDS_DIRECTION": "+"
              },
              "DIRECTION": "-",
              "ALERTC": {
                "TRAFFIC_CODE": 138,
                "QUANTIFIERS": 4,
                "DESCRIPTION": "Stockender Verkehr;; vorsichtig an das Stauende heranfahren.",
                "ALERTC_DURATION": "D",
                "ALERTC_DIRECTION": 1,
                "URGENCY": "U",
                "UPDATE_CLASS": 1,
                "PHRASE_CODE": "A2.Z112",
                "EXTENT": "1",
                "DURATION": 0
              },
              "LENGTH": 0.03275,
              "PRIMARY_OFFSET": 0.12815
            }
          ]
        },
        "LOCATION": {
          "DEFINED": {
            "ORIGIN": {
              "ROADWAY": {
                "DESCRIPTION": [
                  {
                    "value": "A5",
                    "TYPE": "NTCSA"
                  },
                  {
                    "value": "A5",
                    "TYPE": "RDSGN"
                  },
                  {
                    "value": "A5",
                    "TYPE": "LOCAL"
                  }
                ],
                "ID": 50126
              },
              "POINT": {
                "DESCRIPTION": [
                  {
                    "value": "Weil am Rhein/H\u00fcningen",
                    "TYPE": "NTCSA"
                  },
                  {
                    "value": "Weil am Rhein/H\u00fcningen",
                    "TYPE": "RDSGN"
                  },
                  {
                    "value": "Weil am Rhein/H\u00fcningen",
                    "TYPE": "LOCAL"
                  },
                  {
                    "value": "A5",
                    "TYPE": "BNAME"
                  }
                ],
                "ID": 11561
              },
              "DIRECTION": {
                "DESCRIPTION": [
                  {
                    "value": "BASEL",
                    "TYPE": "LOCAL"
                  },
                  {
                    "value": "BASEL",
                    "TYPE": "NTCSA"
                  },
                  {
                    "value": "BASEL",
                    "TYPE": "RDSGN"
                  }
                ],
                "ID": 0
              },
              "PROXIMITY": {
                "ID": "AT",
                "DESCRIPTION": "at"
              }
            },
            "TO": {
              "ROADWAY": {
                "DESCRIPTION": [
                  {
                    "value": "A5",
                    "TYPE": "NTCSA"
                  },
                  {
                    "value": "A5",
                    "TYPE": "RDSGN"
                  },
                  {
                    "value": "A5",
                    "TYPE": "LOCAL"
                  }
                ],
                "ID": 50126
              },
              "POINT": {
                "DESCRIPTION": [
                  {
                    "value": "Weil am Rhein",
                    "TYPE": "NTCSA"
                  },
                  {
                    "value": "Weil am Rhein",
                    "TYPE": "RDSGN"
                  },
                  {
                    "value": "Weil am Rhein",
                    "TYPE": "LOCAL"
                  },
                  {
                    "value": "A5",
                    "TYPE": "BNAME"
                  }
                ],
                "ID": 11561
              },
              "DIRECTION": {
                "DESCRIPTION": [
                  {
                    "value": "BASEL",
                    "TYPE": "LOCAL"
                  },
                  {
                    "value": "BASEL",
                    "TYPE": "NTCSA"
                  },
                  {
                    "value": "BASEL",
                    "TYPE": "RDSGN"
                  }
                ],
                "ID": 0
              },
              "PROXIMITY": {
                "ID": "AT",
                "DESCRIPTION": "at"
              }
            }
          },
          "GEOLOC": {
            "ORIGIN": {
              "LATITUDE": 47.597,
              "LONGITUDE": 7.60334
            },
            "TO": [
              {
                "LATITUDE": 47.59654,
                "LONGITUDE": 7.60351
              }
            ]
          },
          "NAVTECH": {
            "EDGE": {
              "EDGE_ID": [
                "1289038668"
              ]
            },
            "VERSION_ID": "202102"
          },
          "LENGTH": 0.03275
        },
        "TRAFFIC_ITEM_DETAIL": {
          "ROAD_CLOSED": false,
          "INCIDENT": {
            "RESPONSE_VEHICLES": false,
            "CONGESTION_INCIDENT": {
              "CONGESTION_TYPE_DESC": "CONGESTION",
              "CONGESTION_FACTOR": 50
            }
          },
          "ALERTC": [
            {
              "EVENT_CODE": 138
            }
          ]
        },
        "TRAFFIC_ITEM_DESCRIPTION": [
          {
            "value": "Bei Weil am Rhein - Stockender Verkehr;; vorsichtig an das Stauende heranfahren.",
            "TYPE": "short_desc"
          },
          {
            "value": "Bei Weil am Rhein - Stockender Verkehr;; vorsichtig an das Stauende heranfahren.",
            "TYPE": "desc"
          },
          {
            "value": "Stockender Verkehr;; vorsichtig an das Stauende heranfahren.",
            "TYPE": "no_exit_description"
          }
        ],
        "mid": "81578340-c74a-4d1e-be6e-404d6a2c66f3|1629608299604",
        "PRODUCT": "basic"
      }
    ]
  },
  "diagnostic": {
    "info": "",
    "sfile": "Incident-E1409-1629608265925.xml.gz|pr1",
    "pdd": "trafficml-incident-24-v13"
  },
  "TIMESTAMP2": "2021-08-22T04:57:46.000+0000",
  "EXTENDED_COUNTRY_CODE": "E1"
}