{
  "TIMESTAMP": "08/24/2021 02:47:46 GMT",
  "VERSION": 2.3,
  "TRAFFIC_ITEMS": {
    "TRAFFIC_ITEM": [
      {
        "TRAFFIC_ITEM_ID": 1160200017623142748,
        "ORIGINAL_TRAFFIC_ITEM_ID": 1739880548730066392,
        "TRAFFIC_ITEM_STATUS_SHORT_DESC": "ACTIVE",
        "TRAFFIC_ITEM_TYPE_DESC": "CONGESTION",
        "START_TIME": "08/24/2021 02:46:49",
        "END_TIME": "08/24/2021 02:58:19",
        "ENTRY_TIME": "08/24/2021 02:47:07",
        "CRITICALITY": {
          "ID": "2",
          "DESCRIPTION": "minor"
        },
        "VERIFIED": true,
        "ABBREVIATION": {
          "SHORT_DESC": "SLOW",
          "DESCRIPTION": "slow"
        },
        "RDS-TMC_LOCATIONS": {
          "RDS-TMC": [
            {
              "ORIGIN": {
                "EBU_COUNTRY_CODE": "D",
                "TABLE_ID": 1,
                "LOCATION_ID": "32604",
                "LOCATION_DESC": "Ortsteil Britz",
                "RDS_DIRECTION": "+"
              },
              "DIRECTION": "-",
              "ALERTC": {
                "TRAFFIC_CODE": 138,
                "QUANTIFIERS": 4,
                "DESCRIPTION": "Stockender Verkehr;; vorsichtig an das Stauende heranfahren.",
                "ALERTC_DURATION": "D",
                "ALERTC_DIRECTION": 1,
                "URGENCY": "U",
                "UPDATE_CLASS": 1,
                "PHRASE_CODE": "A2.Z112",
                "EXTENT": "1",
                "DURATION": 0
              },
              "LENGTH": 0.01687,
              "PRIMARY_OFFSET": 0.5097
            }
          ]
        },
        "LOCATION": {
          "DEFINED": {
            "ORIGIN": {
              "ROADWAY": {
                "DESCRIPTION": [
                  {
                    "value": "Stadtring Berlin",
                    "TYPE": "NTCSA"
                  },
                  {
                    "value": "Stadtring Berlin",
                    "TYPE": "RDSGN"
                  },
                  {
                    "value": "Stadtring Berlin",
                    "TYPE": "LOCAL"
                  }
                ],
                "ID": 50062
              },
              "POINT": {
                "DESCRIPTION": [
                  {
                    "value": "Britzer Damm",
                    "TYPE": "NTCSA"
                  },
                  {
                    "value": "Britzer Damm",
                    "TYPE": "RDSGN"
                  },
                  {
                    "value": "Britzer Damm",
                    "TYPE": "LOCAL"
                  },
                  {
                    "value": "Stadtring Berlin",
                    "TYPE": "BNAME"
                  }
                ],
                "ID": 32604
              },
              "DIRECTION": {
                "DESCRIPTION": [
                  {
                    "value": "WILMERSDORF",
                    "TYPE": "LOCAL"
                  },
                  {
                    "value": "WILMERSDORF",
                    "TYPE": "NTCSA"
                  },
                  {
                    "value": "WILMERSDORF",
                    "TYPE": "RDSGN"
                  }
                ],
                "ID": 0
              },
              "PROXIMITY": {
                "ID": "AT",
                "DESCRIPTION": "at"
              }
            },
            "TO": {
              "ROADWAY": {
                "DESCRIPTION": [
                  {
                    "value": "Stadtring Berlin",
                    "TYPE": "NTCSA"
                  },
                  {
                    "value": "Stadtring Berlin",
                    "TYPE": "RDSGN"
                  },
                  {
                    "value": "Stadtring Berlin",
                    "TYPE": "LOCAL"
                  }
                ],
                "ID": 50062
              },
              "POINT": {
                "DESCRIPTION": [
                  {
                    "value": "Ortsteil Britz",
                    "TYPE": "NTCSA"
                  },
                  {
                    "value": "Ortsteil Britz",
                    "TYPE": "RDSGN"
                  },
                  {
                    "value": "Ortsteil Britz",
                    "TYPE": "LOCAL"
                  },
                  {
                    "value": "Stadtring Berlin",
                    "TYPE": "BNAME"
                  }
                ],
                "ID": 32604
              },
              "DIRECTION": {
                "DESCRIPTION": [
                  {
                    "value": "WILMERSDORF",
                    "TYPE": "LOCAL"
                  },
                  {
                    "value": "WILMERSDORF",
                    "TYPE": "NTCSA"
                  },
                  {
                    "value": "WILMERSDORF",
                    "TYPE": "RDSGN"
                  }
                ],
                "ID": 0
              },
              "PROXIMITY": {
                "ID": "AT",
                "DESCRIPTION": "at"
              }
            }
          },
          "GEOLOC": {
            "ORIGIN": {
              "LATITUDE": 52.46181,
              "LONGITUDE": 13.42871
            },
            "TO": [
              {
                "LATITUDE": 52.46176,
                "LONGITUDE": 13.42836
              }
            ]
          },
          "NAVTECH": {
            "EDGE": {
              "EDGE_ID": [
                "1127234864"
              ]
            },
            "VERSION_ID": "202102"
          },
          "LENGTH": 0.01687
        },
        "TRAFFIC_ITEM_DETAIL": {
          "ROAD_CLOSED": false,
          "INCIDENT": {
            "RESPONSE_VEHICLES": false,
            "CONGESTION_INCIDENT": {
              "CONGESTION_TYPE_DESC": "CONGESTION",
              "CONGESTION_FACTOR": 50
            }
          },
          "ALERTC": [
            {
              "EVENT_CODE": 138
            }
          ]
        },
        "TRAFFIC_ITEM_DESCRIPTION": [
          {
            "value": "Bei Ortsteil Britz - Stockender Verkehr;; vorsichtig an das Stauende heranfahren.",
            "TYPE": "short_desc"
          },
          {
            "value": "Bei Ortsteil Britz - Stockender Verkehr;; vorsichtig an das Stauende heranfahren.",
            "TYPE": "desc"
          },
          {
            "value": "Stockender Verkehr;; vorsichtig an das Stauende heranfahren.",
            "TYPE": "no_exit_description"
          }
        ],
        "mid": "1fdad697-5ff3-44d6-9e10-157d3ed2f03b|1629773227379",
        "PRODUCT": "basic"
      },
      {
        "TRAFFIC_ITEM_ID": 3983299911676115399,
        "ORIGINAL_TRAFFIC_ITEM_ID": 3724037874562290700,
        "TRAFFIC_ITEM_STATUS_SHORT_DESC": "ACTIVE",
        "TRAFFIC_ITEM_TYPE_DESC": "CONGESTION",
        "START_TIME": "08/24/2021 02:46:34",
        "END_TIME": "08/24/2021 02:58:19",
        "ENTRY_TIME": "08/24/2021 02:48:22",
        "CRITICALITY": {
          "ID": "2",
          "DESCRIPTION": "minor"
        },
        "VERIFIED": true,
        "ABBREVIATION": {
          "SHORT_DESC": "SLOW",
          "DESCRIPTION": "slow"
        },
        "RDS-TMC_LOCATIONS": {
          "RDS-TMC": [
            {
              "ORIGIN": {
                "EBU_COUNTRY_CODE": "D",
                "TABLE_ID": 1,
                "LOCATION_ID": "11470",
                "LOCATION_DESC": "Wuppertal-Nord",
                "RDS_DIRECTION": "-"
              },
              "DIRECTION": "+",
              "ALERTC": {
                "TRAFFIC_CODE": 138,
                "QUANTIFIERS": 4,
                "DESCRIPTION": "Stockender Verkehr;; vorsichtig an das Stauende heranfahren.",
                "ALERTC_DURATION": "D",
                "ALERTC_DIRECTION": 1,
                "URGENCY": "U",
                "UPDATE_CLASS": 1,
                "PHRASE_CODE": "A2.Z112",
                "EXTENT": "1",
                "DURATION": 0
              },
              "LENGTH": 0.081,
              "PRIMARY_OFFSET": 0.02228
            }
          ]
        },
        "LOCATION": {
          "DEFINED": {
            "ORIGIN": {
              "ROADWAY": {
                "DESCRIPTION": [
                  {
                    "value": "A46",
                    "TYPE": "NTCSA"
                  },
                  {
                    "value": "A46",
                    "TYPE": "RDSGN"
                  },
                  {
                    "value": "A46",
                    "TYPE": "LOCAL"
                  }
                ],
                "ID": 50120
              },
              "POINT": {
                "DESCRIPTION": [
                  {
                    "value": "Wuppertal-Oberbarmen",
                    "TYPE": "NTCSA"
                  },
                  {
                    "value": "Wuppertal-Oberbarmen",
                    "TYPE": "RDSGN"
                  },
                  {
                    "value": "Wuppertal-Oberbarmen",
                    "TYPE": "LOCAL"
                  },
                  {
                    "value": "A46",
                    "TYPE": "BNAME"
                  }
                ],
                "ID": 11470
              },
              "DIRECTION": {
                "DESCRIPTION": [
                  {
                    "value": "WUPPERTAL",
                    "TYPE": "LOCAL"
                  },
                  {
                    "value": "WUPPERTAL",
                    "TYPE": "NTCSA"
                  },
                  {
                    "value": "WUPPERTAL",
                    "TYPE": "RDSGN"
                  }
                ],
                "ID": 0
              },
              "PROXIMITY": {
                "ID": "AT",
                "DESCRIPTION": "at"
              }
            },
            "TO": {
              "ROADWAY": {
                "DESCRIPTION": [
                  {
                    "value": "A46",
                    "TYPE": "NTCSA"
                  },
                  {
                    "value": "A46",
                    "TYPE": "RDSGN"
                  },
                  {
                    "value": "A46",
                    "TYPE": "LOCAL"
                  }
                ],
                "ID": 50120
              },
              "POINT": {
                "DESCRIPTION": [
                  {
                    "value": "Wuppertal-Nord",
                    "TYPE": "NTCSA"
                  },
                  {
                    "value": "Wuppertal-Nord",
                    "TYPE": "RDSGN"
                  },
                  {
                    "value": "Wuppertal-Nord",
                    "TYPE": "LOCAL"
                  },
                  {
                    "value": "A46",
                    "TYPE": "BNAME"
                  }
                ],
                "ID": 11470
              },
              "DIRECTION": {
                "DESCRIPTION": [
                  {
                    "value": "WUPPERTAL",
                    "TYPE": "LOCAL"
                  },
                  {
                    "value": "WUPPERTAL",
                    "TYPE": "NTCSA"
                  },
                  {
                    "value": "WUPPERTAL",
                    "TYPE": "RDSGN"
                  }
                ],
                "ID": 0
              },
              "PROXIMITY": {
                "ID": "AT",
                "DESCRIPTION": "at"
              }
            }
          },
          "GEOLOC": {
            "ORIGIN": {
              "LATITUDE": 51.31426,
              "LONGITUDE": 7.26657
            },
            "TO": [
              {
                "LATITUDE": 51.31414,
                "LONGITUDE": 7.2684
              }
            ]
          },
          "NAVTECH": {
            "EDGE": {
              "EDGE_ID": [
                "943512879"
              ]
            },
            "VERSION_ID": "202102"
          },
          "LENGTH": 0.081
        },
        "TRAFFIC_ITEM_DETAIL": {
          "ROAD_CLOSED": false,
          "INCIDENT": {
            "RESPONSE_VEHICLES": false,
            "CONGESTION_INCIDENT": {
              "CONGESTION_TYPE_DESC": "CONGESTION",
              "CONGESTION_FACTOR": 50
            }
          },
          "ALERTC": [
            {
              "EVENT_CODE": 138
            }
          ]
        },
        "TRAFFIC_ITEM_DESCRIPTION": [
          {
            "value": "Bei Wuppertal-Nord - Stockender Verkehr;; vorsichtig an das Stauende heranfahren.",
            "TYPE": "short_desc"
          },
          {
            "value": "Bei Wuppertal-Nord - Stockender Verkehr;; vorsichtig an das Stauende heranfahren.",
            "TYPE": "desc"
          },
          {
            "value": "Stockender Verkehr;; vorsichtig an das Stauende heranfahren.",
            "TYPE": "no_exit_description"
          }
        ],
        "mid": "deb0cece-55be-4bef-9816-1d76b73fc46c|1629773302380",
        "PRODUCT": "basic"
      },
      {
        "TRAFFIC_ITEM_ID": 3479325870180591528,
        "ORIGINAL_TRAFFIC_ITEM_ID": 2480883778113744034,
        "TRAFFIC_ITEM_STATUS_SHORT_DESC": "ACTIVE",
        "TRAFFIC_ITEM_TYPE_DESC": "CONGESTION",
        "START_TIME": "08/24/2021 02:21:36",
        "END_TIME": "08/24/2021 02:58:19",
        "ENTRY_TIME": "08/24/2021 02:48:22",
        "CRITICALITY": {
          "ID": "2",
          "DESCRIPTION": "minor"
        },
        "VERIFIED": true,
        "ABBREVIATION": {
          "SHORT_DESC": "SLOW",
          "DESCRIPTION": "slow"
        },
        "RDS-TMC_LOCATIONS": {
          "RDS-TMC": [
            {
              "ORIGIN": {
                "EBU_COUNTRY_CODE": "D",
                "TABLE_ID": 1,
                "LOCATION_ID": "12552",
                "LOCATION_DESC": "Adelsried",
                "RDS_DIRECTION": "-"
              },
              "DIRECTION": "+",
              "ALERTC": {
                "TRAFFIC_CODE": 138,
                "ALERTC_Q_BINARY": "1",
                "QUANTIFIERS": 4,
                "DESCRIPTION": "Stockender Verkehr; Durchschnittsgeschwindigkeit von bis zu 5 km/h; vorsichtig an das Stauende heranfahren.",
                "ALERTC_DURATION": "D",
                "ALERTC_DIRECTION": 1,
                "URGENCY": "U",
                "UPDATE_CLASS": 1,
                "PHRASE_CODE": "A2.Z112",
                "EXTENT": "1",
                "DURATION": 0
              },
              "LENGTH": 0.32697,
              "PRIMARY_OFFSET": 0.61003
            }
          ]
        },
        "LOCATION": {
          "DEFINED": {
            "ORIGIN": {
              "ROADWAY": {
                "DESCRIPTION": [
                  {
                    "value": "A8",
                    "TYPE": "NTCSA"
                  },
                  {
                    "value": "A8",
                    "TYPE": "RDSGN"
                  },
                  {
                    "value": "A8",
                    "TYPE": "LOCAL"
                  }
                ],
                "ID": 50167
              },
              "POINT": {
                "DESCRIPTION": [
                  {
                    "value": "Streitheimer Forst-Nord",
                    "TYPE": "NTCSA"
                  },
                  {
                    "value": "Streitheimer Forst-Nord",
                    "TYPE": "RDSGN"
                  },
                  {
                    "value": "Streitheimer Forst-Nord",
                    "TYPE": "LOCAL"
                  },
                  {
                    "value": "A8",
                    "TYPE": "BNAME"
                  }
                ],
                "ID": 12552
              },
              "DIRECTION": {
                "DESCRIPTION": [
                  {
                    "value": "M\u00dcNCHEN",
                    "TYPE": "LOCAL"
                  },
                  {
                    "value": "M\u00dcNCHEN",
                    "TYPE": "NTCSA"
                  },
                  {
                    "value": "M\u00dcNCHEN",
                    "TYPE": "RDSGN"
                  }
                ],
                "ID": 0
              },
              "PROXIMITY": {
                "ID": "AT",
                "DESCRIPTION": "at"
              }
            },
            "TO": {
              "ROADWAY": {
                "DESCRIPTION": [
                  {
                    "value": "A8",
                    "TYPE": "NTCSA"
                  },
                  {
                    "value": "A8",
                    "TYPE": "RDSGN"
                  },
                  {
                    "value": "A8",
                    "TYPE": "LOCAL"
                  }
                ],
                "ID": 50167
              },
              "POINT": {
                "DESCRIPTION": [
                  {
                    "value": "Adelsried",
                    "TYPE": "NTCSA"
                  },
                  {
                    "value": "Adelsried",
                    "TYPE": "RDSGN"
                  },
                  {
                    "value": "Adelsried",
                    "TYPE": "LOCAL"
                  },
                  {
                    "value": "A8",
                    "TYPE": "BNAME"
                  }
                ],
                "ID": 12552
              },
              "DIRECTION": {
                "DESCRIPTION": [
                  {
                    "value": "M\u00dcNCHEN",
                    "TYPE": "LOCAL"
                  },
                  {
                    "value": "M\u00dcNCHEN",
                    "TYPE": "NTCSA"
                  },
                  {
                    "value": "M\u00dcNCHEN",
                    "TYPE": "RDSGN"
                  }
                ],
                "ID": 0
              },
              "PROXIMITY": {
                "ID": "AT",
                "DESCRIPTION": "at"
              }
            }
          },
          "GEOLOC": {
            "ORIGIN": {
              "LATITUDE": 48.41818,
              "LONGITUDE": 10.70404
            },
            "TO": [
              {
                "LATITUDE": 48.41768,
                "LONGITUDE": 10.71093
              }
            ]
          },
          "NAVTECH": {
            "EDGE": {
              "EDGE_ID": [
                "1272477340"
              ]
            },
            "VERSION_ID": "202102"
          },
          "LENGTH": 0.32697
        },
        "TRAFFIC_ITEM_DETAIL": {
          "ROAD_CLOSED": false,
          "INCIDENT": {
            "RESPONSE_VEHICLES": false,
            "CONGESTION_INCIDENT": {
              "CONGESTION_TYPE_DESC": "CONGESTION",
              "CONGESTION_FACTOR": 50
            }
          },
          "ALERTC": [
            {
              "EVENT_CODE": 138,
              "ALERTC_Q": 1
            }
          ]
        },
        "TRAFFIC_ITEM_DESCRIPTION": [
          {
            "value": "Bei Adelsried - Stockender Verkehr; Durchschnittsgeschwindigkeit von bis zu 5 km/h; vorsichtig an das Stauende heranfahren.",
            "TYPE": "short_desc"
          },
          {
            "value": "Bei Adelsried - Stockender Verkehr; Durchschnittsgeschwindigkeit von bis zu 5 km/h; vorsichtig an das Stauende heranfahren.",
            "TYPE": "desc"
          },
          {
            "value": "Stockender Verkehr; Durchschnittsgeschwindigkeit von bis zu 5 km/h; vorsichtig an das Stauende heranfahren.",
            "TYPE": "no_exit_description"
          }
        ],
        "mid": "76c687a7-46d3-4d3c-9df8-07563f8bfaec|1629773302380",
        "PRODUCT": "basic"
      },
      {
        "TRAFFIC_ITEM_ID": 3164722052936807745,
        "ORIGINAL_TRAFFIC_ITEM_ID": 3780618762981204879,
        "TRAFFIC_ITEM_STATUS_SHORT_DESC": "ACTIVE",
        "TRAFFIC_ITEM_TYPE_DESC": "CONGESTION",
        "START_TIME": "08/24/2021 02:45:04",
        "END_TIME": "08/24/2021 02:58:19",
        "ENTRY_TIME": "08/24/2021 02:45:07",
        "CRITICALITY": {
          "ID": "2",
          "DESCRIPTION": "minor"
        },
        "VERIFIED": true,
        "ABBREVIATION": {
          "SHORT_DESC": "SLOW",
          "DESCRIPTION": "slow"
        },
        "RDS-TMC_LOCATIONS": {
          "RDS-TMC": [
            {
              "ORIGIN": {
                "EBU_COUNTRY_CODE": "D",
                "TABLE_ID": 1,
                "LOCATION_ID": "31620",
                "LOCATION_DESC": "Allach",
                "RDS_DIRECTION": "+"
              },
              "DIRECTION": "-",
              "ALERTC": {
                "TRAFFIC_CODE": 138,
                "QUANTIFIERS": 4,
                "DESCRIPTION": "Stockender Verkehr;; vorsichtig an das Stauende heranfahren.",
                "ALERTC_DURATION": "D",
                "ALERTC_DIRECTION": 1,
                "URGENCY": "U",
                "UPDATE_CLASS": 1,
                "PHRASE_CODE": "A2.Z112",
                "EXTENT": "1",
                "DURATION": 0
              },
              "LENGTH": 0.13583,
              "PRIMARY_OFFSET": 0.28035
            }
          ]
        },
        "LOCATION": {
          "DEFINED": {
            "ORIGIN": {
              "ROADWAY": {
                "DESCRIPTION": [
                  {
                    "value": "Autobahnring M\u00fcnchen",
                    "TYPE": "NTCSA"
                  },
                  {
                    "value": "Autobahnring M\u00fcnchen",
                    "TYPE": "RDSGN"
                  },
                  {
                    "value": "Autobahnring M\u00fcnchen",
                    "TYPE": "LOCAL"
                  }
                ],
                "ID": 50183
              },
              "POINT": {
                "DESCRIPTION": [
                  {
                    "value": "M\u00fcnchen-Ludwigsfeld",
                    "TYPE": "NTCSA"
                  },
                  {
                    "value": "M\u00fcnchen-Ludwigsfeld",
                    "TYPE": "RDSGN"
                  },
                  {
                    "value": "M\u00fcnchen-Ludwigsfeld",
                    "TYPE": "LOCAL"
                  },
                  {
                    "value": "Autobahnring M\u00fcnchen",
                    "TYPE": "BNAME"
                  }
                ],
                "ID": 31620
              },
              "DIRECTION": {
                "DESCRIPTION": [
                  {
                    "value": "M\u00dcNCHEN-S\u00dcD-WEST",
                    "TYPE": "LOCAL"
                  },
                  {
                    "value": "M\u00dcNCHEN-S\u00dcD-WEST",
                    "TYPE": "NTCSA"
                  },
                  {
                    "value": "M\u00dcNCHEN-S\u00dcD-WEST",
                    "TYPE": "RDSGN"
                  }
                ],
                "ID": 0
              },
              "PROXIMITY": {
                "ID": "AT",
                "DESCRIPTION": "at"
              }
            },
            "TO": {
              "ROADWAY": {
                "DESCRIPTION": [
                  {
                    "value": "Autobahnring M\u00fcnchen",
                    "TYPE": "NTCSA"
                  },
                  {
                    "value": "Autobahnring M\u00fcnchen",
                    "TYPE": "RDSGN"
                  },
                  {
                    "value": "Autobahnring M\u00fcnchen",
                    "TYPE": "LOCAL"
                  }
                ],
                "ID": 50183
              },
              "POINT": {
                "DESCRIPTION": [
                  {
                    "value": "Allach",
                    "TYPE": "NTCSA"
                  },
                  {
                    "value": "Allach",
                    "TYPE": "RDSGN"
                  },
                  {
                    "value": "Allach",
                    "TYPE": "LOCAL"
                  },
                  {
                    "value": "Autobahnring M\u00fcnchen",
                    "TYPE": "BNAME"
                  }
                ],
                "ID": 31620
              },
              "DIRECTION": {
                "DESCRIPTION": [
                  {
                    "value": "M\u00dcNCHEN-S\u00dcD-WEST",
                    "TYPE": "LOCAL"
                  },
                  {
                    "value": "M\u00dcNCHEN-S\u00dcD-WEST",
                    "TYPE": "NTCSA"
                  },
                  {
                    "value": "M\u00dcNCHEN-S\u00dcD-WEST",
                    "TYPE": "RDSGN"
                  }
                ],
                "ID": 0
              },
              "PROXIMITY": {
                "ID": "AT",
                "DESCRIPTION": "at"
              }
            }
          },
          "GEOLOC": {
            "ORIGIN": {
              "LATITUDE": 48.20765,
              "LONGITUDE": 11.46171
            },
            "TO": [
              {
                "LATITUDE": 48.20634,
                "LONGITUDE": 11.45956
              }
            ]
          },
          "NAVTECH": {
            "EDGE": {
              "EDGE_ID": [
                "1225525831"
              ]
            },
            "VERSION_ID": "202102"
          },
          "LENGTH": 0.13583
        },
        "TRAFFIC_ITEM_DETAIL": {
          "ROAD_CLOSED": false,
          "INCIDENT": {
            "RESPONSE_VEHICLES": false,
            "CONGESTION_INCIDENT": {
              "CONGESTION_TYPE_DESC": "CONGESTION",
              "CONGESTION_FACTOR": 50
            }
          },
          "ALERTC": [
            {
              "EVENT_CODE": 138
            }
          ]
        },
        "TRAFFIC_ITEM_DESCRIPTION": [
          {
            "value": "Bei Allach - Stockender Verkehr;; vorsichtig an das Stauende heranfahren.",
            "TYPE": "short_desc"
          },
          {
            "value": "Bei Allach - Stockender Verkehr;; vorsichtig an das Stauende heranfahren.",
            "TYPE": "desc"
          },
          {
            "value": "Stockender Verkehr;; vorsichtig an das Stauende heranfahren.",
            "TYPE": "no_exit_description"
          }
        ],
        "mid": "4b7e9cc7-e092-4baa-b125-69ac4af661da|1629773107379",
        "PRODUCT": "basic"
      },
      {
        "TRAFFIC_ITEM_ID": 1849350300182058702,
        "ORIGINAL_TRAFFIC_ITEM_ID": 2689693710593673663,
        "TRAFFIC_ITEM_STATUS_SHORT_DESC": "ACTIVE",
        "TRAFFIC_ITEM_TYPE_DESC": "CONGESTION",
        "START_TIME": "08/24/2021 02:45:34",
        "END_TIME": "08/24/2021 02:58:19",
        "ENTRY_TIME": "08/24/2021 02:48:22",
        "CRITICALITY": {
          "ID": "2",
          "DESCRIPTION": "minor"
        },
        "VERIFIED": true,
        "ABBREVIATION": {
          "SHORT_DESC": "SLOW",
          "DESCRIPTION": "slow"
        },
        "RDS-TMC_LOCATIONS": {
          "RDS-TMC": [
            {
              "ORIGIN": {
                "EBU_COUNTRY_CODE": "D",
                "TABLE_ID": 1,
                "LOCATION_ID": "32614",
                "LOCATION_DESC": "Rudower H\u00f6he",
                "RDS_DIRECTION": "-"
              },
              "DIRECTION": "+",
              "ALERTC": {
                "TRAFFIC_CODE": 138,
                "QUANTIFIERS": 4,
                "DESCRIPTION": "Stockender Verkehr;; vorsichtig an das Stauende heranfahren.",
                "ALERTC_DURATION": "D",
                "ALERTC_DIRECTION": 1,
                "URGENCY": "U",
                "UPDATE_CLASS": 1,
                "PHRASE_CODE": "A2.Z112",
                "EXTENT": "1",
                "DURATION": 0
              },
              "LENGTH": 0.02304,
              "PRIMARY_OFFSET": 0.54258
            }
          ]
        },
        "LOCATION": {
          "DEFINED": {
            "ORIGIN": {
              "ROADWAY": {
                "DESCRIPTION": [
                  {
                    "value": "Autobahnzubringer Dresden",
                    "TYPE": "NTCSA"
                  },
                  {
                    "value": "Autobahnzubringer Dresden",
                    "TYPE": "RDSGN"
                  },
                  {
                    "value": "Autobahnzubringer Dresden",
                    "TYPE": "LOCAL"
                  }
                ],
                "ID": 32603
              },
              "POINT": {
                "DESCRIPTION": [
                  {
                    "value": "Adlershof",
                    "TYPE": "NTCSA"
                  },
                  {
                    "value": "Adlershof",
                    "TYPE": "RDSGN"
                  },
                  {
                    "value": "Adlershof",
                    "TYPE": "LOCAL"
                  },
                  {
                    "value": "Autobahnzubringer Dresden",
                    "TYPE": "BNAME"
                  }
                ],
                "ID": 32614
              },
              "DIRECTION": {
                "DESCRIPTION": [
                  {
                    "value": "SCH\u00d6NEFELD",
                    "TYPE": "LOCAL"
                  },
                  {
                    "value": "SCH\u00d6NEFELD",
                    "TYPE": "NTCSA"
                  },
                  {
                    "value": "SCH\u00d6NEFELD",
                    "TYPE": "RDSGN"
                  }
                ],
                "ID": 0
              },
              "PROXIMITY": {
                "ID": "AT",
                "DESCRIPTION": "at"
              }
            },
            "TO": {
              "ROADWAY": {
                "DESCRIPTION": [
                  {
                    "value": "Autobahnzubringer Dresden",
                    "TYPE": "NTCSA"
                  },
                  {
                    "value": "Autobahnzubringer Dresden",
                    "TYPE": "RDSGN"
                  },
                  {
                    "value": "Autobahnzubringer Dresden",
                    "TYPE": "LOCAL"
                  }
                ],
                "ID": 32603
              },
              "POINT": {
                "DESCRIPTION": [
                  {
                    "value": "Rudower H\u00f6he",
                    "TYPE": "NTCSA"
                  },
                  {
                    "value": "Rudower H\u00f6he",
                    "TYPE": "RDSGN"
                  },
                  {
                    "value": "Rudower H\u00f6he",
                    "TYPE": "LOCAL"
                  },
                  {
                    "value": "Autobahnzubringer Dresden",
                    "TYPE": "BNAME"
                  }
                ],
                "ID": 32614
              },
              "DIRECTION": {
                "DESCRIPTION": [
                  {
                    "value": "SCH\u00d6NEFELD",
                    "TYPE": "LOCAL"
                  },
                  {
                    "value": "SCH\u00d6NEFELD",
                    "TYPE": "NTCSA"
                  },
                  {
                    "value": "SCH\u00d6NEFELD",
                    "TYPE": "RDSGN"
                  }
                ],
                "ID": 0
              },
              "PROXIMITY": {
                "ID": "AT",
                "DESCRIPTION": "at"
              }
            }
          },
          "GEOLOC": {
            "ORIGIN": {
              "LATITUDE": 52.4209,
              "LONGITUDE": 13.52184
            },
            "TO": [
              {
                "LATITUDE": 52.42057,
                "LONGITUDE": 13.52187
              }
            ]
          },
          "NAVTECH": {
            "EDGE": {
              "EDGE_ID": [
                "759254713"
              ]
            },
            "VERSION_ID": "202102"
          },
          "LENGTH": 0.02304
        },
        "TRAFFIC_ITEM_DETAIL": {
          "ROAD_CLOSED": false,
          "INCIDENT": {
            "RESPONSE_VEHICLES": false,
            "CONGESTION_INCIDENT": {
              "CONGESTION_TYPE_DESC": "CONGESTION",
              "CONGESTION_FACTOR": 50
            }
          },
          "ALERTC": [
            {
              "EVENT_CODE": 138
            }
          ]
        },
        "TRAFFIC_ITEM_DESCRIPTION": [
          {
            "value": "Bei Rudower H\u00f6he - Stockender Verkehr;; vorsichtig an das Stauende heranfahren.",
            "TYPE": "short_desc"
          },
          {
            "value": "Bei Rudower H\u00f6he - Stockender Verkehr;; vorsichtig an das Stauende heranfahren.",
            "TYPE": "desc"
          },
          {
            "value": "Stockender Verkehr;; vorsichtig an das Stauende heranfahren.",
            "TYPE": "no_exit_description"
          }
        ],
        "mid": "710214ec-b99b-4fb1-b2ec-bf4652b5f38d|1629773302380",
        "PRODUCT": "basic"
      },
      {
        "TRAFFIC_ITEM_ID": 2951964375768140322,
        "ORIGINAL_TRAFFIC_ITEM_ID": 3834029047532121510,
        "TRAFFIC_ITEM_STATUS_SHORT_DESC": "ACTIVE",
        "TRAFFIC_ITEM_TYPE_DESC": "CONGESTION",
        "START_TIME": "08/24/2021 02:38:34",
        "END_TIME": "08/24/2021 02:58:19",
        "ENTRY_TIME": "08/24/2021 02:48:22",
        "CRITICALITY": {
          "ID": "2",
          "DESCRIPTION": "minor"
        },
        "VERIFIED": true,
        "ABBREVIATION": {
          "SHORT_DESC": "SLOW",
          "DESCRIPTION": "slow"
        },
        "RDS-TMC_LOCATIONS": {
          "RDS-TMC": [
            {
              "ORIGIN": {
                "EBU_COUNTRY_CODE": "D",
                "TABLE_ID": 1,
                "LOCATION_ID": "32604",
                "LOCATION_DESC": "Ortsteil Britz",
                "RDS_DIRECTION": "-"
              },
              "DIRECTION": "+",
              "ALERTC": {
                "TRAFFIC_CODE": 138,
                "QUANTIFIERS": 4,
                "DESCRIPTION": "Stockender Verkehr;; vorsichtig an das Stauende heranfahren.",
                "ALERTC_DURATION": "D",
                "ALERTC_DIRECTION": 1,
                "URGENCY": "U",
                "UPDATE_CLASS": 1,
                "PHRASE_CODE": "A2.Z112",
                "EXTENT": "1",
                "DURATION": 0
              },
              "LENGTH": 0.05258,
              "PRIMARY_OFFSET": 0.09221
            }
          ]
        },
        "LOCATION": {
          "DEFINED": {
            "ORIGIN": {
              "ROADWAY": {
                "DESCRIPTION": [
                  {
                    "value": "Stadtring Berlin",
                    "TYPE": "NTCSA"
                  },
                  {
                    "value": "Stadtring Berlin",
                    "TYPE": "RDSGN"
                  },
                  {
                    "value": "Stadtring Berlin",
                    "TYPE": "LOCAL"
                  }
                ],
                "ID": 50062
              },
              "POINT": {
                "DESCRIPTION": [
                  {
                    "value": "Gradestra\u00dfe",
                    "TYPE": "NTCSA"
                  },
                  {
                    "value": "Gradestra\u00dfe",
                    "TYPE": "RDSGN"
                  },
                  {
                    "value": "Gradestra\u00dfe",
                    "TYPE": "LOCAL"
                  },
                  {
                    "value": "Stadtring Berlin",
                    "TYPE": "BNAME"
                  }
                ],
                "ID": 32604
              },
              "DIRECTION": {
                "DESCRIPTION": [
                  {
                    "value": "NEUK\u00d6LLN",
                    "TYPE": "LOCAL"
                  },
                  {
                    "value": "NEUK\u00d6LLN",
                    "TYPE": "NTCSA"
                  },
                  {
                    "value": "NEUK\u00d6LLN",
                    "TYPE": "RDSGN"
                  }
                ],
                "ID": 0
              },
              "PROXIMITY": {
                "ID": "AT",
                "DESCRIPTION": "at"
              }
            },
            "TO": {
              "ROADWAY": {
                "DESCRIPTION": [
                  {
                    "value": "Stadtring Berlin",
                    "TYPE": "NTCSA"
                  },
                  {
                    "value": "Stadtring Berlin",
                    "TYPE": "RDSGN"
                  },
                  {
                    "value": "Stadtring Berlin",
                    "TYPE": "LOCAL"
                  }
                ],
                "ID": 50062
              },
              "POINT": {
                "DESCRIPTION": [
                  {
                    "value": "Ortsteil Britz",
                    "TYPE": "NTCSA"
                  },
                  {
                    "value": "Ortsteil Britz",
                    "TYPE": "RDSGN"
                  },
                  {
                    "value": "Ortsteil Britz",
                    "TYPE": "LOCAL"
                  },
                  {
                    "value": "Stadtring Berlin",
                    "TYPE": "BNAME"
                  }
                ],
                "ID": 32604
              },
              "DIRECTION": {
                "DESCRIPTION": [
                  {
                    "value": "NEUK\u00d6LLN",
                    "TYPE": "LOCAL"
                  },
                  {
                    "value": "NEUK\u00d6LLN",
                    "TYPE": "NTCSA"
                  },
                  {
                    "value": "NEUK\u00d6LLN",
                    "TYPE": "RDSGN"
                  }
                ],
                "ID": 0
              },
              "PROXIMITY": {
                "ID": "AT",
                "DESCRIPTION": "at"
              }
            }
          },
          "GEOLOC": {
            "ORIGIN": {
              "LATITUDE": 52.46124,
              "LONGITUDE": 13.42438
            },
            "TO": [
              {
                "LATITUDE": 52.46124,
                "LONGITUDE": 13.42559
              }
            ]
          },
          "NAVTECH": {
            "EDGE": {
              "EDGE_ID": [
                "936938338"
              ]
            },
            "VERSION_ID": "202102"
          },
          "LENGTH": 0.05258
        },
        "TRAFFIC_ITEM_DETAIL": {
          "ROAD_CLOSED": false,
          "INCIDENT": {
            "RESPONSE_VEHICLES": false,
            "CONGESTION_INCIDENT": {
              "CONGESTION_TYPE_DESC": "CONGESTION",
              "CONGESTION_FACTOR": 50
            }
          },
          "ALERTC": [
            {
              "EVENT_CODE": 138
            }
          ]
        },
        "TRAFFIC_ITEM_DESCRIPTION": [
          {
            "value": "Bei Ortsteil Britz - Stockender Verkehr;; vorsichtig an das Stauende heranfahren.",
            "TYPE": "short_desc"
          },
          {
            "value": "Bei Ortsteil Britz - Stockender Verkehr;; vorsichtig an das Stauende heranfahren.",
            "TYPE": "desc"
          },
          {
            "value": "Stockender Verkehr;; vorsichtig an das Stauende heranfahren.",
            "TYPE": "no_exit_description"
          }
        ],
        "mid": "3bff50ac-ae70-46c7-86f0-39b4e1df64cb|1629773302380",
        "PRODUCT": "basic"
      },
      {
        "TRAFFIC_ITEM_ID": 1452913539619545334,
        "ORIGINAL_TRAFFIC_ITEM_ID": 2404814552808822264,
        "TRAFFIC_ITEM_STATUS_SHORT_DESC": "ACTIVE",
        "TRAFFIC_ITEM_TYPE_DESC": "CONGESTION",
        "START_TIME": "08/24/2021 02:47:49",
        "END_TIME": "08/24/2021 02:58:19",
        "ENTRY_TIME": "08/24/2021 02:48:22",
        "CRITICALITY": {
          "ID": "2",
          "DESCRIPTION": "minor"
        },
        "VERIFIED": true,
        "ABBREVIATION": {
          "SHORT_DESC": "SLOW",
          "DESCRIPTION": "slow"
        },
        "RDS-TMC_LOCATIONS": {
          "RDS-TMC": [
            {
              "ORIGIN": {
                "EBU_COUNTRY_CODE": "D",
                "TABLE_ID": 1,
                "LOCATION_ID": "14614",
                "LOCATION_DESC": "Schnelsen",
                "RDS_DIRECTION": "+"
              },
              "DIRECTION": "-",
              "ALERTC": {
                "TRAFFIC_CODE": 138,
                "QUANTIFIERS": 4,
                "DESCRIPTION": "Stockender Verkehr;; vorsichtig an das Stauende heranfahren.",
                "ALERTC_DURATION": "D",
                "ALERTC_DIRECTION": 1,
                "URGENCY": "U",
                "UPDATE_CLASS": 1,
                "PHRASE_CODE": "A2.Z112",
                "EXTENT": "1",
                "DURATION": 0
              },
              "LENGTH": 0.10688,
              "PRIMARY_OFFSET": 0.0
            }
          ]
        },
        "LOCATION": {
          "DEFINED": {
            "ORIGIN": {
              "ROADWAY": {
                "DESCRIPTION": [
                  {
                    "value": "A7",
                    "TYPE": "NTCSA"
                  },
                  {
                    "value": "A7",
                    "TYPE": "RDSGN"
                  },
                  {
                    "value": "A7",
                    "TYPE": "LOCAL"
                  }
                ],
                "ID": 50163
              },
              "POINT": {
                "DESCRIPTION": [
                  {
                    "value": "Hamburg-Schnelsen",
                    "TYPE": "NTCSA"
                  },
                  {
                    "value": "Hamburg-Schnelsen",
                    "TYPE": "RDSGN"
                  },
                  {
                    "value": "Hamburg-Schnelsen",
                    "TYPE": "LOCAL"
                  },
                  {
                    "value": "A7",
                    "TYPE": "BNAME"
                  }
                ],
                "ID": 14614
              },
              "DIRECTION": {
                "DESCRIPTION": [
                  {
                    "value": "HAMBURG",
                    "TYPE": "LOCAL"
                  },
                  {
                    "value": "HAMBURG",
                    "TYPE": "NTCSA"
                  },
                  {
                    "value": "HAMBURG",
                    "TYPE": "RDSGN"
                  }
                ],
                "ID": 0
              },
              "PROXIMITY": {
                "ID": "AT",
                "DESCRIPTION": "at"
              }
            },
            "TO": {
              "ROADWAY": {
                "DESCRIPTION": [
                  {
                    "value": "A7",
                    "TYPE": "NTCSA"
                  },
                  {
                    "value": "A7",
                    "TYPE": "RDSGN"
                  },
                  {
                    "value": "A7",
                    "TYPE": "LOCAL"
                  }
                ],
                "ID": 50163
              },
              "POINT": {
                "DESCRIPTION": [
                  {
                    "value": "Schnelsen",
                    "TYPE": "NTCSA"
                  },
                  {
                    "value": "Schnelsen",
                    "TYPE": "RDSGN"
                  },
                  {
                    "value": "Schnelsen",
                    "TYPE": "LOCAL"
                  },
                  {
                    "value": "A7",
                    "TYPE": "BNAME"
                  }
                ],
                "ID": 14614
              },
              "DIRECTION": {
                "DESCRIPTION": [
                  {
                    "value": "HAMBURG",
                    "TYPE": "LOCAL"
                  },
                  {
                    "value": "HAMBURG",
                    "TYPE": "NTCSA"
                  },
                  {
                    "value": "HAMBURG",
                    "TYPE": "RDSGN"
                  }
                ],
                "ID": 0
              },
              "PROXIMITY": {
                "ID": "AT",
                "DESCRIPTION": "at"
              }
            }
          },
          "GEOLOC": {
            "ORIGIN": {
              "LATITUDE": 53.63265,
              "LONGITUDE": 9.92299
            },
            "TO": [
              {
                "LATITUDE": 53.63113,
                "LONGITUDE": 9.92252
              }
            ]
          },
          "NAVTECH": {
            "EDGE": {
              "EDGE_ID": [
                "1286110773"
              ]
            },
            "VERSION_ID": "202102"
          },
          "LENGTH": 0.10688
        },
        "TRAFFIC_ITEM_DETAIL": {
          "ROAD_CLOSED": false,
          "INCIDENT": {
            "RESPONSE_VEHICLES": false,
            "CONGESTION_INCIDENT": {
              "CONGESTION_TYPE_DESC": "CONGESTION",
              "CONGESTION_FACTOR": 50
            }
          },
          "ALERTC": [
            {
              "EVENT_CODE": 138
            }
          ]
        },
        "TRAFFIC_ITEM_DESCRIPTION": [
          {
            "value": "Bei Schnelsen - Stockender Verkehr;; vorsichtig an das Stauende heranfahren.",
            "TYPE": "short_desc"
          },
          {
            "value": "Bei Schnelsen - Stockender Verkehr;; vorsichtig an das Stauende heranfahren.",
            "TYPE": "desc"
          },
          {
            "value": "Stockender Verkehr;; vorsichtig an das Stauende heranfahren.",
            "TYPE": "no_exit_description"
          }
        ],
        "mid": "193c65a2-69c0-46b8-bd7f-3244eab0a3be|1629773302380",
        "PRODUCT": "basic"
      }
    ]
  },
  "diagnostic": {
    "info": "",
    "sfile": "Incident-E1409-1629773265925.xml.gz|pr1",
    "pdd": "trafficml-incident-24-v13"
  },
  "TIMESTAMP2": "2021-08-24T02:47:46.000+0000",
  "EXTENDED_COUNTRY_CODE": "E1"
}