{
  "TIMESTAMP": "08/25/2021 00:17:44 GMT",
  "VERSION": 2.3,
  "TRAFFIC_ITEMS": {
    "TRAFFIC_ITEM": [
      {
        "TRAFFIC_ITEM_ID": 1110894764059205962,
        "ORIGINAL_TRAFFIC_ITEM_ID": 4618727989449441635,
        "TRAFFIC_ITEM_STATUS_SHORT_DESC": "ACTIVE",
        "TRAFFIC_ITEM_TYPE_DESC": "CONGESTION",
        "START_TIME": "08/25/2021 00:12:31",
        "END_TIME": "08/25/2021 00:27:46",
        "ENTRY_TIME": "08/25/2021 00:17:47",
        "CRITICALITY": {
          "ID": "2",
          "DESCRIPTION": "minor"
        },
        "VERIFIED": true,
        "ABBREVIATION": {
          "SHORT_DESC": "SLOW",
          "DESCRIPTION": "slow"
        },
        "RDS-TMC_LOCATIONS": {
          "RDS-TMC": [
            {
              "ORIGIN": {
                "EBU_COUNTRY_CODE": "A",
                "TABLE_ID": 1,
                "LOCATION_ID": "31280",
                "LOCATION_DESC": "St. Michael im Lungau",
                "RDS_DIRECTION": "+"
              },
              "DIRECTION": "-",
              "ALERTC": {
                "TRAFFIC_CODE": 138,
                "QUANTIFIERS": 4,
                "DESCRIPTION": "Stockender Verkehr;; vorsichtig an das Stauende heranfahren.",
                "ALERTC_DURATION": "D",
                "ALERTC_DIRECTION": 1,
                "URGENCY": "U",
                "UPDATE_CLASS": 1,
                "PHRASE_CODE": "A2.Z112",
                "EXTENT": "1",
                "DURATION": 0
              },
              "LENGTH": 0.01587,
              "PRIMARY_OFFSET": 0.37325
            }
          ]
        },
        "LOCATION": {
          "DEFINED": {
            "ORIGIN": {
              "ROADWAY": {
                "DESCRIPTION": [
                  {
                    "value": "Tauern Autobahn",
                    "TYPE": "NTCSA"
                  },
                  {
                    "value": "Tauern Autobahn",
                    "TYPE": "RDSGN"
                  },
                  {
                    "value": "Tauern Autobahn",
                    "TYPE": "LOCAL"
                  }
                ],
                "ID": 30566
              },
              "POINT": {
                "DESCRIPTION": [
                  {
                    "value": "Mautstelle St. Michael im Lungau",
                    "TYPE": "NTCSA"
                  },
                  {
                    "value": "Mautstelle St. Michael im Lungau",
                    "TYPE": "RDSGN"
                  },
                  {
                    "value": "Mautstelle St. Michael im Lungau",
                    "TYPE": "LOCAL"
                  },
                  {
                    "value": "Tauern Autobahn",
                    "TYPE": "BNAME"
                  }
                ],
                "ID": 31280
              },
              "DIRECTION": {
                "DESCRIPTION": [
                  {
                    "value": "SALZBURG",
                    "TYPE": "LOCAL"
                  },
                  {
                    "value": "SALZBURG",
                    "TYPE": "NTCSA"
                  },
                  {
                    "value": "SALZBURG",
                    "TYPE": "RDSGN"
                  }
                ],
                "ID": 0
              },
              "PROXIMITY": {
                "ID": "AT",
                "DESCRIPTION": "at"
              }
            },
            "TO": {
              "ROADWAY": {
                "DESCRIPTION": [
                  {
                    "value": "Tauern Autobahn",
                    "TYPE": "NTCSA"
                  },
                  {
                    "value": "Tauern Autobahn",
                    "TYPE": "RDSGN"
                  },
                  {
                    "value": "Tauern Autobahn",
                    "TYPE": "LOCAL"
                  }
                ],
                "ID": 30566
              },
              "POINT": {
                "DESCRIPTION": [
                  {
                    "value": "St. Michael im Lungau",
                    "TYPE": "NTCSA"
                  },
                  {
                    "value": "St. Michael im Lungau",
                    "TYPE": "RDSGN"
                  },
                  {
                    "value": "St. Michael im Lungau",
                    "TYPE": "LOCAL"
                  },
                  {
                    "value": "Tauern Autobahn",
                    "TYPE": "BNAME"
                  }
                ],
                "ID": 31280
              },
              "DIRECTION": {
                "DESCRIPTION": [
                  {
                    "value": "SALZBURG",
                    "TYPE": "LOCAL"
                  },
                  {
                    "value": "SALZBURG",
                    "TYPE": "NTCSA"
                  },
                  {
                    "value": "SALZBURG",
                    "TYPE": "RDSGN"
                  }
                ],
                "ID": 0
              },
              "PROXIMITY": {
                "ID": "AT",
                "DESCRIPTION": "at"
              }
            }
          },
          "GEOLOC": {
            "ORIGIN": {
              "LATITUDE": 47.093,
              "LONGITUDE": 13.6099
            },
            "TO": [
              {
                "LATITUDE": 47.09323,
                "LONGITUDE": 13.6099
              }
            ]
          },
          "NAVTECH": {
            "EDGE": {
              "EDGE_ID": [
                "1210466111"
              ]
            },
            "VERSION_ID": "202102"
          },
          "LENGTH": 0.01587
        },
        "TRAFFIC_ITEM_DETAIL": {
          "ROAD_CLOSED": false,
          "INCIDENT": {
            "RESPONSE_VEHICLES": false,
            "CONGESTION_INCIDENT": {
              "CONGESTION_TYPE_DESC": "CONGESTION",
              "CONGESTION_FACTOR": 50
            }
          },
          "ALERTC": [
            {
              "EVENT_CODE": 138
            }
          ]
        },
        "TRAFFIC_ITEM_DESCRIPTION": [
          {
            "value": "Bei St. Michael im Lungau - Stockender Verkehr;; vorsichtig an das Stauende heranfahren.",
            "TYPE": "short_desc"
          },
          {
            "value": "Bei St. Michael im Lungau - Stockender Verkehr;; vorsichtig an das Stauende heranfahren.",
            "TYPE": "desc"
          },
          {
            "value": "Stockender Verkehr;; vorsichtig an das Stauende heranfahren.",
            "TYPE": "no_exit_description"
          }
        ],
        "mid": "506b65cf-b493-442e-a80f-18453529d770|1629850667379",
        "PRODUCT": "basic"
      },
      {
        "TRAFFIC_ITEM_ID": 2151579276242001112,
        "ORIGINAL_TRAFFIC_ITEM_ID": 2829805019900544434,
        "TRAFFIC_ITEM_STATUS_SHORT_DESC": "ACTIVE",
        "TRAFFIC_ITEM_TYPE_DESC": "CONGESTION",
        "START_TIME": "08/25/2021 00:13:32",
        "END_TIME": "08/25/2021 00:27:32",
        "ENTRY_TIME": "08/25/2021 00:17:37",
        "CRITICALITY": {
          "ID": "2",
          "DESCRIPTION": "minor"
        },
        "VERIFIED": true,
        "ABBREVIATION": {
          "SHORT_DESC": "SLOW",
          "DESCRIPTION": "slow"
        },
        "RDS-TMC_LOCATIONS": {
          "RDS-TMC": [
            {
              "ORIGIN": {
                "EBU_COUNTRY_CODE": "3",
                "TABLE_ID": 5,
                "LOCATION_ID": "13415",
                "LOCATION_DESC": "PPO Tarnawa",
                "RDS_DIRECTION": "+"
              },
              "DIRECTION": "-",
              "ALERTC": {
                "TRAFFIC_CODE": 138,
                "QUANTIFIERS": 4,
                "DESCRIPTION": "Zag\u0119szczaj\u0105cy si\u0119 ruch. Doje\u017cd\u017ca\u0107 ostro\u017cnie.",
                "ALERTC_DURATION": "D",
                "ALERTC_DIRECTION": 1,
                "URGENCY": "U",
                "UPDATE_CLASS": 1,
                "PHRASE_CODE": "A2.Z112",
                "EXTENT": "1",
                "DURATION": 0
              },
              "LENGTH": 0.01763,
              "PRIMARY_OFFSET": 0.04191
            }
          ]
        },
        "LOCATION": {
          "DEFINED": {
            "ORIGIN": {
              "ROADWAY": {
                "DESCRIPTION": [
                  {
                    "value": "A2",
                    "TYPE": "NTCSA"
                  },
                  {
                    "value": "A2",
                    "TYPE": "RDSGN"
                  },
                  {
                    "value": "A2",
                    "TYPE": "LOCAL"
                  }
                ],
                "ID": 25044
              },
              "POINT": {
                "DESCRIPTION": [
                  {
                    "value": "W\u0119ze\u0142 Torzym",
                    "TYPE": "NTCSA"
                  },
                  {
                    "value": "W\u0119ze\u0142 Torzym",
                    "TYPE": "RDSGN"
                  },
                  {
                    "value": "W\u0119ze\u0142 Torzym",
                    "TYPE": "LOCAL"
                  },
                  {
                    "value": "A2",
                    "TYPE": "BNAME"
                  }
                ],
                "ID": 13415
              },
              "DIRECTION": {
                "DESCRIPTION": [
                  {
                    "value": "\u015aWIECKO",
                    "TYPE": "LOCAL"
                  },
                  {
                    "value": "\u015aWIECKO",
                    "TYPE": "NTCSA"
                  },
                  {
                    "value": "\u015aWIECKO",
                    "TYPE": "RDSGN"
                  }
                ],
                "ID": 0
              },
              "PROXIMITY": {
                "ID": "AT",
                "DESCRIPTION": "at"
              }
            },
            "TO": {
              "ROADWAY": {
                "DESCRIPTION": [
                  {
                    "value": "A2",
                    "TYPE": "NTCSA"
                  },
                  {
                    "value": "A2",
                    "TYPE": "RDSGN"
                  },
                  {
                    "value": "A2",
                    "TYPE": "LOCAL"
                  }
                ],
                "ID": 25044
              },
              "POINT": {
                "DESCRIPTION": [
                  {
                    "value": "PPO Tarnawa",
                    "TYPE": "NTCSA"
                  },
                  {
                    "value": "PPO Tarnawa",
                    "TYPE": "RDSGN"
                  },
                  {
                    "value": "PPO Tarnawa",
                    "TYPE": "LOCAL"
                  },
                  {
                    "value": "A2",
                    "TYPE": "BNAME"
                  }
                ],
                "ID": 13415
              },
              "DIRECTION": {
                "DESCRIPTION": [
                  {
                    "value": "\u015aWIECKO",
                    "TYPE": "LOCAL"
                  },
                  {
                    "value": "\u015aWIECKO",
                    "TYPE": "NTCSA"
                  },
                  {
                    "value": "\u015aWIECKO",
                    "TYPE": "RDSGN"
                  }
                ],
                "ID": 0
              },
              "PROXIMITY": {
                "ID": "AT",
                "DESCRIPTION": "at"
              }
            }
          },
          "GEOLOC": {
            "ORIGIN": {
              "LATITUDE": 52.33504,
              "LONGITUDE": 14.90402
            },
            "TO": [
              {
                "LATITUDE": 52.33508,
                "LONGITUDE": 14.90361
              }
            ]
          },
          "NAVTECH": {
            "EDGE": {
              "EDGE_ID": [
                "1175304658"
              ]
            },
            "VERSION_ID": "202102"
          },
          "LENGTH": 0.01763
        },
        "TRAFFIC_ITEM_DETAIL": {
          "ROAD_CLOSED": false,
          "INCIDENT": {
            "RESPONSE_VEHICLES": false,
            "CONGESTION_INCIDENT": {
              "CONGESTION_TYPE_DESC": "CONGESTION",
              "CONGESTION_FACTOR": 50
            }
          },
          "ALERTC": [
            {
              "EVENT_CODE": 138
            }
          ]
        },
        "TRAFFIC_ITEM_DESCRIPTION": [
          {
            "value": "Przy PPO Tarnawa - Zag\u0119szczaj\u0105cy si\u0119 ruch. Doje\u017cd\u017ca\u0107 ostro\u017cnie.",
            "TYPE": "short_desc"
          },
          {
            "value": "Przy PPO Tarnawa - Zag\u0119szczaj\u0105cy si\u0119 ruch. Doje\u017cd\u017ca\u0107 ostro\u017cnie.",
            "TYPE": "desc"
          },
          {
            "value": "Zag\u0119szczaj\u0105cy si\u0119 ruch. Doje\u017cd\u017ca\u0107 ostro\u017cnie.",
            "TYPE": "no_exit_description"
          }
        ],
        "mid": "6bc584a8-9c0e-4c30-8c2a-8119f386df2c|1629850657380",
        "PRODUCT": "basic"
      }
    ]
  },
  "diagnostic": {
    "info": "",
    "sfile": "Incident-E2305-1629850664611.xml.gz|pr1",
    "pdd": "trafficml-incident-24-v13"
  },
  "TIMESTAMP2": "2021-08-25T00:17:44.000+0000",
  "EXTENDED_COUNTRY_CODE": "E2"
}